work2_1/simulation/qsim/work2_1.msim.vcd
$comment
	File created using the following command:
		vcd file work2_1.msim.vcd -direction
$end
$date
	Mon Mar 12 11:23:55 2018
$end
$version
	ModelSim Version 10.5b
$end
$timescale
	1ps
$end

$scope module work2_1_vlg_vec_tst $end
$var reg 4 ! dp [3:0] $end
$var reg 3 " s [2:0] $end
$var reg 4 # sw [3:0] $end
$var wire 1 $ led $end

$scope module i1 $end
$var wire 1 % gnd $end
$var wire 1 & vcc $end
$var wire 1 ' unknown $end
$var tri1 1 ( devclrn $end
$var tri1 1 ) devpor $end
$var tri1 1 * devoe $end
$var wire 1 + led~output_o $end
$var wire 1 , sw[3]~input_o $end
$var wire 1 - s[1]~input_o $end
$var wire 1 . sw[2]~input_o $end
$var wire 1 / Mux0~2_combout $end
$var wire 1 0 s[0]~input_o $end
$var wire 1 1 sw[1]~input_o $end
$var wire 1 2 sw[0]~input_o $end
$var wire 1 3 Mux0~3_combout $end
$var wire 1 4 Mux0~4_combout $end
$var wire 1 5 dp[0]~input_o $end
$var wire 1 6 Mux0~5_combout $end
$var wire 1 7 led~0_combout $end
$var wire 1 8 dp[2]~input_o $end
$var wire 1 9 dp[3]~input_o $end
$var wire 1 : dp[1]~input_o $end
$var wire 1 ; Mux0~0_combout $end
$var wire 1 < Mux0~1_combout $end
$var wire 1 = s[2]~input_o $end
$var wire 1 > Mux0~6_combout $end
$upscope $end
$upscope $end
$enddefinitions $end
#0
$dumpvars
b0 !
b0 "
b0 #
0$
0%
1&
x'
1(
1)
1*
0+
0,
0-
0.
0/
00
01
02
03
04
05
06
07
08
09
0:
0;
0<
0=
0>
$end
#5000
b1 #
12
#10000
b1 !
b11 #
b10 #
02
11
15
17
16
1>
1+
1$
#15000
b11 #
12
#20000
b111 #
b101 #
b100 #
02
01
1.
07
#25000
b101 #
12
17
#30000
b0 !
b111 #
b110 #
02
11
05
06
0>
0+
0$
#35000
b111 #
12
#40000
b1111 #
b1011 #
b1001 #
b1000 #
02
01
0.
1,
07
#45000
b1001 #
12
#50000
b1011 #
b1010 #
02
11
17
#55000
b1011 #
12
#60000
b1111 #
b1101 #
b1100 #
02
01
1.
07
1/
#65000
b1101 #
12
17
#70000
b1111 #
b1110 #
02
11
#75000
b1111 #
12
#80000
b111 #
b11 #
b1 #
b0 #
02
01
0.
0,
07
0/
#85000
b1 #
12
#90000
b11 #
b10 #
02
11
17
#95000
b11 #
12
#100000
b1 "
b111 #
b101 #
b100 #
02
01
1.
10
07
13
#105000
b101 #
12
17
#110000
b111 #
b110 #
02
11
#115000
b111 #
12
14
03
#120000
b1111 #
b1011 #
b1001 #
b1000 #
02
01
0.
1,
07
04
13
#125000
b1001 #
12
#130000
b1011 #
b1010 #
02
11
17
#135000
b1011 #
12
14
03
#140000
b1111 #
b1101 #
b1100 #
02
01
1.
07
04
13
1/
#145000
b1101 #
12
17
#150000
b1111 #
b1110 #
02
11
#155000
b1111 #
12
14
03
16
1>
1+
1$
#160000
b111 #
b11 #
b1 #
b0 #
02
01
0.
0,
07
04
13
0/
06
0>
0+
0$
#165000
b1 #
12
#170000
b11 #
b10 #
02
11
17
#175000
b11 #
12
14
03
#180000
b111 #
b101 #
b100 #
02
01
1.
07
04
13
#185000
b101 #
12
17
#190000
b111 #
b110 #
02
11
#195000
b111 #
12
14
03
#200000
b11 "
b10 "
b1111 #
b1011 #
b1001 #
b1000 #
02
01
0.
1,
00
1-
07
1/
16
1>
1+
1$
#205000
b1001 #
12
13
#210000
b1011 #
b1010 #
02
11
17
#215000
b1011 #
12
#220000
b1111 #
b1101 #
b1100 #
02
01
1.
07
03
#225000
b1101 #
12
17
13
#230000
b1111 #
b1110 #
02
11
#235000
b1111 #
12
#240000
b111 #
b11 #
b1 #
b0 #
02
01
0.
0,
07
03
0/
06
0>
0+
0$
#245000
b1 #
12
13
16
1>
1+
1$
#250000
b11 #
b10 #
02
11
17
#255000
b11 #
12
#260000
b111 #
b101 #
b100 #
02
01
1.
07
03
1/
#265000
b101 #
12
17
13
#270000
b111 #
b110 #
02
11
#275000
b111 #
12
#280000
b1111 #
b1011 #
b1001 #
b1000 #
02
01
0.
1,
07
03
#285000
b1001 #
12
13
#290000
b1011 #
b1010 #
02
11
17
#295000
b1011 #
12
#300000
b11 "
b1111 #
b1101 #
b1100 #
02
01
1.
10
07
04
1;
06
0>
0+
0$
#305000
b1101 #
12
17
1<
#310000
b1111 #
b1110 #
02
11
#315000
b1111 #
12
14
16
1>
1+
1$
#320000
b111 #
b11 #
b1 #
b0 #
02
01
0.
0,
07
04
0/
0<
06
0>
0+
0$
#325000
b1 #
12
#330000
b11 #
b10 #
02
11
17
1<
#335000
b11 #
12
14
16
1>
1+
1$
#340000
b111 #
b101 #
b100 #
02
01
1.
07
04
1/
0<
06
0>
0+
0$
#345000
b101 #
12
17
1<
#350000
b111 #
b110 #
02
11
#355000
b111 #
12
14
16
1>
1+
1$
#360000
b1111 #
b1011 #
b1001 #
b1000 #
02
01
0.
1,
07
04
0<
06
0>
0+
0$
#365000
b1001 #
12
#370000
b1011 #
b1010 #
02
11
17
1<
#375000
b1011 #
12
14
16
1>
1+
1$
#380000
b1111 #
b1101 #
b1100 #
02
01
1.
07
04
0<
06
0>
0+
0$
#385000
b1101 #
12
17
1<
#390000
b1111 #
b1110 #
02
11
#395000
b1111 #
12
14
16
1>
1+
1$
#400000
b111 "
b101 "
b100 "
b111 #
b11 #
b1 #
b0 #
02
01
0.
0,
00
0-
1=
07
04
03
0/
0;
0<
06
0>
0+
0$
#405000
b1 #
12
#410000
b11 #
b10 #
02
11
17
#415000
b11 #
12
#420000
b111 #
b101 #
b100 #
02
01
1.
07
#425000
b101 #
12
17
#430000
b10 !
b111 #
b110 #
02
11
1:
1;
1<
1>
1+
1$
#435000
b111 #
12
#440000
b1111 #
b1011 #
b1001 #
b1000 #
02
01
0.
1,
07
#445000
b1001 #
12
#450000
b1011 #
b1010 #
02
11
17
#455000
b1011 #
12
#460000
b0 !
b1111 #
b1101 #
b1100 #
02
01
1.
0:
07
1/
0;
0<
0>
0+
0$
#465000
b1101 #
12
17
#470000
b1111 #
b1110 #
02
11
#475000
b1111 #
12
#480000
b111 #
b11 #
b1 #
b0 #
02
01
0.
0,
07
0/
#485000
b1 #
12
#490000
b11 #
b10 #
02
11
17
#495000
b11 #
12
#500000
b101 "
b111 #
b101 #
b100 #
02
01
1.
10
07
13
#505000
b101 #
12
17
#510000
b111 #
b110 #
02
11
#515000
b111 #
12
14
03
#520000
b1111 #
b1011 #
b1001 #
b1000 #
02
01
0.
1,
07
04
13
#525000
b1001 #
12
#530000
b1011 #
b1010 #
02
11
17
#535000
b1011 #
12
14
03
#540000
b100 !
b1111 #
b1101 #
b1100 #
02
01
1.
18
07
04
13
1/
1<
1>
1+
1$
#545000
b1101 #
12
17
#550000
b0 !
b1111 #
b1110 #
02
11
08
0<
0>
0+
0$
#555000
b1111 #
12
14
03
16
#560000
b111 #
b11 #
b1 #
b0 #
02
01
0.
0,
07
04
13
0/
06
#565000
b1 #
12
#570000
b11 #
b10 #
02
11
17
#575000
b11 #
12
14
03
#580000
b111 #
b101 #
b100 #
02
01
1.
07
04
13
#585000
b101 #
12
17
#590000
b111 #
b110 #
02
11
#595000
b111 #
12
14
03
#600000
b111 "
b110 "
b1111 #
b1011 #
b1001 #
b1000 #
02
01
0.
1,
00
1-
07
1/
16
#605000
b1001 #
12
13
#610000
b1011 #
b1010 #
02
11
17
#615000
b1011 #
12
#620000
b1111 #
b1101 #
b1100 #
02
01
1.
07
03
#625000
b1101 #
12
17
13
#630000
b1000 !
b1111 #
b1110 #
02
11
19
1;
1<
1>
1+
1$
#635000
b1111 #
12
#640000
b111 #
b11 #
b0 !
b1 #
b0 #
09
02
01
0.
0,
0;
07
03
0/
0<
06
0>
0+
0$
#645000
b1 #
12
13
16
#650000
b11 #
b10 #
02
11
17
#655000
b11 #
12
#660000
b111 #
b101 #
b100 #
02
01
1.
07
03
1/
#665000
b101 #
12
17
13
#670000
b111 #
b110 #
02
11
#675000
b111 #
12
#680000
b1111 #
b1011 #
b1001 #
b1000 #
02
01
0.
1,
07
03
#685000
b1001 #
12
13
#690000
b1011 #
b1010 #
02
11
17
#695000
b1011 #
12
#700000
b111 "
b1111 #
b1101 #
b1100 #
02
01
1.
10
07
04
1;
06
#705000
b1101 #
12
17
1<
1>
1+
1$
#710000
b1111 #
b1110 #
02
11
#715000
b1111 #
12
14
16
#720000
b111 #
b11 #
b1 #
b0 #
02
01
0.
0,
07
04
0/
0<
06
0>
0+
0$
#725000
b1 #
12
#730000
b11 #
b10 #
02
11
17
1<
1>
1+
1$
#735000
b11 #
12
14
16
#740000
b111 #
b101 #
b100 #
02
01
1.
07
04
1/
0<
06
0>
0+
0$
#745000
b101 #
12
17
1<
1>
1+
1$
#750000
b111 #
b110 #
02
11
#755000
b111 #
12
14
16
#760000
b1111 #
b1011 #
b1001 #
b1000 #
02
01
0.
1,
07
04
0<
06
0>
0+
0$
#765000
b1001 #
12
#770000
b1011 #
b1010 #
02
11
17
1<
1>
1+
1$
#775000
b1011 #
12
14
16
#780000
b1111 #
b1101 #
b1100 #
02
01
1.
07
04
0<
06
0>
0+
0$
#785000
b1101 #
12
17
1<
1>
1+
1$
#790000
b1111 #
b1110 #
02
11
#795000
b1111 #
12
14
16
#800000
b11 "
b1 "
b0 "
b111 #
b11 #
b1 #
b0 #
02
01
0.
0,
00
0-
0=
07
04
03
0/
0;
0<
06
0>
0+
0$
#805000
b1 #
12
#810000
b11 #
b10 #
02
11
17
#815000
b11 #
12
#820000
b111 #
b101 #
b100 #
02
01
1.
07
#825000
b101 #
12
17
#830000
b111 #
b110 #
02
11
#835000
b111 #
12
#840000
b1111 #
b1011 #
b1001 #
b1000 #
02
01
0.
1,
07
#845000
b1001 #
12
#850000
b1011 #
b1010 #
02
11
17
#855000
b1011 #
12
#860000
b1111 #
b1101 #
b1100 #
02
01
1.
07
1/
#865000
b1101 #
12
17
#870000
b1111 #
b1110 #
02
11
#875000
b1111 #
12
#880000
b111 #
b11 #
b1 #
b0 #
02
01
0.
0,
07
0/
#885000
b1 #
12
#890000
b11 #
b10 #
02
11
17
#895000
b11 #
12
#900000
b111 #
b101 #
b100 #
02
01
1.
07
#905000
b101 #
12
17
#910000
b111 #
b110 #
02
11
#915000
b111 #
12
#920000
b1111 #
b1011 #
b1001 #
b1000 #
02
01
0.
1,
07
#925000
b1001 #
12
#930000
b1011 #
b1010 #
02
11
17
#935000
b1011 #
12
#940000
b1111 #
b1101 #
b1100 #
02
01
1.
07
1/
#945000
b1101 #
12
17
#950000
b1111 #
b1110 #
02
11
#955000
b1111 #
12
#960000
b111 #
b11 #
b1 #
b0 #
02
01
0.
0,
07
0/
#965000
b1 #
12
#970000
b11 #
b10 #
02
11
17
#975000
b11 #
12
#980000
b111 #
b101 #
b100 #
02
01
1.
07
#985000
b101 #
12
17
#990000
b1 "
b111 #
b110 #
02
11
10
13
#995000
b111 #
12
14
03
