work2_2/simulation/qsim/work2_2.msim.vcd
$comment
	File created using the following command:
		vcd file work2_2.msim.vcd -direction
$end
$date
	Mon Mar 12 11:50:21 2018
$end
$version
	ModelSim Version 10.5b
$end
$timescale
	1ps
$end

$scope module work2_2_vlg_vec_tst $end
$var reg 3 ! s [2:0] $end
$var reg 8 " sw [7:0] $end
$var wire 1 # led $end

$scope module i1 $end
$var wire 1 $ gnd $end
$var wire 1 % vcc $end
$var wire 1 & unknown $end
$var tri1 1 ' devclrn $end
$var tri1 1 ( devpor $end
$var tri1 1 ) devoe $end
$var wire 1 * led~output_o $end
$var wire 1 + sw[5]~input_o $end
$var wire 1 , s[0]~input_o $end
$var wire 1 - sw[6]~input_o $end
$var wire 1 . s[1]~input_o $end
$var wire 1 / sw[4]~input_o $end
$var wire 1 0 led~0_combout $end
$var wire 1 1 sw[7]~input_o $end
$var wire 1 2 led~1_combout $end
$var wire 1 3 sw[2]~input_o $end
$var wire 1 4 sw[1]~input_o $end
$var wire 1 5 sw[0]~input_o $end
$var wire 1 6 led~2_combout $end
$var wire 1 7 sw[3]~input_o $end
$var wire 1 8 led~3_combout $end
$var wire 1 9 s[2]~input_o $end
$var wire 1 : led~4_combout $end
$upscope $end
$upscope $end
$enddefinitions $end
#0
$dumpvars
b0 !
b0 "
0#
0$
1%
x&
1'
1(
1)
0*
0+
0,
0-
0.
0/
00
01
02
03
04
05
06
07
08
09
0:
$end
#20000
b1 "
15
16
18
1:
1*
1#
#40000
b0 "
05
06
08
0:
0*
0#
#100000
b1 !
1,
#140000
b10 "
14
16
18
1:
1*
1#
#150000
b0 "
04
06
08
0:
0*
0#
#200000
b11 !
b10 !
0,
1.
#240000
b100 "
13
18
1:
1*
1#
#250000
b0 "
03
08
0:
0*
0#
#300000
b11 !
1,
16
10
#340000
b1000 "
17
18
1:
1*
1#
#360000
b0 "
07
08
0:
0*
0#
#400000
b111 !
b101 !
b100 !
0,
0.
19
06
12
00
18
08
02
1:
1*
1#
0:
0*
0#
#450000
b10000 "
1/
10
12
1:
1*
1#
#470000
b0 "
0/
00
02
0:
0*
0#
#500000
b101 !
1,
#550000
b100000 "
1+
12
1:
1*
1#
#570000
b0 "
0+
02
0:
0*
0#
#600000
b111 !
b110 !
0,
1.
#640000
b1000000 "
1-
10
12
1:
1*
1#
#650000
b0 "
0-
00
02
0:
0*
0#
#700000
b111 !
1,
16
10
#740000
b10000000 "
11
12
1:
1*
1#
#760000
b0 "
01
02
0:
0*
0#
#800000
b11 !
b1 !
b0 !
0,
0.
09
06
12
00
18
08
02
1:
1*
1#
0:
0*
0#
#900000
b1 !
1,
