work4_1/simulation/qsim/work4_1.msim.vcd
$comment
	File created using the following command:
		vcd file work4_1.msim.vcd -direction
$end
$date
	Mon Apr 09 10:15:10 2018
$end
$version
	ModelSim Version 10.5b
$end
$timescale
	1ps
$end

$scope module data_vlg_vec_tst $end
$var reg 1 ! ck $end
$var reg 1 " db $end
$var reg 1 # sw $end
$var wire 1 $ led [17] $end
$var wire 1 % led [16] $end
$var wire 1 & led [15] $end
$var wire 1 ' led [14] $end
$var wire 1 ( led [13] $end
$var wire 1 ) led [12] $end
$var wire 1 * led [11] $end
$var wire 1 + led [10] $end
$var wire 1 , led [9] $end
$var wire 1 - led [8] $end
$var wire 1 . led [7] $end
$var wire 1 / led [6] $end
$var wire 1 0 led [5] $end
$var wire 1 1 led [4] $end
$var wire 1 2 led [3] $end
$var wire 1 3 led [2] $end
$var wire 1 4 led [1] $end
$var wire 1 5 led [0] $end

$scope module i1 $end
$var wire 1 6 gnd $end
$var wire 1 7 vcc $end
$var wire 1 8 unknown $end
$var tri1 1 9 devclrn $end
$var tri1 1 : devpor $end
$var tri1 1 ; devoe $end
$var wire 1 < led[0]~output_o $end
$var wire 1 = led[1]~output_o $end
$var wire 1 > led[2]~output_o $end
$var wire 1 ? led[3]~output_o $end
$var wire 1 @ led[4]~output_o $end
$var wire 1 A led[5]~output_o $end
$var wire 1 B led[6]~output_o $end
$var wire 1 C led[7]~output_o $end
$var wire 1 D led[8]~output_o $end
$var wire 1 E led[9]~output_o $end
$var wire 1 F led[10]~output_o $end
$var wire 1 G led[11]~output_o $end
$var wire 1 H led[12]~output_o $end
$var wire 1 I led[13]~output_o $end
$var wire 1 J led[14]~output_o $end
$var wire 1 K led[15]~output_o $end
$var wire 1 L led[16]~output_o $end
$var wire 1 M led[17]~output_o $end
$var wire 1 N ck~input_o $end
$var wire 1 O sw~input_o $end
$var wire 1 P db~input_o $end
$var wire 1 Q led_~0_combout $end
$var wire 1 R led_ [17] $end
$var wire 1 S led_ [16] $end
$var wire 1 T led_ [15] $end
$var wire 1 U led_ [14] $end
$var wire 1 V led_ [13] $end
$var wire 1 W led_ [12] $end
$var wire 1 X led_ [11] $end
$var wire 1 Y led_ [10] $end
$var wire 1 Z led_ [9] $end
$var wire 1 [ led_ [8] $end
$var wire 1 \ led_ [7] $end
$var wire 1 ] led_ [6] $end
$var wire 1 ^ led_ [5] $end
$var wire 1 _ led_ [4] $end
$var wire 1 ` led_ [3] $end
$var wire 1 a led_ [2] $end
$var wire 1 b led_ [1] $end
$var wire 1 c led_ [0] $end
$upscope $end
$upscope $end
$enddefinitions $end
#0
$dumpvars
0!
0"
0#
05
04
03
02
01
00
0/
0.
0-
0,
0+
0*
0)
0(
0'
0&
0%
0$
06
17
x8
19
1:
1;
0<
0=
0>
0?
0@
0A
0B
0C
0D
0E
0F
0G
0H
0I
0J
0K
0L
0M
0N
0O
0P
0Q
0c
0b
0a
0`
0_
0^
0]
0\
0[
0Z
0Y
0X
0W
0V
0U
0T
0S
zR
$end
#5000
1!
1N
#10000
0!
0N
#15000
1!
1N
#20000
0!
0N
#25000
1!
1N
#30000
0!
0N
#35000
1!
1N
#40000
0!
0N
#45000
1!
1N
#50000
0!
0N
#55000
1!
1N
#60000
1#
0!
1O
0N
1Q
#65000
1!
1N
1c
1<
15
#70000
0!
0N
#75000
1!
1N
1b
#80000
0#
0!
0O
0N
0Q
#85000
1!
1N
0c
1a
1>
0<
05
13
#90000
0!
0N
#95000
1!
1N
1`
0b
#100000
0!
0N
#105000
1!
1N
1_
0a
0>
1@
11
03
#110000
0!
0N
#115000
1!
1N
1^
0`
#120000
0!
0N
#125000
1!
1N
1]
0_
0@
1B
1/
01
#130000
0!
0N
#135000
1!
1N
1\
0^
#140000
0!
0N
#145000
1!
1N
1[
0]
0B
1D
1-
0/
#150000
0!
0N
#155000
1!
1N
1Z
0\
#160000
0!
0N
#165000
1!
1N
1Y
0[
0D
1F
1+
0-
#170000
0!
0N
#175000
1!
1N
1X
0Z
#180000
0!
0N
#185000
1!
1N
1W
0Y
0F
1H
1)
0+
#190000
0!
0N
#195000
1!
1N
1V
0X
#200000
0!
0N
#205000
1!
1N
1U
0W
0H
1J
1'
0)
#210000
0!
0N
#215000
1!
1N
1T
0V
#220000
0!
0N
#225000
1!
1N
1S
0U
0J
1L
1%
0'
#230000
0!
0N
#235000
1!
1N
0T
#240000
0!
0N
#245000
1!
1N
0S
0L
0%
#250000
0!
0N
#255000
1!
1N
#260000
0!
0N
#265000
1!
1N
#270000
0!
0N
#275000
1!
1N
#280000
0!
0N
#285000
1!
1N
#290000
0!
0N
#295000
1!
1N
#300000
0!
0N
#305000
1!
1N
#310000
0!
0N
#315000
1!
1N
#320000
1#
0!
1O
0N
1Q
#325000
1!
1N
1c
1<
15
#330000
0#
0!
0O
0N
0Q
#335000
1!
1N
0c
1b
0<
05
#340000
0!
0N
#345000
1!
1N
1a
0b
1>
13
#350000
0!
0N
#355000
1!
1N
1`
0a
0>
03
#360000
0!
0N
#365000
1!
1N
1_
0`
1@
11
#370000
0!
0N
#375000
1!
1N
1^
0_
0@
01
#380000
0!
0N
#385000
1!
1N
1]
0^
1B
1/
#390000
0!
0N
#395000
1!
1N
1\
0]
0B
0/
#400000
0!
0N
#405000
1!
1N
1[
0\
1D
1-
#410000
0!
0N
#415000
1!
1N
1Z
0[
0D
0-
#420000
0!
0N
#425000
1!
1N
1Y
0Z
1F
1+
#430000
0!
0N
#435000
1!
1N
1X
0Y
0F
0+
#440000
0!
0N
#445000
1!
1N
1W
0X
1H
1)
#450000
0!
0N
#455000
1!
1N
1V
0W
0H
0)
#460000
0!
0N
#465000
1!
1N
1U
0V
1J
1'
#470000
0!
0N
#475000
1!
1N
1T
0U
0J
0'
#480000
0!
0N
#485000
1!
1N
1S
0T
1L
1%
#490000
1"
0!
1P
0N
1Q
#495000
1!
1N
1c
0S
0L
1<
15
0%
0Q
#500000
0!
0N
#505000
1!
1N
0c
1b
0<
05
#510000
0!
0N
#515000
1!
1N
1a
0b
1>
13
#520000
0!
0N
#525000
1!
1N
1`
0a
0>
03
#530000
0!
0N
#535000
1!
1N
1_
0`
1@
11
#540000
0!
0N
#545000
1!
1N
1^
0_
0@
01
#550000
0!
0N
#555000
1!
1N
1]
0^
1B
1/
#560000
0!
0N
#565000
1!
1N
1\
0]
0B
0/
#570000
0!
0N
#575000
1!
1N
1[
0\
1D
1-
#580000
0!
0N
#585000
1!
1N
1Z
0[
0D
0-
#590000
0!
0N
#595000
1!
1N
1Y
0Z
1F
1+
#600000
0!
0N
#605000
1!
1N
1X
0Y
0F
0+
#610000
0!
0N
#615000
1!
1N
1W
0X
1H
1)
#620000
0!
0N
#625000
1!
1N
1V
0W
0H
0)
#630000
0!
0N
#635000
1!
1N
1U
0V
1J
1'
#640000
0!
0N
#645000
1!
1N
1T
0U
0J
0'
#650000
0!
0N
#655000
1!
1N
1S
0T
1L
1%
1Q
#660000
0!
0N
#665000
1!
1N
1c
0S
0L
1<
15
0%
0Q
#670000
0!
0N
#675000
1!
1N
0c
1b
0<
05
#680000
0!
0N
#685000
1!
1N
1a
0b
1>
13
#690000
1#
0!
1O
0N
#695000
1!
1N
1`
0a
0>
03
#700000
0!
0N
#705000
1!
1N
1_
0`
1@
11
#710000
0#
0!
0O
0N
#715000
1!
1N
1^
0_
0@
01
#720000
0!
0N
#725000
1!
1N
1]
0^
1B
1/
#730000
0!
0N
#735000
1!
1N
1\
0]
0B
0/
#740000
0!
0N
#745000
1!
1N
1[
0\
1D
1-
#750000
0!
0N
#755000
1!
1N
1Z
0[
0D
0-
#760000
0!
0N
#765000
1!
1N
1Y
0Z
1F
1+
#770000
0!
0N
#775000
1!
1N
1X
0Y
0F
0+
#780000
0!
0N
#785000
1!
1N
1W
0X
1H
1)
#790000
0!
0N
#795000
1!
1N
1V
0W
0H
0)
#800000
0!
0N
#805000
1!
1N
1U
0V
1J
1'
#810000
0!
0N
#815000
1!
1N
1T
0U
0J
0'
#820000
0!
0N
#825000
1!
1N
1S
0T
1L
1%
1Q
#830000
0!
0N
#835000
1!
1N
1c
0S
0L
1<
15
0%
0Q
#840000
0!
0N
#845000
1!
1N
0c
1b
0<
05
#850000
0!
0N
#855000
1!
1N
1a
0b
1>
13
#860000
0!
0N
#865000
1!
1N
1`
0a
0>
03
#870000
0!
0N
#875000
1!
1N
1_
0`
1@
11
#880000
0!
0N
#885000
1!
1N
1^
0_
0@
01
#890000
0!
0N
#895000
1!
1N
1]
0^
1B
1/
#900000
0!
0N
#905000
1!
1N
1\
0]
0B
0/
#910000
0!
0N
#915000
1!
1N
1[
0\
1D
1-
#920000
0!
0N
#925000
1!
1N
1Z
0[
0D
0-
#930000
0!
0N
#935000
1!
1N
1Y
0Z
1F
1+
#940000
0!
0N
#945000
1!
1N
1X
0Y
0F
0+
#950000
0!
0N
#955000
1!
1N
1W
0X
1H
1)
#960000
0!
0N
#965000
1!
1N
1V
0W
0H
0)
#970000
0!
0N
#975000
1!
1N
1U
0V
1J
1'
#980000
0"
0!
0P
0N
#985000
1!
1N
1T
0U
0J
0'
#990000
0!
0N
#995000
1!
1N
1S
0T
1L
1%
