work3_1/simulation/qsim/work3_1.msim.vcd
$comment
	File created using the following command:
		vcd file work3_1.msim.vcd -direction
$end
$date
	Mon Mar 19 11:03:21 2018
$end
$version
	ModelSim Version 10.5b
$end
$timescale
	1ps
$end

$scope module work3_1_vlg_vec_tst $end
$var reg 1 ! cp $end
$var reg 1 " r $end
$var reg 1 # s $end
$var wire 1 $ q $end

$scope module i1 $end
$var wire 1 % gnd $end
$var wire 1 & vcc $end
$var wire 1 ' unknown $end
$var tri1 1 ( devclrn $end
$var tri1 1 ) devpor $end
$var tri1 1 * devoe $end
$var wire 1 + q~output_o $end
$var wire 1 , cp~input_o $end
$var wire 1 - r~input_o $end
$var wire 1 . s~input_o $end
$var wire 1 / inst~1_combout $end
$upscope $end
$upscope $end
$enddefinitions $end
#0
$dumpvars
0!
1"
1#
x$
0%
1&
x'
1(
1)
1*
x+
0,
1-
1.
x/
$end
#50000
1!
1,
#70000
0!
0,
#130000
0#
0.
#160000
1!
1,
0/
1+
1$
#170000
0!
0,
#180000
1#
1.
#240000
0"
0-
#250000
1!
1,
1/
0+
0$
#260000
0!
0,
#270000
1"
1-
