work3_2/simulation/qsim/work3_2.msim.vcd
$comment
	File created using the following command:
		vcd file work3_2.msim.vcd -direction
$end
$date
	Mon Mar 19 11:45:27 2018
$end
$version
	ModelSim Version 10.5b
$end
$timescale
	1ps
$end

$scope module work3_2_vlg_vec_tst $end
$var reg 1 ! a1 $end
$var reg 1 " a2 $end
$var reg 1 # a3 $end
$var reg 1 $ b1 $end
$var reg 1 % b2 $end
$var reg 1 & b3 $end
$var reg 1 ' cp $end
$var wire 1 ( q1 $end
$var wire 1 ) q2 $end
$var wire 1 * q3 $end

$scope module i1 $end
$var wire 1 + gnd $end
$var wire 1 , vcc $end
$var wire 1 - unknown $end
$var tri1 1 . devclrn $end
$var tri1 1 / devpor $end
$var tri1 1 0 devoe $end
$var wire 1 1 q1~output_o $end
$var wire 1 2 q2~output_o $end
$var wire 1 3 q3~output_o $end
$var wire 1 4 a1~input_o $end
$var wire 1 5 b1~input_o $end
$var wire 1 6 cp~input_o $end
$var wire 1 7 inst29~1_combout $end
$var wire 1 8 a2~input_o $end
$var wire 1 9 b2~input_o $end
$var wire 1 : inst12~0_combout $end
$var wire 1 ; inst31~1_combout $end
$var wire 1 < a3~input_o $end
$var wire 1 = b3~input_o $end
$var wire 1 > inst22~0_combout $end
$var wire 1 ? inst33~1_combout $end
$var wire 1 @ inst33~2_combout $end
$upscope $end
$upscope $end
$enddefinitions $end
#0
$dumpvars
0!
0"
0#
0$
0%
0&
0'
x(
x)
x*
0+
1,
x-
1.
1/
10
x1
x2
x3
04
05
06
x7
08
09
0:
x;
0<
0=
0>
0?
x@
$end
#180000
1"
1%
18
19
1>
#210000
1'
16
0@
1;
17
01
02
13
1*
0)
0(
#220000
0'
06
#230000
0"
0%
08
09
0>
#560000
1&
1%
1=
19
1:
#590000
0&
0%
0=
09
0:
#630000
1#
1<
#650000
0#
0<
