work6_1/simulation/qsim/work6_1.msim.vcd
$comment
	File created using the following command:
		vcd file work6_1.msim.vcd -direction
$end
$date
	Sun Jun 10 19:09:50 2018
$end
$version
	ModelSim Version 10.5b
$end
$timescale
	1ps
$end

$scope module work6_1_vlg_vec_tst $end
$var reg 1 ! CK $end
$var wire 1 " A $end
$var wire 1 # B $end
$var wire 1 $ C $end
$var wire 1 % D $end
$var wire 1 & E $end

$scope module i1 $end
$var wire 1 ' gnd $end
$var wire 1 ( vcc $end
$var wire 1 ) unknown $end
$var tri1 1 * devclrn $end
$var tri1 1 + devpor $end
$var tri1 1 , devoe $end
$var wire 1 - E~output_o $end
$var wire 1 . D~output_o $end
$var wire 1 / C~output_o $end
$var wire 1 0 A~output_o $end
$var wire 1 1 B~output_o $end
$var wire 1 2 CK~input_o $end
$var wire 1 3 inst~0_combout $end
$var wire 1 4 inst~q $end
$var wire 1 5 inst3~0_combout $end
$var wire 1 6 inst3~q $end
$var wire 1 7 inst4~0_combout $end
$var wire 1 8 inst4~1_combout $end
$var wire 1 9 inst4~q $end
$var wire 1 : inst2~0_combout $end
$var wire 1 ; inst2~q $end
$var wire 1 < inst1~0_combout $end
$var wire 1 = inst1~q $end
$upscope $end
$upscope $end
$enddefinitions $end
#0
$dumpvars
0!
0"
0#
0$
0%
0&
0'
1(
x)
1*
1+
1,
0-
0.
0/
00
01
02
13
04
05
06
07
08
09
0:
0;
0<
0=
$end
#10000
1!
12
14
1-
1&
1<
03
#20000
0!
02
#30000
1!
12
1=
04
0-
1.
1%
0&
13
#40000
0!
02
#50000
1!
12
14
1-
17
1&
0<
1:
03
#60000
0!
02
#70000
1!
12
0=
1;
04
0-
1/
0.
07
0%
1$
0&
13
#80000
0!
02
#90000
1!
12
14
1-
1&
1<
03
#100000
0!
02
#110000
1!
12
1=
04
0-
1.
1%
0&
13
#120000
0!
02
#130000
1!
12
14
1-
17
1&
0<
0:
15
03
#140000
0!
02
#150000
1!
12
0=
0;
16
04
0-
11
0/
0.
07
0%
0$
1#
0&
13
#160000
0!
02
#170000
1!
12
14
1-
1&
1<
03
#180000
0!
02
#190000
1!
12
1=
04
0-
1.
1%
0&
13
#200000
0!
02
#210000
1!
12
14
1-
17
1&
0<
1:
03
#220000
0!
02
#230000
1!
12
0=
1;
04
0-
1/
0.
07
0%
1$
0&
18
13
08
#240000
0!
02
#250000
1!
12
14
1-
1&
1<
03
#260000
0!
02
#270000
1!
12
1=
04
0-
1.
1%
0&
13
#280000
0!
02
#290000
1!
12
14
1-
17
1&
0<
0:
05
03
18
#300000
0!
02
#310000
1!
12
0=
0;
19
06
04
0-
01
10
0/
0.
0%
0$
1"
0#
0&
13
#320000
0!
02
#330000
1!
12
14
1-
07
1&
1<
03
#340000
0!
02
#350000
1!
12
1=
04
0-
1.
17
1%
0&
13
#360000
0!
02
#370000
1!
12
14
1-
07
1&
0<
1:
03
#380000
0!
02
#390000
1!
12
0=
1;
04
0-
1/
0.
17
0%
1$
0&
08
13
18
#400000
0!
02
#410000
1!
12
14
1-
07
1&
0:
03
08
#420000
0!
02
#430000
1!
12
0;
09
04
0-
00
0/
0$
0"
0&
13
#440000
0!
02
#450000
1!
12
14
1-
1&
1<
03
#460000
0!
02
#470000
1!
12
1=
04
0-
1.
1%
0&
13
#480000
0!
02
#490000
1!
12
14
1-
17
1&
0<
1:
03
#500000
0!
02
#510000
1!
12
0=
1;
04
0-
1/
0.
07
0%
1$
0&
13
#520000
0!
02
#530000
1!
12
14
1-
1&
1<
03
#540000
0!
02
#550000
1!
12
1=
04
0-
1.
1%
0&
13
#560000
0!
02
#570000
1!
12
14
1-
17
1&
0<
0:
15
03
#580000
0!
02
#590000
1!
12
0=
0;
16
04
0-
11
0/
0.
07
0%
0$
1#
0&
13
#600000
0!
02
#610000
1!
12
14
1-
1&
1<
03
#620000
0!
02
#630000
1!
12
1=
04
0-
1.
1%
0&
13
#640000
0!
02
#650000
1!
12
14
1-
17
1&
0<
1:
03
#660000
0!
02
#670000
1!
12
0=
1;
04
0-
1/
0.
07
0%
1$
0&
18
13
08
#680000
0!
02
#690000
1!
12
14
1-
1&
1<
03
#700000
0!
02
#710000
1!
12
1=
04
0-
1.
1%
0&
13
#720000
0!
02
#730000
1!
12
14
1-
17
1&
0<
0:
05
03
18
#740000
0!
02
#750000
1!
12
0=
0;
19
06
04
0-
01
10
0/
0.
0%
0$
1"
0#
0&
13
#760000
0!
02
#770000
1!
12
14
1-
07
1&
1<
03
#780000
0!
02
#790000
1!
12
1=
04
0-
1.
17
1%
0&
13
#800000
0!
02
#810000
1!
12
14
1-
07
1&
0<
1:
03
#820000
0!
02
#830000
1!
12
0=
1;
04
0-
1/
0.
17
0%
1$
0&
08
13
18
#840000
0!
02
#850000
1!
12
14
1-
07
1&
0:
03
08
#860000
0!
02
#870000
1!
12
0;
09
04
0-
00
0/
0$
0"
0&
13
#880000
0!
02
#890000
1!
12
14
1-
1&
1<
03
#900000
0!
02
#910000
1!
12
1=
04
0-
1.
1%
0&
13
#920000
0!
02
#930000
1!
12
14
1-
17
1&
0<
1:
03
#940000
0!
02
#950000
1!
12
0=
1;
04
0-
1/
0.
07
0%
1$
0&
13
#960000
0!
02
#970000
1!
12
14
1-
1&
1<
03
#980000
0!
02
#990000
1!
12
1=
04
0-
1.
1%
0&
13
