work1_2/simulation/qsim/work1_2.msim.vcd
$comment
	File created using the following command:
		vcd file work1_2.msim.vcd -direction
$end
$date
	Mon Mar 05 10:57:55 2018
$end
$version
	ModelSim Version 10.5b
$end
$timescale
	1ps
$end

$scope module top_vlg_vec_tst $end
$var reg 3 ! dp [2:0] $end
$var wire 1 " led $end

$scope module i1 $end
$var wire 1 # gnd $end
$var wire 1 $ vcc $end
$var wire 1 % unknown $end
$var tri1 1 & devclrn $end
$var tri1 1 ' devpor $end
$var tri1 1 ( devoe $end
$var wire 1 ) led~output_o $end
$var wire 1 * dp[1]~input_o $end
$var wire 1 + dp[0]~input_o $end
$var wire 1 , dp[2]~input_o $end
$var wire 1 - led~0_combout $end
$upscope $end
$upscope $end
$enddefinitions $end
#0
$dumpvars
b0 !
0"
0#
1$
x%
1&
1'
1(
0)
0*
0+
0,
0-
$end
#50000
b1 !
1+
#100000
b11 !
b10 !
0+
1*
1-
1)
1"
#150000
b11 !
1+
#200000
b111 !
b101 !
b100 !
0+
0*
1,
0-
0)
0"
#250000
b101 !
1+
1-
1)
1"
#300000
b111 !
b110 !
0+
1*
#350000
b111 !
1+
#400000
b11 !
b1 !
b0 !
0+
0*
0,
0-
0)
0"
