work1_4/simulation/qsim/work1_4.msim.vcd
$comment
	File created using the following command:
		vcd file work1_4.msim.vcd -direction
$end
$date
	Mon Mar 05 11:13:23 2018
$end
$version
	ModelSim Version 10.5b
$end
$timescale
	1ps
$end

$scope module top_vlg_vec_tst $end
$var reg 3 ! dp [2:0] $end
$var wire 1 " led $end

$scope module i1 $end
$var wire 1 # gnd $end
$var wire 1 $ vcc $end
$var wire 1 % unknown $end
$var tri1 1 & devclrn $end
$var tri1 1 ' devpor $end
$var tri1 1 ( devoe $end
$var wire 1 ) led~output_o $end
$var wire 1 * dp[0]~input_o $end
$var wire 1 + dp[2]~input_o $end
$var wire 1 , dp[1]~input_o $end
$var wire 1 - led~0_combout $end
$upscope $end
$upscope $end
$enddefinitions $end
#0
$dumpvars
b0 !
0"
0#
1$
x%
1&
1'
1(
0)
0*
0+
0,
0-
$end
#100000
b1 !
1*
#200000
b11 !
b10 !
0*
1,
#300000
b11 !
1*
#400000
b111 !
b101 !
b100 !
0*
0,
1+
#500000
b101 !
1*
1-
1)
1"
#600000
b111 !
b110 !
0*
1,
0-
0)
0"
#700000
b111 !
1*
#800000
b11 !
b1 !
b0 !
0*
0,
0+
#900000
b1 !
1*
