work5_1/simulation/qsim/work5_1.msim.vcd
$comment
	File created using the following command:
		vcd file work5_1.msim.vcd -direction
$end
$date
	Sat May 19 16:35:35 2018
$end
$version
	ModelSim Version 10.5b
$end
$timescale
	1ps
$end

$scope module work5_1_vlg_vec_tst $end
$var reg 1 ! CK $end
$var reg 1 " ctrl $end
$var reg 1 # RE $end
$var wire 1 $ p $end
$var wire 1 % Q0 $end
$var wire 1 & Q1 $end
$var wire 1 ' Q2 $end
$var wire 1 ( Q3 $end
$var wire 1 ) Q4 $end
$var wire 1 * r $end

$scope module i1 $end
$var wire 1 + gnd $end
$var wire 1 , vcc $end
$var wire 1 - unknown $end
$var tri1 1 . devclrn $end
$var tri1 1 / devpor $end
$var tri1 1 0 devoe $end
$var wire 1 1 Q0~output_o $end
$var wire 1 2 r~output_o $end
$var wire 1 3 Q3~output_o $end
$var wire 1 4 p~output_o $end
$var wire 1 5 Q4~output_o $end
$var wire 1 6 Q2~output_o $end
$var wire 1 7 Q1~output_o $end
$var wire 1 8 CK~input_o $end
$var wire 1 9 inst~0_combout $end
$var wire 1 : ctrl~input_o $end
$var wire 1 ; inst4~combout $end
$var wire 1 < RE~input_o $end
$var wire 1 = inst21~combout $end
$var wire 1 > inst23~3_combout $end
$var wire 1 ? inst23~0_combout $end
$var wire 1 @ inst23~_emulated_q $end
$var wire 1 A inst23~2_combout $end
$var wire 1 B inst68~0_combout $end
$var wire 1 C inst68~1_combout $end
$var wire 1 D inst61~q $end
$var wire 1 E inst23~1_combout $end
$var wire 1 F inst7~1_combout $end
$var wire 1 G inst7~_emulated_q $end
$var wire 1 H inst7~0_combout $end
$var wire 1 I 103~combout $end
$var wire 1 J inst11~0_combout $end
$var wire 1 K inst11~q $end
$var wire 1 L inst15~combout $end
$var wire 1 M inst17~0_combout $end
$var wire 1 N inst17~q $end
$var wire 1 O inst73~0_combout $end
$var wire 1 P inst73~combout $end
$var wire 1 Q inst60~q $end
$var wire 1 R inst64~combout $end
$var wire 1 S inst~q $end
$upscope $end
$upscope $end
$enddefinitions $end
#0
$dumpvars
0!
0"
1#
0$
0%
0&
0'
0(
0)
0*
0+
1,
x-
1.
1/
10
01
02
03
04
05
06
07
08
19
0:
1;
1<
1=
1>
1?
0@
0A
1B
1C
0D
0E
1F
0G
0H
1I
1J
0K
1L
1M
0N
0O
1P
0Q
1R
0S
$end
#5000
1!
18
1Q
1D
14
12
0R
0?
1*
1$
#10000
0!
08
#15000
1!
18
1S
11
1O
1%
0;
09
#20000
0!
08
#25000
1!
18
0S
01
0O
0%
1;
19
1G
1H
17
1&
0I
0F
#30000
0#
0!
0<
08
1O
0C
#35000
1!
18
1S
0D
04
11
1R
1E
1?
1%
0$
0;
09
1A
15
1)
1F
0G
0S
01
0%
1;
19
#40000
0!
08
#45000
1!
18
#50000
0!
08
#55000
1!
18
#60000
1#
0!
1<
08
0O
1C
0P
#65000
1!
18
0Q
1D
14
02
0E
0*
1$
0H
0A
05
07
0&
0)
1P
1I
#70000
0!
08
#75000
1!
18
1Q
12
0R
0?
1*
#80000
0!
08
#85000
1!
18
1S
11
1O
1%
0;
09
#90000
0!
08
#95000
1!
18
0S
01
0O
0%
1;
19
1G
1H
17
1&
0I
0F
#100000
0!
08
#105000
1!
18
1S
11
1O
1%
0;
09
#110000
0!
08
#115000
1!
18
0S
01
0O
0%
1;
19
0G
0H
07
0&
1I
1F
1K
16
1O
1'
0L
0J
#120000
0!
08
#125000
1!
18
1S
11
1%
0;
09
#130000
0!
08
#135000
1!
18
0S
01
0%
1;
19
1G
1H
17
1&
0I
0F
#140000
0!
08
#145000
1!
18
1S
11
1%
0;
09
#150000
0!
08
#155000
1!
18
0S
01
0%
1;
19
0G
0H
07
0&
1I
1F
0K
06
0O
0'
1L
1J
1N
13
1O
1(
0M
0=
#160000
0!
08
#165000
1!
18
1S
11
1%
0;
09
#170000
0!
08
#175000
1!
18
0S
01
0%
1;
19
1G
1H
17
1&
0I
0F
#180000
0!
08
#185000
1!
18
1S
11
1%
0;
09
#190000
0!
08
#195000
1!
18
0S
01
0%
1;
19
0G
0H
07
0&
1I
1F
1K
16
1'
0L
0J
#200000
0!
08
#205000
1!
18
1S
11
1%
0;
09
#210000
0!
08
#215000
1!
18
0S
01
0%
1;
19
1G
1H
17
1&
0I
0F
#220000
0!
08
#225000
1!
18
1S
11
1%
0;
09
#230000
0!
08
#235000
1!
18
0S
01
0%
1;
19
0G
0H
07
0&
1I
1F
0K
06
0'
1L
1J
0N
03
0O
0(
1M
1=
1@
1A
15
1)
0>
#240000
0!
08
#245000
1!
18
1S
11
1O
1%
0;
09
#250000
0!
08
#255000
1!
18
0S
01
0O
0%
1;
19
1G
1H
17
1&
0P
0I
0F
#260000
0!
08
#265000
1!
18
1S
0Q
02
11
1O
1R
1?
1%
0*
0;
09
0H
0A
05
07
0&
0)
1P
1I
1F
1>
0@
0G
0S
01
0O
0%
1;
19
#270000
0!
08
#275000
1!
18
1Q
12
0R
0?
1*
#280000
0!
08
#285000
1!
18
1S
11
1O
1%
0;
09
#290000
0!
08
#295000
1!
18
0S
01
0O
0%
1;
19
1G
1H
17
1&
0I
0F
#300000
0!
08
#305000
1!
18
1S
11
1O
1%
0;
09
#310000
0!
08
#315000
1!
18
0S
01
0O
0%
1;
19
0G
0H
07
0&
1I
1F
1K
16
1O
1'
0L
0J
#320000
0!
08
#325000
1!
18
1S
11
1%
0;
09
#330000
0!
08
#335000
1!
18
0S
01
0%
1;
19
1G
1H
17
1&
0I
0F
#340000
0!
08
#345000
1!
18
1S
11
1%
0;
09
#350000
0!
08
#355000
1!
18
0S
01
0%
1;
19
0G
0H
07
0&
1I
1F
0K
06
0O
0'
1L
1J
1N
13
1O
1(
0M
0=
#360000
0!
08
#365000
1!
18
1S
11
1%
0;
09
#370000
0!
08
#375000
1!
18
0S
01
0%
1;
19
1G
1H
17
1&
0I
0F
#380000
0!
08
#385000
1!
18
1S
11
1%
0;
09
#390000
0!
08
#395000
1!
18
0S
01
0%
1;
19
0G
0H
07
0&
1I
1F
1K
16
1'
0L
0J
#400000
0!
08
#405000
1!
18
1S
11
1%
0;
09
#410000
0!
08
#415000
1!
18
0S
01
0%
1;
19
1G
1H
17
1&
0I
0F
#420000
0!
08
#425000
1!
18
1S
11
1%
0;
09
#430000
0!
08
#435000
1!
18
0S
01
0%
1;
19
0G
0H
07
0&
1I
1F
0K
06
0'
1L
1J
0N
03
0O
0(
1M
1=
1@
1A
15
1)
0>
#440000
0!
08
#445000
1!
18
1S
11
1O
1%
0;
09
#450000
0!
08
#455000
1!
18
0S
01
0O
0%
1;
19
1G
1H
17
1&
0P
0I
0F
#460000
0!
08
#465000
1!
18
1S
0Q
02
11
1O
1R
1?
1%
0*
0;
09
0H
0A
05
07
0&
0)
1P
1I
1F
1>
0@
0G
0S
01
0O
0%
1;
19
#470000
1"
0!
1:
08
0B
0L
0I
0=
0;
0C
#475000
1!
18
1Q
0D
04
12
1E
1*
0$
1H
1A
15
17
1&
1)
1I
1C
#480000
0!
08
#485000
1!
18
1D
14
0R
0?
1$
#490000
0!
08
#495000
1!
18
1S
11
1O
1B
1%
1;
09
1G
0H
07
0&
0I
0F
#500000
0!
08
#505000
1!
18
0S
01
0O
0B
0%
0;
19
#510000
0!
08
#515000
1!
18
1S
11
1O
1B
1%
1;
09
0G
1H
17
1&
1I
1F
1K
16
1'
1L
0J
1N
13
1(
0M
1=
1@
0A
05
0)
0>
#520000
0!
08
#525000
1!
18
0S
01
0%
0;
19
#530000
0!
08
#535000
1!
18
1S
11
1%
1;
09
1G
0H
07
0&
0I
0F
#540000
0!
08
#545000
1!
18
0S
01
0%
0;
19
#550000
0!
08
#555000
1!
18
1S
11
1%
1;
09
0G
1H
17
1&
1I
1F
0K
06
0'
0L
1J
#560000
0!
08
#565000
1!
18
0S
01
0%
0;
19
#570000
0!
08
#575000
1!
18
1S
11
1%
1;
09
1G
0H
07
0&
0I
0F
#580000
0!
08
#585000
1!
18
0S
01
0%
0;
19
#590000
0!
08
#595000
1!
18
1S
11
1%
1;
09
0G
1H
17
1&
1I
1F
1K
16
1'
1L
0J
0N
03
0(
1M
0=
#600000
0!
08
#605000
1!
18
0S
01
0%
0;
19
#610000
0!
08
#615000
1!
18
1S
11
1%
1;
09
1G
0H
07
0&
0I
0F
#620000
0!
08
#625000
1!
18
0S
01
0%
0;
19
#630000
0!
08
#635000
1!
18
1S
11
1%
1;
09
0G
1H
17
1&
1I
1F
0K
06
0'
0L
1J
#640000
0!
08
#645000
1!
18
0S
01
0O
0B
0%
0;
19
#650000
0!
08
#655000
1!
18
1S
11
1O
1B
1%
1;
09
1G
0H
07
0&
0I
0F
#660000
0!
08
#665000
1!
18
0S
01
0O
0B
0%
0;
19
0C
#670000
0!
08
#675000
1!
18
1S
0D
04
11
1O
1B
1R
1?
1%
0$
1;
09
1H
1A
15
17
1&
1)
1C
1I
1F
1>
0@
0G
0S
01
0O
0B
0%
0;
19
#680000
0!
08
#685000
1!
18
1D
14
0R
0?
1$
#690000
0!
08
#695000
1!
18
1S
11
1O
1B
1%
1;
09
1G
0H
07
0&
0I
0F
#700000
0!
08
#705000
1!
18
0S
01
0O
0B
0%
0;
19
#710000
0!
08
#715000
1!
18
1S
11
1O
1B
1%
1;
09
0G
1H
17
1&
1I
1F
1K
16
1'
1L
0J
1N
13
1(
0M
1=
1@
0A
05
0)
0>
#720000
0!
08
#725000
1!
18
0S
01
0%
0;
19
#730000
0!
08
#735000
1!
18
1S
11
1%
1;
09
1G
0H
07
0&
0I
0F
#740000
0!
08
#745000
1!
18
0S
01
0%
0;
19
#750000
0!
08
#755000
1!
18
1S
11
1%
1;
09
0G
1H
17
1&
1I
1F
0K
06
0'
0L
1J
#760000
0!
08
#765000
1!
18
0S
01
0%
0;
19
#770000
0!
08
#775000
1!
18
1S
11
1%
1;
09
1G
0H
07
0&
0I
0F
#780000
0!
08
#785000
1!
18
0S
01
0%
0;
19
#790000
0!
08
#795000
1!
18
1S
11
1%
1;
09
0G
1H
17
1&
1I
1F
1K
16
1'
1L
0J
0N
03
0(
1M
0=
#800000
0!
08
#805000
1!
18
0S
01
0%
0;
19
#810000
0!
08
#815000
1!
18
1S
11
1%
1;
09
1G
0H
07
0&
0I
0F
#820000
0!
08
#825000
1!
18
0S
01
0%
0;
19
#830000
0!
08
#835000
1!
18
1S
11
1%
1;
09
0G
1H
17
1&
1I
1F
0K
06
0'
0L
1J
#840000
0!
08
#845000
1!
18
0S
01
0O
0B
0%
0;
19
#850000
0!
08
#855000
1!
18
1S
11
1O
1B
1%
1;
09
1G
0H
07
0&
0I
0F
#860000
0!
08
#865000
1!
18
0S
01
0O
0B
0%
0;
19
0C
#870000
0!
08
#875000
1!
18
1S
0D
04
11
1O
1B
1R
1?
1%
0$
1;
09
1H
1A
15
17
1&
1)
1C
1I
1F
1>
0@
0G
0S
01
0O
0B
0%
0;
19
#880000
0!
08
#885000
1!
18
1D
14
0R
0?
1$
#890000
0!
08
#895000
1!
18
1S
11
1O
1B
1%
1;
09
1G
0H
07
0&
0I
0F
#900000
0!
08
#905000
1!
18
0S
01
0O
0B
0%
0;
19
#910000
0!
08
#915000
1!
18
1S
11
1O
1B
1%
1;
09
0G
1H
17
1&
1I
1F
1K
16
1'
1L
0J
1N
13
1(
0M
1=
1@
0A
05
0)
0>
#920000
0!
08
#925000
1!
18
0S
01
0%
0;
19
#930000
0!
08
#935000
1!
18
1S
11
1%
1;
09
1G
0H
07
0&
0I
0F
#940000
0!
08
#945000
1!
18
0S
01
0%
0;
19
#950000
0!
08
#955000
1!
18
1S
11
1%
1;
09
0G
1H
17
1&
1I
1F
0K
06
0'
0L
1J
#960000
0!
08
#965000
1!
18
0S
01
0%
0;
19
#970000
0!
08
#975000
1!
18
1S
11
1%
1;
09
1G
0H
07
0&
0I
0F
#980000
0!
08
#985000
1!
18
0S
01
0%
0;
19
#990000
0!
08
#995000
1!
18
1S
11
1%
1;
09
0G
1H
17
1&
1I
1F
1K
16
1'
1L
0J
0N
03
0(
1M
0=
