work5_1/simulation/qsim/work5_1.msim.vcd
$comment
	File created using the following command:
		vcd file work5_1.msim.vcd -direction
$end
$date
	Mon May 07 11:48:46 2018
$end
$version
	ModelSim Version 10.5b
$end
$timescale
	1ps
$end

$scope module work5_1_vlg_vec_tst $end
$var reg 1 ! ck $end
$var reg 1 " ctrl $end
$var wire 1 # cl $end
$var wire 1 $ pr $end
$var wire 1 % Q0 $end
$var wire 1 & Q1 $end
$var wire 1 ' Q2 $end
$var wire 1 ( Q3 $end
$var wire 1 ) Q4 $end

$scope module i1 $end
$var wire 1 * gnd $end
$var wire 1 + vcc $end
$var wire 1 , unknown $end
$var tri1 1 - devclrn $end
$var tri1 1 . devpor $end
$var tri1 1 / devoe $end
$var wire 1 0 Q0~output_o $end
$var wire 1 1 Q4~output_o $end
$var wire 1 2 pr~output_o $end
$var wire 1 3 Q2~output_o $end
$var wire 1 4 Q1~output_o $end
$var wire 1 5 Q3~output_o $end
$var wire 1 6 cl~output_o $end
$var wire 1 7 ck~input_o $end
$var wire 1 8 inst~0_combout $end
$var wire 1 9 ctrl~input_o $end
$var wire 1 : inst51|inst~combout $end
$var wire 1 ; inst31~0_combout $end
$var wire 1 < inst41~q $end
$var wire 1 = inst101~1_combout $end
$var wire 1 > inst7~1_combout $end
$var wire 1 ? inst101~0_combout $end
$var wire 1 @ inst7~_emulated_q $end
$var wire 1 A inst7~0_combout $end
$var wire 1 B inst52|inst~combout $end
$var wire 1 C inst11~0_combout $end
$var wire 1 D inst11~q $end
$var wire 1 E inst53|inst~combout $end
$var wire 1 F inst15~0_combout $end
$var wire 1 G inst15~q $end
$var wire 1 H inst54|inst~combout $end
$var wire 1 I inst101~3_combout $end
$var wire 1 J inst101~_emulated_q $end
$var wire 1 K inst101~2_combout $end
$var wire 1 L inst35~0_combout $end
$var wire 1 M inst35~combout $end
$var wire 1 N inst43~q $end
$var wire 1 O inst34~combout $end
$var wire 1 P inst~q $end
$upscope $end
$upscope $end
$enddefinitions $end
#0
$dumpvars
0!
1"
0#
0$
0%
0&
0'
0(
0)
0*
1+
x,
1-
1.
1/
00
01
02
03
04
05
06
07
18
19
1:
1;
0<
0=
1>
1?
0@
0A
1B
1C
0D
1E
1F
0G
1H
1I
0J
0K
0L
1M
0N
1O
0P
$end
#5000
1!
17
1N
1<
16
12
0O
0?
1$
1#
#10000
0!
07
#15000
1!
17
1P
10
1L
1%
0:
08
#20000
0!
07
#25000
1!
17
0P
00
0L
0%
1:
18
1@
1A
14
1&
0B
0>
#30000
0!
07
#35000
1!
17
1P
10
1L
1%
0:
08
#40000
0!
07
#45000
1!
17
0P
00
0L
0%
1:
18
0@
0A
04
0&
1B
1>
1D
13
1'
0E
0C
#50000
0!
07
#55000
1!
17
1P
10
1%
0:
08
#60000
0!
07
#65000
1!
17
0P
00
0%
1:
18
1@
1A
14
1&
0B
0>
#70000
0!
07
#75000
1!
17
1P
10
1%
0:
08
#80000
0!
07
#85000
1!
17
0P
00
0%
1:
18
0@
0A
04
0&
1B
1>
0D
03
0'
1E
1C
1G
15
1(
0H
0F
#90000
0!
07
#95000
1!
17
1P
10
1%
0:
08
#100000
0!
07
#105000
1!
17
0P
00
0%
1:
18
1@
1A
14
1&
0B
0>
#110000
0!
07
#115000
1!
17
1P
10
1%
0:
08
#120000
0!
07
#125000
1!
17
0P
00
0%
1:
18
0@
0A
04
0&
1B
1>
1D
13
1'
0E
0C
#130000
0!
07
#135000
1!
17
1P
10
1%
0:
08
#140000
0!
07
#145000
1!
17
0P
00
0%
1:
18
1@
1A
14
1&
0B
0>
#150000
0!
07
#155000
1!
17
1P
10
1%
0:
08
#160000
0!
07
#165000
1!
17
0P
00
0%
1:
18
0@
0A
04
0&
1B
1>
0D
03
0'
1E
1C
0G
05
0(
1H
1F
1J
1K
11
1)
0I
#170000
0!
07
#175000
1!
17
1P
10
1L
1%
0:
08
#180000
0!
07
#185000
1!
17
0P
00
0L
0%
1:
18
1@
1A
14
1&
0B
0>
0;
#190000
0!
07
#195000
1!
17
1P
0<
06
10
1L
1O
1?
1%
0#
0:
08
0K
0A
04
01
0)
0&
1I
1;
1B
1>
0@
0J
0P
00
0L
0%
1:
18
#200000
0!
07
#205000
1!
17
1<
16
0O
0?
1#
#210000
0!
07
#215000
1!
17
1P
10
1L
1%
0:
08
#220000
0!
07
#225000
1!
17
0P
00
0L
0%
1:
18
1@
1A
14
1&
0B
0>
#230000
0!
07
#235000
1!
17
1P
10
1L
1%
0:
08
#240000
0!
07
#245000
1!
17
0P
00
0L
0%
1:
18
0@
0A
04
0&
1B
1>
1D
13
1'
0E
0C
#250000
0!
07
#255000
1!
17
1P
10
1%
0:
08
#260000
0!
07
#265000
1!
17
0P
00
0%
1:
18
1@
1A
14
1&
0B
0>
#270000
0!
07
#275000
1!
17
1P
10
1%
0:
08
#280000
0!
07
#285000
1!
17
0P
00
0%
1:
18
0@
0A
04
0&
1B
1>
0D
03
0'
1E
1C
1G
15
1(
0H
0F
#290000
0!
07
#295000
1!
17
1P
10
1%
0:
08
#300000
0!
07
#305000
1!
17
0P
00
0%
1:
18
1@
1A
14
1&
0B
0>
#310000
0!
07
#315000
1!
17
1P
10
1%
0:
08
#320000
0!
07
#325000
1!
17
0P
00
0%
1:
18
0@
0A
04
0&
1B
1>
1D
13
1'
0E
0C
#330000
0!
07
#335000
1!
17
1P
10
1%
0:
08
#340000
0!
07
#345000
1!
17
0P
00
0%
1:
18
1@
1A
14
1&
0B
0>
#350000
0!
07
#355000
1!
17
1P
10
1%
0:
08
#360000
0!
07
#365000
1!
17
0P
00
0%
1:
18
0@
0A
04
0&
1B
1>
0D
03
0'
1E
1C
0G
05
0(
1H
1F
1J
1K
11
1)
0I
#370000
0!
07
#375000
1!
17
1P
10
1L
1%
0:
08
#380000
0!
07
#385000
1!
17
0P
00
0L
0%
1:
18
1@
1A
14
1&
0B
0>
0;
#390000
0!
07
#395000
1!
17
1P
0<
06
10
1L
1O
1?
1%
0#
0:
08
0K
0A
04
01
0)
0&
1I
1;
1B
1>
0@
0J
0P
00
0L
0%
1:
18
#400000
0!
07
#405000
1!
17
1<
16
0O
0?
1#
#410000
0!
07
#415000
1!
17
1P
10
1L
1%
0:
08
#420000
0!
07
#425000
1!
17
0P
00
0L
0%
1:
18
1@
1A
14
1&
0B
0>
#430000
0!
07
#435000
1!
17
1P
10
1L
1%
0:
08
#440000
0!
07
#445000
1!
17
0P
00
0L
0%
1:
18
0@
0A
04
0&
1B
1>
1D
13
1'
0E
0C
#450000
0!
07
#455000
1!
17
1P
10
1%
0:
08
#460000
0!
07
#465000
1!
17
0P
00
0%
1:
18
1@
1A
14
1&
0B
0>
#470000
0!
07
#475000
1!
17
1P
10
1%
0:
08
#480000
0!
07
#485000
1!
17
0P
00
0%
1:
18
0@
0A
04
0&
1B
1>
0D
03
0'
1E
1C
1G
15
1(
0H
0F
#490000
0!
07
#495000
1!
17
1P
10
1%
0:
08
#500000
0!
07
#505000
1!
17
0P
00
0%
1:
18
1@
1A
14
1&
0B
0>
#510000
0!
07
#515000
1!
17
1P
10
1%
0:
08
#520000
0!
07
#525000
1!
17
0P
00
0%
1:
18
0@
0A
04
0&
1B
1>
1D
13
1'
0E
0C
#530000
0!
07
#535000
1!
17
1P
10
1%
0:
08
#540000
0!
07
#545000
1!
17
0P
00
0%
1:
18
1@
1A
14
1&
0B
0>
#550000
0!
07
#555000
1!
17
1P
10
1%
0:
08
#560000
0!
07
#565000
1!
17
0P
00
0%
1:
18
0@
0A
04
0&
1B
1>
0D
03
0'
1E
1C
0G
05
0(
1H
1F
1J
1K
11
1)
0I
#570000
0"
0!
09
07
0H
0E
0B
0:
#575000
1!
17
1P
10
1L
1%
1:
08
1@
1A
14
1&
1B
0>
1D
13
0L
1'
1E
0C
1G
15
1(
1H
0F
0J
0K
01
0)
1I
#580000
0!
07
#585000
1!
17
0P
00
0%
0:
18
#590000
0!
07
#595000
1!
17
1P
10
1%
1:
08
0@
0A
04
0&
0B
1>
#600000
0!
07
#605000
1!
17
0P
00
0%
0:
18
#610000
0!
07
#615000
1!
17
1P
10
1%
1:
08
1@
1A
14
1&
1B
0>
0D
03
0'
0E
1C
#620000
0!
07
#625000
1!
17
0P
00
0%
0:
18
#630000
0!
07
#635000
1!
17
1P
10
1%
1:
08
0@
0A
04
0&
0B
1>
#640000
0!
07
#645000
1!
17
0P
00
0%
0:
18
#650000
0!
07
#655000
1!
17
1P
10
1%
1:
08
1@
1A
14
1&
1B
0>
1D
13
1'
1E
0C
0G
05
0(
0H
1F
#660000
0!
07
#665000
1!
17
0P
00
0%
0:
18
#670000
0!
07
#675000
1!
17
1P
10
1%
1:
08
0@
0A
04
0&
0B
1>
#680000
0!
07
#685000
1!
17
0P
00
0%
0:
18
#690000
0!
07
#695000
1!
17
1P
10
1%
1:
08
1@
1A
14
1&
1B
0>
0D
03
1L
0'
0E
1C
#700000
0!
07
#705000
1!
17
0P
00
0L
0%
0:
18
#710000
0!
07
#715000
1!
17
1P
10
1L
1%
1:
08
0@
0A
04
0&
0M
0B
1>
#720000
0!
07
#725000
1!
17
0P
0N
02
00
0L
1O
1?
1=
0%
0$
0:
18
1K
1A
14
11
1)
1&
1M
1B
#730000
0!
07
#735000
1!
17
1N
12
0O
0?
1$
#740000
0!
07
#745000
1!
17
1P
10
1L
1%
1:
08
1@
0A
04
0&
0B
0>
#750000
0!
07
#755000
1!
17
0P
00
0L
0%
0:
18
#760000
0!
07
#765000
1!
17
1P
10
1L
1%
1:
08
0@
1A
14
1&
1B
1>
1D
13
0L
1'
1E
0C
1G
15
1(
1H
0F
1J
0K
01
0)
0I
#770000
0!
07
#775000
1!
17
0P
00
0%
0:
18
#780000
0!
07
#785000
1!
17
1P
10
1%
1:
08
1@
0A
04
0&
0B
0>
#790000
0!
07
#795000
1!
17
0P
00
0%
0:
18
#800000
0!
07
#805000
1!
17
1P
10
1%
1:
08
0@
1A
14
1&
1B
1>
0D
03
0'
0E
1C
#810000
0!
07
#815000
1!
17
0P
00
0%
0:
18
#820000
0!
07
#825000
1!
17
1P
10
1%
1:
08
1@
0A
04
0&
0B
0>
#830000
0!
07
#835000
1!
17
0P
00
0%
0:
18
#840000
0!
07
#845000
1!
17
1P
10
1%
1:
08
0@
1A
14
1&
1B
1>
1D
13
1'
1E
0C
0G
05
0(
0H
1F
#850000
0!
07
#855000
1!
17
0P
00
0%
0:
18
#860000
0!
07
#865000
1!
17
1P
10
1%
1:
08
1@
0A
04
0&
0B
0>
#870000
0!
07
#875000
1!
17
0P
00
0%
0:
18
#880000
0!
07
#885000
1!
17
1P
10
1%
1:
08
0@
1A
14
1&
1B
1>
0D
03
1L
0'
0E
1C
#890000
0!
07
#895000
1!
17
0P
00
0L
0%
0:
18
#900000
0!
07
#905000
1!
17
1P
10
1L
1%
1:
08
1@
0A
04
0&
0M
0B
0>
#910000
0!
07
#915000
1!
17
0P
0N
02
00
0L
1O
1?
0%
0$
0:
18
1K
1A
14
11
1)
1&
1M
1I
1B
1>
0@
0J
#920000
0!
07
#925000
1!
17
1N
12
0O
0?
1$
#930000
0!
07
#935000
1!
17
1P
10
1L
1%
1:
08
1@
0A
04
0&
0B
0>
#940000
0!
07
#945000
1!
17
0P
00
0L
0%
0:
18
#950000
0!
07
#955000
1!
17
1P
10
1L
1%
1:
08
0@
1A
14
1&
1B
1>
1D
13
0L
1'
1E
0C
1G
15
1(
1H
0F
1J
0K
01
0)
0I
#960000
0!
07
#965000
1!
17
0P
00
0%
0:
18
#970000
0!
07
#975000
1!
17
1P
10
1%
1:
08
1@
0A
04
0&
0B
0>
#980000
0!
07
#985000
1!
17
0P
00
0%
0:
18
#990000
0!
07
#995000
1!
17
1P
10
1%
1:
08
0@
1A
14
1&
1B
1>
0D
03
0'
0E
1C
