work5_1/simulation/qsim/work5_1.msim.vcd
$comment
	File created using the following command:
		vcd file work5_1.msim.vcd -direction
$end
$date
	Thu May 24 09:35:14 2018
$end
$version
	ModelSim Version 10.5b
$end
$timescale
	1ps
$end

$scope module work5_1_vlg_vec_tst $end
$var reg 1 ! CK $end
$var reg 1 " ctrl $end
$var reg 1 # RE $end
$var wire 1 $ L0 [0] $end
$var wire 1 % L0 [1] $end
$var wire 1 & L0 [2] $end
$var wire 1 ' L0 [3] $end
$var wire 1 ( L0 [4] $end
$var wire 1 ) L0 [5] $end
$var wire 1 * L0 [6] $end
$var wire 1 + L1 [0] $end
$var wire 1 , L1 [1] $end
$var wire 1 - L1 [2] $end
$var wire 1 . L1 [3] $end
$var wire 1 / L1 [4] $end
$var wire 1 0 L1 [5] $end
$var wire 1 1 L1 [6] $end
$var wire 1 2 p $end
$var wire 1 3 Q0 $end
$var wire 1 4 Q1 $end
$var wire 1 5 Q2 $end
$var wire 1 6 Q3 $end
$var wire 1 7 Q4 $end
$var wire 1 8 r $end

$scope module i1 $end
$var wire 1 9 gnd $end
$var wire 1 : vcc $end
$var wire 1 ; unknown $end
$var tri1 1 < devclrn $end
$var tri1 1 = devpor $end
$var tri1 1 > devoe $end
$var wire 1 ? Q0~output_o $end
$var wire 1 @ r~output_o $end
$var wire 1 A Q3~output_o $end
$var wire 1 B p~output_o $end
$var wire 1 C Q4~output_o $end
$var wire 1 D Q2~output_o $end
$var wire 1 E Q1~output_o $end
$var wire 1 F L0[0]~output_o $end
$var wire 1 G L0[1]~output_o $end
$var wire 1 H L0[2]~output_o $end
$var wire 1 I L0[3]~output_o $end
$var wire 1 J L0[4]~output_o $end
$var wire 1 K L0[5]~output_o $end
$var wire 1 L L0[6]~output_o $end
$var wire 1 M L1[0]~output_o $end
$var wire 1 N L1[1]~output_o $end
$var wire 1 O L1[2]~output_o $end
$var wire 1 P L1[3]~output_o $end
$var wire 1 Q L1[4]~output_o $end
$var wire 1 R L1[5]~output_o $end
$var wire 1 S L1[6]~output_o $end
$var wire 1 T CK~input_o $end
$var wire 1 U inst~0_combout $end
$var wire 1 V ctrl~input_o $end
$var wire 1 W inst4~combout $end
$var wire 1 X RE~input_o $end
$var wire 1 Y inst21~combout $end
$var wire 1 Z inst23~3_combout $end
$var wire 1 [ inst23~0_combout $end
$var wire 1 \ inst23~_emulated_q $end
$var wire 1 ] inst23~2_combout $end
$var wire 1 ^ inst68~0_combout $end
$var wire 1 _ inst68~1_combout $end
$var wire 1 ` inst61~q $end
$var wire 1 a inst23~1_combout $end
$var wire 1 b inst7~1_combout $end
$var wire 1 c inst7~_emulated_q $end
$var wire 1 d inst7~0_combout $end
$var wire 1 e 103~combout $end
$var wire 1 f inst11~0_combout $end
$var wire 1 g inst11~q $end
$var wire 1 h inst15~combout $end
$var wire 1 i inst17~0_combout $end
$var wire 1 j inst17~q $end
$var wire 1 k inst73~0_combout $end
$var wire 1 l inst73~combout $end
$var wire 1 m inst60~q $end
$var wire 1 n inst64~combout $end
$var wire 1 o inst~q $end
$var wire 1 p inst29|WideOr0~0_combout $end
$var wire 1 q inst29|WideOr0~1_combout $end
$var wire 1 r inst29|WideOr1~0_combout $end
$var wire 1 s inst29|WideOr1~1_combout $end
$var wire 1 t inst29|WideOr1~2_combout $end
$var wire 1 u inst29|WideOr1~3_combout $end
$var wire 1 v inst29|L0[4]~0_combout $end
$var wire 1 w inst29|L0[4]~1_combout $end
$var wire 1 x inst29|WideOr2~0_combout $end
$var wire 1 y inst29|WideOr2~1_combout $end
$var wire 1 z inst29|WideOr2~2_combout $end
$var wire 1 { inst29|WideOr3~0_combout $end
$var wire 1 | inst29|WideOr3~1_combout $end
$var wire 1 } inst29|WideOr4~0_combout $end
$var wire 1 ~ inst29|WideOr4~1_combout $end
$var wire 1 !! inst29|WideOr5~0_combout $end
$var wire 1 "! inst29|WideOr5~1_combout $end
$var wire 1 #! inst29|WideOr6~0_combout $end
$var wire 1 $! inst29|WideOr6~1_combout $end
$var wire 1 %! inst29|WideOr6~2_combout $end
$var wire 1 &! inst29|WideOr7~0_combout $end
$upscope $end
$upscope $end
$enddefinitions $end
#0
$dumpvars
0!
0"
1#
1*
0)
0(
0'
0&
0%
0$
11
00
0/
0.
0-
0,
0+
02
03
04
05
06
07
08
09
1:
x;
1<
1=
1>
0?
0@
0A
0B
0C
0D
0E
0F
0G
0H
0I
0J
0K
1L
0M
0N
0O
0P
0Q
0R
1S
0T
1U
0V
1W
1X
1Y
1Z
1[
0\
0]
0^
1_
0`
0a
1b
0c
0d
1e
1f
0g
1h
1i
0j
1k
1l
0m
1n
0o
0p
0q
0r
1s
0t
0u
0v
0w
0x
0y
0z
0{
0|
0}
0~
0!!
1"!
1#!
0$!
1%!
1&!
$end
#5000
1!
1T
#10000
0!
0T
1`
1m
1@
1B
0n
0[
12
18
#15000
1!
1T
1o
1?
1}
1{
1y
0s
1p
1^
13
0W
0U
1~
1|
1z
1q
1F
1I
1J
1K
1)
1(
1'
1$
#20000
0!
0T
#25000
1!
1T
0o
0?
0}
0{
0y
1s
0p
0^
03
1W
1U
0~
0|
0z
0q
0F
0I
0J
0K
0)
0(
0'
0$
1c
1d
1E
1!!
1}
1v
0s
1^
14
0e
0b
0"!
1~
1w
1H
1K
0L
0*
1)
1&
#30000
0#
0!
0X
0T
0_
#35000
1!
1T
1o
1?
1$!
1{
0v
13
0W
0U
1|
0w
0H
1J
1(
0&
#40000
0!
0T
0`
0B
1n
1a
1[
02
1]
1C
0#!
1r
17
1b
0&!
0~
0|
0J
0K
0S
01
0)
0(
0c
0o
0?
0$!
0{
1v
0k
03
1W
1U
0%!
1&!
1S
1R
1Q
1P
1M
1+
1.
1/
10
11
#45000
1!
1T
#50000
0!
0T
#55000
1!
1T
#60000
1#
0!
1X
0T
0l
1_
#65000
1!
1T
#70000
0!
0T
1`
0m
0@
1B
0a
12
08
0d
0]
0C
0E
1#!
0!!
0}
0v
1s
0^
0r
1k
04
07
1l
1e
1~
1w
1H
1K
1%!
1)
1&
1"!
0~
0w
0H
0K
1L
0R
0Q
0P
0M
0+
0.
0/
00
1*
0)
0&
#75000
1!
1T
#80000
0!
0T
1m
1@
0n
0[
18
#85000
1!
1T
1o
1?
1}
1{
1y
0s
1p
1^
13
0W
0U
1~
1|
1z
1q
1F
1I
1J
1K
1)
1(
1'
1$
#90000
0!
0T
#95000
1!
1T
0o
0?
0}
0{
0y
1s
0p
0^
03
1W
1U
0~
0|
0z
0q
0F
0I
0J
0K
0)
0(
0'
0$
1c
1d
1E
1!!
1}
1v
0s
1^
14
0e
0b
0"!
1~
1w
1H
1K
0L
0*
1)
1&
#100000
0!
0T
#105000
1!
1T
1o
1?
1$!
1{
0v
13
0W
0U
1|
0w
0H
1J
1(
0&
#110000
0!
0T
#115000
1!
1T
0o
0?
0$!
0{
1v
03
1W
1U
0|
1w
1H
0J
0(
1&
0c
0d
0E
0!!
0}
0v
1s
0^
04
1e
1b
1"!
0~
0w
0H
0K
1L
1*
0)
0&
1g
1D
1$!
1!!
1{
1y
1p
1^
15
0h
0f
0"!
1|
1z
1q
1F
1I
1J
0L
0*
1(
1'
1$
#120000
0!
0T
#125000
1!
1T
1o
1?
0y
1t
0s
0p
13
0W
0U
0z
1u
0q
0F
1G
0I
0'
1%
0$
#130000
0!
0T
#135000
1!
1T
0o
0?
1y
0t
1s
1p
03
1W
1U
1z
0u
1q
1F
0G
1I
1'
0%
1$
1c
1d
1E
0{
0y
1t
0s
0p
14
0e
0b
0|
0z
1u
0q
0F
1G
0I
0J
0(
0'
1%
0$
#140000
0!
0T
#145000
1!
1T
1o
1?
0!!
1}
1{
1y
0t
13
0W
0U
1"!
1~
1|
1z
0u
0G
1I
1J
1K
1L
1*
1)
1(
1'
0%
#150000
0!
0T
#155000
1!
1T
0o
0?
1!!
0}
0{
0y
1t
03
1W
1U
0"!
0~
0|
0z
1u
1G
0I
0J
0K
0L
0*
0)
0(
0'
1%
0c
0d
0E
1{
1y
0t
1s
1p
04
1e
1b
1|
1z
0u
1q
1F
0G
1I
1J
1(
1'
0%
1$
0g
0D
0$!
0!!
0{
0y
0p
0^
05
1h
1f
1"!
0|
0z
0q
0F
0I
0J
1L
1*
0(
0'
0$
1j
1A
1$!
1!!
1^
16
0i
0Y
0"!
0L
0*
#160000
0!
0T
#165000
1!
1T
1o
1?
1{
0s
13
0W
0U
1|
1J
1(
#170000
0!
0T
#175000
1!
1T
0o
0?
0{
1s
03
1W
1U
0|
0J
0(
1c
1d
1E
0#!
0!!
0s
14
0e
0b
0%!
1"!
1L
1R
1Q
1P
1M
1+
1.
1/
10
1*
#180000
0!
0T
#185000
1!
1T
1o
1?
1}
1{
1y
1p
13
0W
0U
1~
1|
1z
1q
1F
1I
1J
1K
1)
1(
1'
1$
#190000
0!
0T
#195000
1!
1T
0o
0?
0}
0{
0y
0p
03
1W
1U
0~
0|
0z
0q
0F
0I
0J
0K
0)
0(
0'
0$
0c
0d
0E
1#!
1!!
1s
04
1e
1b
1%!
0"!
0L
0R
0Q
0P
0M
0+
0.
0/
00
0*
1g
1D
0#!
1}
1v
15
0h
0f
0%!
1~
1w
1H
1K
1R
1Q
1P
1M
1+
1.
1/
10
1)
1&
#200000
0!
0T
#205000
1!
1T
1o
1?
1{
0v
0s
13
0W
0U
1|
0w
0H
1J
1(
0&
#210000
0!
0T
#215000
1!
1T
0o
0?
0{
1v
1s
03
1W
1U
0|
1w
1H
0J
0(
1&
1c
1d
1E
0}
1{
1y
0v
0s
1p
14
0e
0b
0~
1|
1z
0w
1q
1F
0H
1I
1J
0K
0)
1(
1'
0&
1$
#220000
0!
0T
#225000
1!
1T
1o
1?
0y
1t
0p
13
0W
0U
0z
1u
0q
0F
1G
0I
0'
1%
0$
#230000
0!
0T
#235000
1!
1T
0o
0?
1y
0t
1p
03
1W
1U
1z
0u
1q
1F
0G
1I
1'
0%
1$
0c
0d
0E
1}
0{
0y
1v
1s
0p
04
1e
1b
1~
0|
0z
1w
0q
0F
1H
0I
0J
1K
1)
0(
0'
1&
0$
0g
0D
1#!
0}
0v
05
1h
1f
1%!
0~
0w
0H
0K
0R
0Q
0P
0M
0+
0.
0/
00
0)
0&
0j
0A
0$!
0!!
0^
06
1i
1Y
1"!
1L
1*
1\
1]
1C
0#!
1r
0k
17
0"!
0Z
0L
0%!
0*
1u
1G
1R
1Q
1P
1M
1+
1.
1/
10
1%
#240000
0!
0T
#245000
1!
1T
1o
1?
1}
1{
1y
1x
0s
1p
1k
1^
13
0W
0U
1~
1|
1z
1"!
0u
0G
1L
1I
1J
1K
1)
1(
1'
1*
0%
#250000
0!
0T
#255000
1!
1T
0o
0?
0}
0{
0y
0x
1s
0p
0k
0^
03
1W
1U
0~
0|
0z
0"!
1u
1G
0L
0I
0J
0K
0)
0(
0'
0*
1%
1c
1d
1E
1!!
1}
1v
0s
1^
14
0l
0e
0b
0u
0G
0%
#260000
0!
0T
0m
0@
1n
1[
08
0d
0]
0C
0E
1#!
0!!
0}
0v
1s
0^
0r
1k
04
07
1l
1e
1b
1~
1w
1Z
1H
1K
1%!
1)
1&
1"!
0~
0w
0H
0K
1L
0R
0Q
0P
0M
0+
0.
0/
00
1*
0)
0&
0\
0c
#265000
1!
1T
#270000
0!
0T
1m
1@
0n
0[
18
#275000
1!
1T
1o
1?
1}
1{
1y
0s
1p
1^
13
0W
0U
1~
1|
1z
1q
1F
1I
1J
1K
1)
1(
1'
1$
#280000
0!
0T
#285000
1!
1T
0o
0?
0}
0{
0y
1s
0p
0^
03
1W
1U
0~
0|
0z
0q
0F
0I
0J
0K
0)
0(
0'
0$
1c
1d
1E
1!!
1}
1v
0s
1^
14
0e
0b
0"!
1~
1w
1H
1K
0L
0*
1)
1&
#290000
0!
0T
#295000
1!
1T
1o
1?
1$!
1{
0v
13
0W
0U
1|
0w
0H
1J
1(
0&
#300000
0!
0T
#305000
1!
1T
0o
0?
0$!
0{
1v
03
1W
1U
0|
1w
1H
0J
0(
1&
0c
0d
0E
0!!
0}
0v
1s
0^
04
1e
1b
1"!
0~
0w
0H
0K
1L
1*
0)
0&
1g
1D
1$!
1!!
1{
1y
1p
1^
15
0h
0f
0"!
1|
1z
1q
1F
1I
1J
0L
0*
1(
1'
1$
#310000
0!
0T
#315000
1!
1T
1o
1?
0y
1t
0s
0p
13
0W
0U
0z
1u
0q
0F
1G
0I
0'
1%
0$
#320000
0!
0T
#325000
1!
1T
0o
0?
1y
0t
1s
1p
03
1W
1U
1z
0u
1q
1F
0G
1I
1'
0%
1$
1c
1d
1E
0{
0y
1t
0s
0p
14
0e
0b
0|
0z
1u
0q
0F
1G
0I
0J
0(
0'
1%
0$
#330000
0!
0T
#335000
1!
1T
1o
1?
0!!
1}
1{
1y
0t
13
0W
0U
1"!
1~
1|
1z
0u
0G
1I
1J
1K
1L
1*
1)
1(
1'
0%
#340000
0!
0T
#345000
1!
1T
0o
0?
1!!
0}
0{
0y
1t
03
1W
1U
0"!
0~
0|
0z
1u
1G
0I
0J
0K
0L
0*
0)
0(
0'
1%
0c
0d
0E
1{
1y
0t
1s
1p
04
1e
1b
1|
1z
0u
1q
1F
0G
1I
1J
1(
1'
0%
1$
0g
0D
0$!
0!!
0{
0y
0p
0^
05
1h
1f
1"!
0|
0z
0q
0F
0I
0J
1L
1*
0(
0'
0$
1j
1A
1$!
1!!
1^
16
0i
0Y
0"!
0L
0*
#350000
0!
0T
#355000
1!
1T
1o
1?
1{
0s
13
0W
0U
1|
1J
1(
#360000
0!
0T
#365000
1!
1T
0o
0?
0{
1s
03
1W
1U
0|
0J
0(
1c
1d
1E
0#!
0!!
0s
14
0e
0b
0%!
1"!
1L
1R
1Q
1P
1M
1+
1.
1/
10
1*
#370000
0!
0T
#375000
1!
1T
1o
1?
1}
1{
1y
1p
13
0W
0U
1~
1|
1z
1q
1F
1I
1J
1K
1)
1(
1'
1$
#380000
0!
0T
#385000
1!
1T
0o
0?
0}
0{
0y
0p
03
1W
1U
0~
0|
0z
0q
0F
0I
0J
0K
0)
0(
0'
0$
0c
0d
0E
1#!
1!!
1s
04
1e
1b
1%!
0"!
0L
0R
0Q
0P
0M
0+
0.
0/
00
0*
1g
1D
0#!
1}
1v
15
0h
0f
0%!
1~
1w
1H
1K
1R
1Q
1P
1M
1+
1.
1/
10
1)
1&
#390000
0!
0T
#395000
1!
1T
1o
1?
1{
0v
0s
13
0W
0U
1|
0w
0H
1J
1(
0&
#400000
0!
0T
#405000
1!
1T
0o
0?
0{
1v
1s
03
1W
1U
0|
1w
1H
0J
0(
1&
1c
1d
1E
0}
1{
1y
0v
0s
1p
14
0e
0b
0~
1|
1z
0w
1q
1F
0H
1I
1J
0K
0)
1(
1'
0&
1$
#410000
0!
0T
#415000
1!
1T
1o
1?
0y
1t
0p
13
0W
0U
0z
1u
0q
0F
1G
0I
0'
1%
0$
#420000
0!
0T
#425000
1!
1T
0o
0?
1y
0t
1p
03
1W
1U
1z
0u
1q
1F
0G
1I
1'
0%
1$
0c
0d
0E
1}
0{
0y
1v
1s
0p
04
1e
1b
1~
0|
0z
1w
0q
0F
1H
0I
0J
1K
1)
0(
0'
1&
0$
0g
0D
1#!
0}
0v
05
1h
1f
1%!
0~
0w
0H
0K
0R
0Q
0P
0M
0+
0.
0/
00
0)
0&
0j
0A
0$!
0!!
0^
06
1i
1Y
1"!
1L
1*
1\
1]
1C
0#!
1r
0k
17
0"!
0Z
0L
0%!
0*
1u
1G
1R
1Q
1P
1M
1+
1.
1/
10
1%
#430000
0!
0T
#435000
1!
1T
1o
1?
1}
1{
1y
1x
0s
1p
1k
1^
13
0W
0U
1~
1|
1z
1"!
0u
0G
1L
1I
1J
1K
1)
1(
1'
1*
0%
#440000
0!
0T
#445000
1!
1T
0o
0?
0}
0{
0y
0x
1s
0p
0k
0^
03
1W
1U
0~
0|
0z
0"!
1u
1G
0L
0I
0J
0K
0)
0(
0'
0*
1%
1c
1d
1E
1!!
1}
1v
0s
1^
14
0l
0e
0b
0u
0G
0%
#450000
0!
0T
0m
0@
1n
1[
08
0d
0]
0C
0E
1#!
0!!
0}
0v
1s
0^
0r
1k
04
07
1l
1e
1b
1~
1w
1Z
1H
1K
1%!
1)
1&
1"!
0~
0w
0H
0K
1L
0R
0Q
0P
0M
0+
0.
0/
00
1*
0)
0&
0\
0c
#455000
1!
1T
#460000
0!
0T
1m
1@
0n
0[
18
#465000
1!
1T
1o
1?
1}
1{
1y
0s
1p
1^
13
0W
0U
1~
1|
1z
1q
1F
1I
1J
1K
1)
1(
1'
1$
#470000
0!
0T
#475000
1!
1T
0o
0?
0}
0{
0y
1s
0p
0^
03
1W
1U
0~
0|
0z
0q
0F
0I
0J
0K
0)
0(
0'
0$
1c
1d
1E
1!!
1}
1v
0s
1^
14
0e
0b
0"!
1~
1w
1H
1K
0L
0*
1)
1&
#480000
0!
0T
#485000
1!
1T
1o
1?
1$!
1{
0v
13
0W
0U
1|
0w
0H
1J
1(
0&
#490000
0!
0T
#495000
1!
1T
0o
0?
0$!
0{
1v
03
1W
1U
0|
1w
1H
0J
0(
1&
0c
0d
0E
0!!
0}
0v
1s
0^
04
1e
1b
1"!
0~
0w
0H
0K
1L
1*
0)
0&
1g
1D
1$!
1!!
1{
1y
1p
1^
15
0h
0f
0"!
1|
1z
1q
1F
1I
1J
0L
0*
1(
1'
1$
#500000
0!
0T
#505000
1!
1T
1o
1?
0y
1t
0s
0p
13
0W
0U
0z
1u
0q
0F
1G
0I
0'
1%
0$
#510000
0!
0T
#515000
1!
1T
0o
0?
1y
0t
1s
1p
03
1W
1U
1z
0u
1q
1F
0G
1I
1'
0%
1$
1c
1d
1E
0{
0y
1t
0s
0p
14
0e
0b
0|
0z
1u
0q
0F
1G
0I
0J
0(
0'
1%
0$
#520000
0!
0T
#525000
1!
1T
1o
1?
0!!
1}
1{
1y
0t
13
0W
0U
1"!
1~
1|
1z
0u
0G
1I
1J
1K
1L
1*
1)
1(
1'
0%
#530000
0!
0T
#535000
1!
1T
0o
0?
1!!
0}
0{
0y
1t
03
1W
1U
0"!
0~
0|
0z
1u
1G
0I
0J
0K
0L
0*
0)
0(
0'
1%
0c
0d
0E
1{
1y
0t
1s
1p
04
1e
1b
1|
1z
0u
1q
1F
0G
1I
1J
1(
1'
0%
1$
0g
0D
0$!
0!!
0{
0y
0p
0^
05
1h
1f
1"!
0|
0z
0q
0F
0I
0J
1L
1*
0(
0'
0$
1j
1A
1$!
1!!
1^
16
0i
0Y
0"!
0L
0*
#540000
0!
0T
#545000
1!
1T
1o
1?
1{
0s
13
0W
0U
1|
1J
1(
#550000
0!
0T
#555000
1!
1T
0o
0?
0{
1s
03
1W
1U
0|
0J
0(
1c
1d
1E
0#!
0!!
0s
14
0e
0b
0%!
1"!
1L
1R
1Q
1P
1M
1+
1.
1/
10
1*
#560000
0!
0T
#565000
1!
1T
1o
1?
1}
1{
1y
1p
13
0W
0U
1~
1|
1z
1q
1F
1I
1J
1K
1)
1(
1'
1$
#570000
0!
0T
#575000
1!
1T
0o
0?
0}
0{
0y
0p
03
1W
1U
0~
0|
0z
0q
0F
0I
0J
0K
0)
0(
0'
0$
0c
0d
0E
1#!
1!!
1s
04
1e
1b
1%!
0"!
0L
0R
0Q
0P
0M
0+
0.
0/
00
0*
1g
1D
0#!
1}
1v
15
0h
0f
0%!
1~
1w
1H
1K
1R
1Q
1P
1M
1+
1.
1/
10
1)
1&
#580000
0!
0T
#585000
1!
1T
1o
1?
1{
0v
0s
13
0W
0U
1|
0w
0H
1J
1(
0&
#590000
0!
0T
#595000
1!
1T
0o
0?
0{
1v
1s
03
1W
1U
0|
1w
1H
0J
0(
1&
1c
1d
1E
0}
1{
1y
0v
0s
1p
14
0e
0b
0~
1|
1z
0w
1q
1F
0H
1I
1J
0K
0)
1(
1'
0&
1$
#600000
0!
0T
#605000
1!
1T
1o
1?
0y
1t
0p
13
0W
0U
0z
1u
0q
0F
1G
0I
0'
1%
0$
#610000
0!
0T
#615000
1!
1T
0o
0?
1y
0t
1p
03
1W
1U
1z
0u
1q
1F
0G
1I
1'
0%
1$
0c
0d
0E
1}
0{
0y
1v
1s
0p
04
1e
1b
1~
0|
0z
1w
0q
0F
1H
0I
0J
1K
1)
0(
0'
1&
0$
0g
0D
1#!
0}
0v
05
1h
1f
1%!
0~
0w
0H
0K
0R
0Q
0P
0M
0+
0.
0/
00
0)
0&
0j
0A
0$!
0!!
0^
06
1i
1Y
1"!
1L
1*
1\
1]
1C
0#!
1r
0k
17
0"!
0Z
0L
0%!
0*
1u
1G
1R
1Q
1P
1M
1+
1.
1/
10
1%
#620000
1"
0!
1V
0T
0h
0e
0Y
0W
#625000
1!
1T
1o
1?
1}
1{
1y
1x
0s
1p
1k
1^
13
1W
0U
1~
1|
1z
1"!
0u
0G
1L
1I
1J
1K
1)
1(
1'
1*
0%
1c
1d
1E
1$!
1!!
0y
0x
0p
14
1e
0b
1%!
0&!
0"!
0z
0~
0|
0J
0K
0I
0L
0S
0R
0Q
0P
0M
0+
0.
0/
00
01
0*
0'
0)
0(
1g
1D
0!!
1y
0r
15
1h
0f
1j
1A
1!!
0}
0y
1t
16
0i
1Y
0\
0]
0C
0%!
07
1&!
1|
1u
1Z
1G
1J
1S
1R
1Q
1P
1M
1+
1.
1/
10
11
1(
1%
#630000
0!
0T
#635000
1!
1T
0o
0?
1y
0t
1p
03
0W
1U
1z
0u
1q
1F
0G
1I
1'
0%
1$
#640000
0!
0T
#645000
1!
1T
1o
1?
0y
1t
0p
13
1W
0U
0z
1u
0q
0F
1G
0I
0'
1%
0$
0c
0d
0E
1}
0t
04
0e
1b
1~
0u
0G
1K
1)
0%
#650000
0!
0T
#655000
1!
1T
0o
0?
0{
1v
1s
03
0W
1U
0|
1w
1H
0J
0(
1&
#660000
0!
0T
#665000
1!
1T
1o
1?
1{
0v
0s
13
1W
0U
1|
0w
0H
1J
1(
0&
1c
1d
1E
0}
1t
14
1e
0b
0~
1u
1G
0K
0)
1%
0g
0D
0!!
1}
1y
0t
1p
05
0h
1f
1"!
1~
1z
0u
1q
1F
0G
1I
1K
1L
1*
1)
1'
0%
1$
#670000
0!
0T
#675000
1!
1T
0o
0?
0}
0{
0y
0p
03
0W
1U
0~
0|
0z
0q
0F
0I
0J
0K
0)
0(
0'
0$
#680000
0!
0T
#685000
1!
1T
1o
1?
1}
1{
1y
1p
13
1W
0U
1~
1|
1z
1q
1F
1I
1J
1K
1)
1(
1'
1$
0c
0d
0E
1#!
1!!
0}
0y
0p
04
0e
1b
1%!
0"!
0~
0z
0q
0F
0I
0K
0L
0R
0Q
0P
0M
0+
0.
0/
00
0*
0)
0'
0$
#690000
0!
0T
#695000
1!
1T
0o
0?
0{
1s
03
0W
1U
0|
0J
0(
#700000
0!
0T
#705000
1!
1T
1o
1?
1{
0s
13
1W
0U
1|
1J
1(
1c
1d
1E
0#!
0!!
1}
1y
1p
14
1e
0b
0%!
1"!
1~
1z
1q
1F
1I
1K
1L
1R
1Q
1P
1M
1+
1.
1/
10
1*
1)
1'
1$
1g
1D
1!!
0}
0y
1t
0p
15
1h
0f
0"!
0~
0z
1u
0q
0F
1G
0I
0K
0L
0*
0)
0'
1%
0$
0j
0A
1#!
0!!
1}
1y
0t
06
1i
0Y
1%!
1"!
1~
1z
0u
0G
1I
1K
1L
0R
0Q
0P
0M
0+
0.
0/
00
1*
1)
1'
0%
#710000
0!
0T
#715000
1!
1T
0o
0?
1!!
0}
0{
0y
1t
03
0W
1U
0"!
0~
0|
0z
1u
1G
0I
0J
0K
0L
0*
0)
0(
0'
1%
#720000
0!
0T
#725000
1!
1T
1o
1?
0!!
1}
1{
1y
0t
13
1W
0U
1"!
1~
1|
1z
0u
0G
1I
1J
1K
1L
1*
1)
1(
1'
0%
0c
0d
0E
1!!
0}
0y
1t
04
0e
1b
0"!
0~
0z
1u
1G
0I
0K
0L
0*
0)
0'
1%
#730000
0!
0T
#735000
1!
1T
0o
0?
1y
0t
1s
1p
03
0W
1U
1z
0u
1q
1F
0G
1I
1'
0%
1$
#740000
0!
0T
#745000
1!
1T
1o
1?
0y
1t
0s
0p
13
1W
0U
0z
1u
0q
0F
1G
0I
0'
1%
0$
1c
1d
1E
0!!
1}
1y
0t
14
1e
0b
1"!
1~
1z
0u
0G
1I
1K
1L
1*
1)
1'
0%
0g
0D
1!!
0y
05
0h
1f
0"!
0z
0I
0L
0*
0'
#750000
0!
0T
#755000
1!
1T
0o
0?
0$!
0{
1v
03
0W
1U
0|
1w
1H
0J
0(
1&
#760000
0!
0T
#765000
1!
1T
1o
1?
1$!
1{
0v
13
1W
0U
1|
0w
0H
1J
1(
0&
0c
0d
0E
0$!
0!!
1y
1p
04
0e
1b
1"!
1z
1q
1F
1I
1L
1*
1'
1$
#770000
0!
0T
#775000
1!
1T
0o
0?
0}
0{
0y
1s
0p
0^
03
0W
1U
0~
0|
0z
0q
0_
0F
0I
0J
0K
0)
0(
0'
0$
#780000
0!
0T
0`
0B
1n
1a
1[
02
1d
1]
1C
1E
0#!
1!!
1}
1v
0s
1^
1r
0k
14
17
1e
0"!
1_
0L
0%!
0*
1R
1Q
1P
1M
1+
1.
1/
10
#785000
1!
1T
#790000
0!
0T
1`
1B
0n
0[
12
#795000
1!
1T
1o
1?
1$!
1{
0v
1k
13
1W
0U
1%!
0&!
0S
0R
0Q
0P
0M
0+
0.
0/
00
01
1c
0d
0E
0$!
0!!
1y
1x
1p
04
0e
0b
0%!
1&!
1"!
1z
1~
1|
1J
1K
1I
1L
1S
1R
1Q
1P
1M
1+
1.
1/
10
11
1*
1'
1)
1(
#800000
0!
0T
#805000
1!
1T
0o
0?
0}
0{
0y
0x
1s
0p
0k
0^
03
0W
1U
0~
0|
0z
0"!
1u
1G
0L
0I
0J
0K
0)
0(
0'
0*
1%
#810000
0!
0T
#815000
1!
1T
1o
1?
1}
1{
1y
1x
0s
1p
1k
1^
13
1W
0U
1~
1|
1z
1"!
0u
0G
1L
1I
1J
1K
1)
1(
1'
1*
0%
0c
1d
1E
1$!
1!!
0y
0x
0p
14
1e
1b
1%!
0&!
0"!
0z
0~
0|
0J
0K
0I
0L
0S
0R
0Q
0P
0M
0+
0.
0/
00
01
0*
0'
0)
0(
1g
1D
0!!
1y
0r
15
1h
0f
1j
1A
1!!
0}
0y
1t
16
0i
1Y
1\
0]
0C
0%!
07
1&!
1|
1u
0Z
1G
1J
1S
1R
1Q
1P
1M
1+
1.
1/
10
11
1(
1%
#820000
0!
0T
#825000
1!
1T
0o
0?
1y
0t
1p
03
0W
1U
1z
0u
1q
1F
0G
1I
1'
0%
1$
#830000
0!
0T
#835000
1!
1T
1o
1?
0y
1t
0p
13
1W
0U
0z
1u
0q
0F
1G
0I
0'
1%
0$
1c
0d
0E
1}
0t
04
0e
0b
1~
0u
0G
1K
1)
0%
#840000
0!
0T
#845000
1!
1T
0o
0?
0{
1v
1s
03
0W
1U
0|
1w
1H
0J
0(
1&
#850000
0!
0T
#855000
1!
1T
1o
1?
1{
0v
0s
13
1W
0U
1|
0w
0H
1J
1(
0&
0c
1d
1E
0}
1t
14
1e
1b
0~
1u
1G
0K
0)
1%
0g
0D
0!!
1}
1y
0t
1p
05
0h
1f
1"!
1~
1z
0u
1q
1F
0G
1I
1K
1L
1*
1)
1'
0%
1$
#860000
0!
0T
#865000
1!
1T
0o
0?
0}
0{
0y
0p
03
0W
1U
0~
0|
0z
0q
0F
0I
0J
0K
0)
0(
0'
0$
#870000
0!
0T
#875000
1!
1T
1o
1?
1}
1{
1y
1p
13
1W
0U
1~
1|
1z
1q
1F
1I
1J
1K
1)
1(
1'
1$
1c
0d
0E
1#!
1!!
0}
0y
0p
04
0e
0b
1%!
0"!
0~
0z
0q
0F
0I
0K
0L
0R
0Q
0P
0M
0+
0.
0/
00
0*
0)
0'
0$
#880000
0!
0T
#885000
1!
1T
0o
0?
0{
1s
03
0W
1U
0|
0J
0(
#890000
0!
0T
#895000
1!
1T
1o
1?
1{
0s
13
1W
0U
1|
1J
1(
0c
1d
1E
0#!
0!!
1}
1y
1p
14
1e
1b
0%!
1"!
1~
1z
1q
1F
1I
1K
1L
1R
1Q
1P
1M
1+
1.
1/
10
1*
1)
1'
1$
1g
1D
1!!
0}
0y
1t
0p
15
1h
0f
0"!
0~
0z
1u
0q
0F
1G
0I
0K
0L
0*
0)
0'
1%
0$
0j
0A
1#!
0!!
1}
1y
0t
06
1i
0Y
1%!
1"!
1~
1z
0u
0G
1I
1K
1L
0R
0Q
0P
0M
0+
0.
0/
00
1*
1)
1'
0%
#900000
0!
0T
#905000
1!
1T
0o
0?
1!!
0}
0{
0y
1t
03
0W
1U
0"!
0~
0|
0z
1u
1G
0I
0J
0K
0L
0*
0)
0(
0'
1%
#910000
0!
0T
#915000
1!
1T
1o
1?
0!!
1}
1{
1y
0t
13
1W
0U
1"!
1~
1|
1z
0u
0G
1I
1J
1K
1L
1*
1)
1(
1'
0%
1c
0d
0E
1!!
0}
0y
1t
04
0e
0b
0"!
0~
0z
1u
1G
0I
0K
0L
0*
0)
0'
1%
#920000
0!
0T
#925000
1!
1T
0o
0?
1y
0t
1s
1p
03
0W
1U
1z
0u
1q
1F
0G
1I
1'
0%
1$
#930000
0!
0T
#935000
1!
1T
1o
1?
0y
1t
0s
0p
13
1W
0U
0z
1u
0q
0F
1G
0I
0'
1%
0$
0c
1d
1E
0!!
1}
1y
0t
14
1e
1b
1"!
1~
1z
0u
0G
1I
1K
1L
1*
1)
1'
0%
0g
0D
1!!
0y
05
0h
1f
0"!
0z
0I
0L
0*
0'
#940000
0!
0T
