final_project/simulation/qsim/final_project.msim.vcd
$comment
	File created using the following command:
		vcd file final_project.msim.vcd -direction
$end
$date
	Sat Jun 23 17:55:11 2018
$end
$version
	ModelSim Version 10.5b
$end
$timescale
	1ps
$end

$scope module final_project_vlg_vec_tst $end
$var reg 1 ! ck $end
$var reg 1 " clr $end
$var reg 1 # ctrl $end
$var reg 1 $ KEY1 $end
$var reg 1 % KEY2 $end
$var reg 1 & stop $end
$var reg 1 ' SW2 $end
$var reg 1 ( SW3 $end
$var reg 1 ) SW4 $end
$var reg 1 * SW5 $end
$var reg 1 + SW6 $end
$var reg 1 , SW7 $end
$var reg 1 - SW8 $end
$var reg 1 . SW9 $end
$var wire 1 / L3bit_L0 [0] $end
$var wire 1 0 L3bit_L0 [1] $end
$var wire 1 1 L3bit_L0 [2] $end
$var wire 1 2 L3bit_L0 [3] $end
$var wire 1 3 L3bit_L0 [4] $end
$var wire 1 4 L3bit_L0 [5] $end
$var wire 1 5 L3bit_L0 [6] $end
$var wire 1 6 L4bit_L0 [6] $end
$var wire 1 7 L4bit_L0 [5] $end
$var wire 1 8 L4bit_L0 [4] $end
$var wire 1 9 L4bit_L0 [3] $end
$var wire 1 : L4bit_L0 [2] $end
$var wire 1 ; L4bit_L0 [1] $end
$var wire 1 < L4bit_L0 [0] $end
$var wire 1 = L4bit_L1 [6] $end
$var wire 1 > L4bit_L1 [5] $end
$var wire 1 ? L4bit_L1 [4] $end
$var wire 1 @ L4bit_L1 [3] $end
$var wire 1 A L4bit_L1 [2] $end
$var wire 1 B L4bit_L1 [1] $end
$var wire 1 C L4bit_L1 [0] $end
$var wire 1 D L5bit_L0 [6] $end
$var wire 1 E L5bit_L0 [5] $end
$var wire 1 F L5bit_L0 [4] $end
$var wire 1 G L5bit_L0 [3] $end
$var wire 1 H L5bit_L0 [2] $end
$var wire 1 I L5bit_L0 [1] $end
$var wire 1 J L5bit_L0 [0] $end
$var wire 1 K L5bit_L1 [6] $end
$var wire 1 L L5bit_L1 [5] $end
$var wire 1 M L5bit_L1 [4] $end
$var wire 1 N L5bit_L1 [3] $end
$var wire 1 O L5bit_L1 [2] $end
$var wire 1 P L5bit_L1 [1] $end
$var wire 1 Q L5bit_L1 [0] $end
$var wire 1 R LEDG0 $end
$var wire 1 S LEDG1 $end
$var wire 1 T LEDG2 $end
$var wire 1 U LEDR0 $end
$var wire 1 V LEDR1 $end
$var wire 1 W LEDR2 $end
$var wire 1 X LEDR3 $end
$var wire 1 Y LEDR4 $end

$scope module i1 $end
$var wire 1 Z gnd $end
$var wire 1 [ vcc $end
$var wire 1 \ unknown $end
$var tri1 1 ] devclrn $end
$var tri1 1 ^ devpor $end
$var tri1 1 _ devoe $end
$var wire 1 ` LEDG0~output_o $end
$var wire 1 a LEDG1~output_o $end
$var wire 1 b LEDG2~output_o $end
$var wire 1 c LEDR0~output_o $end
$var wire 1 d LEDR1~output_o $end
$var wire 1 e LEDR2~output_o $end
$var wire 1 f LEDR3~output_o $end
$var wire 1 g LEDR4~output_o $end
$var wire 1 h L3bit_L0[0]~output_o $end
$var wire 1 i L3bit_L0[1]~output_o $end
$var wire 1 j L3bit_L0[2]~output_o $end
$var wire 1 k L3bit_L0[3]~output_o $end
$var wire 1 l L3bit_L0[4]~output_o $end
$var wire 1 m L3bit_L0[5]~output_o $end
$var wire 1 n L3bit_L0[6]~output_o $end
$var wire 1 o L4bit_L0[6]~output_o $end
$var wire 1 p L4bit_L0[5]~output_o $end
$var wire 1 q L4bit_L0[4]~output_o $end
$var wire 1 r L4bit_L0[3]~output_o $end
$var wire 1 s L4bit_L0[2]~output_o $end
$var wire 1 t L4bit_L0[1]~output_o $end
$var wire 1 u L4bit_L0[0]~output_o $end
$var wire 1 v L4bit_L1[6]~output_o $end
$var wire 1 w L4bit_L1[5]~output_o $end
$var wire 1 x L4bit_L1[4]~output_o $end
$var wire 1 y L4bit_L1[3]~output_o $end
$var wire 1 z L4bit_L1[2]~output_o $end
$var wire 1 { L4bit_L1[1]~output_o $end
$var wire 1 | L4bit_L1[0]~output_o $end
$var wire 1 } L5bit_L0[6]~output_o $end
$var wire 1 ~ L5bit_L0[5]~output_o $end
$var wire 1 !! L5bit_L0[4]~output_o $end
$var wire 1 "! L5bit_L0[3]~output_o $end
$var wire 1 #! L5bit_L0[2]~output_o $end
$var wire 1 $! L5bit_L0[1]~output_o $end
$var wire 1 %! L5bit_L0[0]~output_o $end
$var wire 1 &! L5bit_L1[6]~output_o $end
$var wire 1 '! L5bit_L1[5]~output_o $end
$var wire 1 (! L5bit_L1[4]~output_o $end
$var wire 1 )! L5bit_L1[3]~output_o $end
$var wire 1 *! L5bit_L1[2]~output_o $end
$var wire 1 +! L5bit_L1[1]~output_o $end
$var wire 1 ,! L5bit_L1[0]~output_o $end
$var wire 1 -! ck~input_o $end
$var wire 1 .! stop~input_o $end
$var wire 1 /! inst4~combout $end
$var wire 1 0! ctrl~input_o $end
$var wire 1 1! inst2|inst4|inst2~0_combout $end
$var wire 1 2! KEY2~input_o $end
$var wire 1 3! inst2|inst1~q $end
$var wire 1 4! inst2|inst5|inst2~0_combout $end
$var wire 1 5! inst2|inst2~q $end
$var wire 1 6! inst2|inst3|inst2~0_combout $end
$var wire 1 7! inst2|inst~q $end
$var wire 1 8! SW3~input_o $end
$var wire 1 9! inst11~0_combout $end
$var wire 1 :! clr~input_o $end
$var wire 1 ;! inst7~0_combout $end
$var wire 1 <! inst11~q $end
$var wire 1 =! inst34|inst11~2_combout $end
$var wire 1 >! KEY1~input_o $end
$var wire 1 ?! SW2~input_o $end
$var wire 1 @! inst3|inst~1_combout $end
$var wire 1 A! SW4~input_o $end
$var wire 1 B! inst30|inst~0_combout $end
$var wire 1 C! inst30|inst~1_combout $end
$var wire 1 D! inst30|inst~2_combout $end
$var wire 1 E! inst38|inst~q $end
$var wire 1 F! inst37|inst13~0_combout $end
$var wire 1 G! inst37|inst1~q $end
$var wire 1 H! inst37|inst20~0_combout $end
$var wire 1 I! inst37|inst3~q $end
$var wire 1 J! inst37|inst16~0_combout $end
$var wire 1 K! inst37|inst2~q $end
$var wire 1 L! inst37|inst9~0_combout $end
$var wire 1 M! inst37|inst~q $end
$var wire 1 N! inst30|inst~3_combout $end
$var wire 1 O! SW6~input_o $end
$var wire 1 P! inst30|inst~4_combout $end
$var wire 1 Q! inst30|inst~5_combout $end
$var wire 1 R! inst30|inst~6_combout $end
$var wire 1 S! inst30|inst~7_combout $end
$var wire 1 T! inst38|inst1~q $end
$var wire 1 U! inst31|inst~2_combout $end
$var wire 1 V! SW7~input_o $end
$var wire 1 W! inst39|inst4~0_combout $end
$var wire 1 X! inst31|inst~3_combout $end
$var wire 1 Y! inst38|inst2~q $end
$var wire 1 Z! inst32|inst~2_combout $end
$var wire 1 [! SW8~input_o $end
$var wire 1 \! inst39|inst6~0_combout $end
$var wire 1 ]! inst39|inst9~0_combout $end
$var wire 1 ^! inst32|inst~3_combout $end
$var wire 1 _! inst38|inst3~q $end
$var wire 1 `! inst33|inst~0_combout $end
$var wire 1 a! SW9~input_o $end
$var wire 1 b! SW5~input_o $end
$var wire 1 c! inst33|inst~1_combout $end
$var wire 1 d! inst33|inst~2_combout $end
$var wire 1 e! inst33|inst~3_combout $end
$var wire 1 f! inst39|inst16~0_combout $end
$var wire 1 g! inst34|inst11~combout $end
$var wire 1 h! inst|WideOr0~0_combout $end
$var wire 1 i! inst|WideOr1~0_combout $end
$var wire 1 j! inst|WideOr2~0_combout $end
$var wire 1 k! inst|WideOr3~0_combout $end
$var wire 1 l! inst|Decoder0~0_combout $end
$var wire 1 m! inst|L0[5]~0_combout $end
$var wire 1 n! inst|L0[6]~1_combout $end
$var wire 1 o! inst2|inst13~0_combout $end
$var wire 1 p! inst27|WideOr0~0_combout $end
$var wire 1 q! inst27|Decoder0~0_combout $end
$var wire 1 r! inst27|WideOr1~0_combout $end
$var wire 1 s! inst27|WideOr16~0_combout $end
$var wire 1 t! inst27|WideOr13~0_combout $end
$var wire 1 u! inst27|WideOr2~0_combout $end
$var wire 1 v! inst27|WideOr3~0_combout $end
$var wire 1 w! inst27|WideOr14~0_combout $end
$var wire 1 x! inst27|WideOr15~0_combout $end
$var wire 1 y! inst27|WideOr15~1_combout $end
$var wire 1 z! inst27|WideOr4~0_combout $end
$var wire 1 {! inst27|WideOr16~combout $end
$var wire 1 |! inst27|data0.0010~2_combout $end
$var wire 1 }! inst27|WideOr5~0_combout $end
$var wire 1 ~! inst27|L0[5]~0_combout $end
$var wire 1 !" inst27|L0[6]~1_combout $end
$var wire 1 "" inst31|inst~4_combout $end
$var wire 1 #" inst32|inst~4_combout $end
$var wire 1 $" inst27|data1.0001~0_combout $end
$var wire 1 %" inst27|WideOr19~combout $end
$var wire 1 &" inst27|data1.0000~0_combout $end
$var wire 1 '" inst34|inst11~3_combout $end
$var wire 1 (" inst23|WideOr7~0_combout $end
$var wire 1 )" inst23|WideOr1~0_combout $end
$var wire 1 *" inst23|WideOr13~0_combout $end
$var wire 1 +" inst23|WideOr3~0_combout $end
$var wire 1 ," inst23|WideOr14~0_combout $end
$var wire 1 -" inst23|WideOr14~1_combout $end
$var wire 1 ." inst23|WideOr8~0_combout $end
$var wire 1 /" inst23|WideOr15~0_combout $end
$var wire 1 0" inst23|WideOr15~1_combout $end
$var wire 1 1" inst23|WideOr4~0_combout $end
$var wire 1 2" inst23|WideOr16~0_combout $end
$var wire 1 3" inst23|data0.0010~0_combout $end
$var wire 1 4" inst23|L0[5]~0_combout $end
$var wire 1 5" inst23|L0[6]~1_combout $end
$var wire 1 6" inst23|WideOr11~0_combout $end
$var wire 1 7" inst23|WideOr10~0_combout $end
$var wire 1 8" inst23|WideOr17~0_combout $end
$var wire 1 9" inst23|WideOr18~0_combout $end
$var wire 1 :" inst23|WideOr18~1_combout $end
$var wire 1 ;" inst23|WideOr12~0_combout $end
$var wire 1 <" inst23|WideOr18~2_combout $end
$var wire 1 =" inst23|WideOr19~combout $end
$var wire 1 >" inst23|WideOr20~combout $end
$var wire 1 ?" inst23|data1.0010~2_combout $end
$var wire 1 @" inst23|data1.0001~2_combout $end
$upscope $end
$upscope $end
$enddefinitions $end
#0
$dumpvars
0!
1"
0#
1$
1%
1&
0'
0(
0)
0*
0+
0,
0-
0.
05
04
03
02
01
00
1/
0<
0;
0:
19
08
07
06
0C
0B
0A
1@
0?
0>
0=
0J
0I
0H
1G
0F
0E
0D
0Q
0P
0O
1N
0M
0L
0K
0R
0S
0T
0U
0V
0W
0X
0Y
0Z
1[
x\
1]
1^
1_
0`
0a
0b
0c
0d
0e
0f
0g
1h
0i
0j
0k
0l
0m
0n
0o
0p
0q
1r
0s
0t
0u
0v
0w
0x
1y
0z
0{
0|
0}
0~
0!!
1"!
0#!
0$!
0%!
0&!
0'!
0(!
1)!
0*!
0+!
0,!
0-!
1.!
0/!
00!
11!
12!
03!
14!
05!
06!
07!
08!
19!
1:!
0;!
0<!
0=!
1>!
0?!
x@!
0A!
0B!
0C!
0D!
0E!
1F!
0G!
1H!
0I!
0J!
0K!
0L!
0M!
0N!
0O!
0P!
0Q!
0R!
0S!
0T!
0U!
0V!
0W!
0X!
0Y!
0Z!
0[!
0\!
0]!
0^!
0_!
0`!
0a!
0b!
0c!
0d!
0e!
0f!
0g!
1h!
0i!
0j!
0k!
0l!
1m!
0n!
0o!
0p!
0q!
0r!
1s!
0t!
0u!
0v!
0w!
0x!
1y!
0z!
1{!
0|!
0}!
0~!
0!"
0""
0#"
0$"
1%"
1&"
0'"
0("
0)"
0*"
0+"
0,"
0-"
0."
1/"
10"
01"
12"
03"
04"
05"
06"
07"
08"
09"
0:"
0;"
0<"
1="
1>"
0?"
0@"
$end
#10000
1!
1-!
1/!
1I!
1G!
1<!
15!
13!
1a
1b
1`!
1U!
0m!
xC!
1T
1S
1L!
0F!
09!
1o!
0h!
16!
0h
1v
1m
1""
14
1=
0/
1e!
1X!
0&"
0{!
1t!
1o
0r
0y
1d
1f
0%"
17"
16"
1X
1V
0@
09
16
1&"
1$"
1w
1|
1y
1x
1?
1@
1C
1>
#20000
0!
0-!
0/!
#30000
1!
1-!
1/!
1M!
0G!
0<!
17!
1`
1N!
0U!
1'"
1m!
0`!
0C!
1=!
1R
0L!
19!
1@"
0o!
1k!
1j!
1i!
1h!
04!
01!
1h
1i
1j
1k
0v
1,!
0m
0""
0="
1%"
04
1Q
0=
12
11
10
1/
0X!
1<"
18"
02"
1*"
0e!
0$"
1{!
0t!
0o
1r
0w
0|
0f
1}
0"!
1&!
1'!
0d
0x
1(!
07"
06"
1M
0?
0V
1L
1K
0G
1D
0X
0C
0>
19
06
1="
0@"
0>"
0<"
0'!
0)!
0,!
0(!
0M
0Q
0N
0L
#40000
0!
0-!
0/!
#50000
1!
1-!
1/!
0M!
1<!
05!
03!
0a
0b
1D!
0'"
1`!
0=!
0T
0S
1L!
1J!
0H!
1F!
09!
1>"
1n!
14!
1n
1)!
0D!
1N
15
1S!
08"
12"
0*"
0}
1"!
0&!
1c
1r!
1p!
1U
0K
1G
0D
0S!
0c
0s!
0r!
0p!
0U
1s!
#60000
0!
0-!
0/!
#70000
1!
1-!
1/!
1M!
1K!
0I!
1G!
0<!
15!
1b
1Z!
0`!
1U!
0m!
1R!
1T
0L!
19!
0n!
0k!
0i!
0h!
1e!
06!
04!
11!
1f
0h
0i
0k
0n
1m
1#"
1""
1."
1)"
1x!
1p!
14
05
02
00
0/
1X
1^!
0e!
1X!
1S!
1c
1d
0f
1e
1,"
0."
1("
0x!
1q!
1W
0X
1V
1U
0,"
0s!
#80000
0!
0-!
0/!
#90000
1!
1-!
1/!
0M!
1<!
07!
05!
13!
1a
0b
0`
0N!
1m!
xC!
0R!
0R
0T
1S
1L!
0F!
09!
1l!
0j!
1i!
16!
0^!
0X!
0S!
0c
0d
0e
1i
0j
1l
0m
xD!
0)"
0("
0q!
0p!
1s!
04
13
01
10
0W
0V
0U
xS!
xc
xr!
xp!
xU
xs!
#100000
0!
0-!
0/!
#110000
1!
1-!
1/!
1M!
0G!
0<!
17!
1`
1N!
0U!
0Z!
0C!
1=!
1R
0L!
19!
0l!
1j!
06!
14!
01!
1j
0l
0""
0#"
0D!
03
11
0S!
0c
0r!
0p!
0U
1s!
#120000
0!
0-!
0/!
#130000
1!
1-!
1/!
0M!
1<!
07!
15!
03!
0a
1b
0`
0N!
0=!
1R!
0R
1T
0S
1L!
0J!
1F!
09!
1n!
1k!
0i!
04!
0i
1k
1n
0R!
15
12
00
1S!
1c
1r!
1p!
1U
0S!
0c
0s!
0r!
0p!
0U
1s!
#140000
0!
0-!
0/!
#150000
1!
1-!
1/!
1M!
0K!
1G!
0<!
05!
0b
0T
0L!
19!
0n!
0k!
0j!
1h!
14!
11!
1h
0j
0k
0n
05
02
01
1/
#160000
0!
0-!
0/!
#170000
1!
1-!
1/!
0M!
1<!
15!
13!
1a
1b
0m!
1U!
xC!
1T
1S
1L!
0F!
09!
1o!
0h!
16!
0h
1v
1m
1""
14
1=
0/
1X!
0&"
0{!
1t!
1o
0r
0y
1d
1+"
1)"
1u!
1p!
1V
0@
09
16
1,"
1|!
1w!
0t!
0o
1p
1s
1:
17
06
#180000
0!
0-!
0/!
#190000
1!
1-!
1/!
1M!
0G!
0<!
17!
1`
1N!
0U!
1'"
1m!
0C!
1=!
1R
0L!
19!
0>"
0|!
0o!
1k!
1j!
1i!
1h!
04!
01!
1h
1i
1j
1k
0v
0s
0)!
0m
0""
04
0N
0:
0=
12
11
10
1/
0X!
18"
13"
02"
1-"
1&"
1{!
0w!
0p
1r
1y
1~
0"!
1#!
1&!
0d
0+"
0)"
0u!
0p!
0V
1K
1H
0G
1E
1@
19
07
0,"
03"
0-"
1*"
1}
0~
0#!
0H
0E
1D
#200000
1#
0!
10!
0-!
06!
14!
11!
0/!
#210000
1!
1-!
1/!
0M!
1<!
07!
0`
0N!
0'"
0m!
xC!
0=!
0R
1H!
1F!
09!
1>"
1o!
0k!
0j!
0i!
0h!
04!
01!
0h
0i
0j
0k
1v
1)!
1m
14
1N
1=
02
01
00
0/
08"
12"
0*"
0&"
0{!
1t!
1o
0r
0y
0}
1"!
0&!
0K
1G
0D
0@
09
16
#220000
0!
0-!
0/!
#230000
1!
1-!
1/!
1I!
1G!
0<!
05!
03!
0a
0b
xD!
1m!
0C!
0T
0S
1L!
0F!
19!
0o!
1h!
14!
1h
0v
0m
0D!
04
0=
1/
xS!
1&"
1{!
0t!
0o
1r
1y
xc
xr!
xp!
xU
1@
19
06
0S!
0c
xs!
0r!
0p!
0U
1s!
#240000
0!
0-!
0/!
#250000
1!
1-!
1/!
1M!
0G!
1<!
15!
1b
1T
0L!
09!
1n!
1k!
1j!
0h!
16!
04!
11!
0h
1j
1k
1n
15
12
11
0/
#260000
0!
0-!
0/!
#270000
1!
1-!
1/!
0M!
0<!
17!
05!
13!
1a
0b
1`
1=!
1R
0T
1S
1L!
1J!
0H!
1F!
19!
0n!
0k!
1i!
06!
1i
0k
0n
05
02
10
#280000
0!
0-!
0/!
#290000
1!
1-!
1/!
1M!
1K!
0I!
1G!
1<!
07!
0`
1Q!
1Z!
1U!
1D!
xC!
0=!
0R
0L!
09!
1l!
0j!
16!
14!
01!
0j
1l
1#"
1""
xD!
13
01
1S!
1c
1r!
1p!
1U
xS!
xc
0s!
xr!
xp!
xU
xs!
#300000
0!
0-!
0/!
#310000
1!
1-!
1/!
0M!
0<!
17!
15!
03!
0a
1b
1`
0Q!
0D!
0m!
0C!
1R
1T
0S
1L!
0F!
19!
0l!
1j!
0i!
04!
1^!
1X!
1d
1e
0i
1j
0l
1m
1)"
1("
xx!
0r!
1q!
1p!
14
03
11
00
1W
1V
0S!
0c
1s!
1x!
0U
#320000
0!
0-!
0/!
#330000
1!
1-!
1/!
1M!
0G!
1<!
05!
0b
1N!
0U!
1m!
0T
0L!
09!
1n!
1k!
1i!
1h!
0^!
0X!
14!
11!
0d
0e
1h
1i
1k
1n
0m
0""
0)"
0("
0x!
0q!
0p!
04
15
12
10
1/
0W
0V
#340000
0!
0-!
0/!
#350000
1!
1-!
1/!
0M!
0<!
15!
13!
1a
1b
0N!
1'"
0Z!
1=!
1T
1S
1L!
0J!
1F!
19!
0>"
0n!
1^!
06!
1e
0n
0)!
0#"
11"
1)"
1z!
1p!
0N
05
1W
18"
02"
1*"
0^!
0e
1}
0"!
1&!
0/"
1,"
01"
0)"
0z!
0p!
1K
0G
1D
0W
15"
12"
0*"
0}
1"!
1%!
00"
1/"
0,"
1J
1G
0D
02"
05"
1*"
1}
0%!
0"!
1!!
10"
1F
0G
0J
1D
0!!
0F
#360000
0!
0-!
0/!
#370000
1!
1-!
1/!
1M!
0K!
1G!
1<!
07!
0`
1Q!
1U!
0'"
0m!
xC!
0=!
0R
0L!
09!
1>"
1o!
0k!
0j!
0i!
0h!
04!
01!
0h
0i
0j
0k
1v
1)!
1m
1R!
1""
14
1N
1=
02
01
00
0/
1X!
08"
12"
0*"
0&"
0{!
1t!
1o
0r
0y
0}
1"!
0&!
1d
1+"
1)"
1u!
1p!
1V
0K
1G
0D
0@
09
16
1S!
1c
1,"
1v!
0u!
1U
1|!
1w!
0t!
0o
1p
1s
0y!
1:
17
06
0|!
0s
1q
18
0:
#380000
0!
0-!
0/!
#390000
1!
1-!
1/!
0M!
0<!
05!
03!
0a
0b
0Q!
xD!
1m!
0U!
0C!
0T
0S
1L!
0F!
19!
0o!
1h!
0X!
0S!
14!
0c
0d
1h
0v
0m
0R!
0""
0D!
1y!
0+"
0)"
0v!
0p!
04
0=
1/
0V
0U
xS!
1&"
1{!
0w!
0p
1r
1y
xc
0q
0,"
xr!
xp!
08
xU
1@
19
07
0S!
0c
xs!
0r!
0p!
0U
1s!
#400000
0&
0#
0!
0.!
00!
0-!
0/!
11!
#410000
1!
1-!
1M!
0G!
1<!
0L!
09!
#420000
0!
0-!
#430000
1!
1-!
0M!
0<!
1H!
1F!
19!
#440000
0!
0-!
#450000
1!
1-!
1I!
1G!
1<!
1L!
0F!
09!
#460000
0!
0-!
#470000
1!
1-!
1M!
0G!
0<!
0L!
19!
#480000
1'
0!
1?!
0-!
#490000
1!
1-!
0M!
1<!
1E!
1N!
1L!
1J!
0H!
1F!
09!
#500000
0!
0-!
#510000
1!
1-!
1M!
1K!
0I!
1G!
0<!
1T!
1U!
0L!
19!
1""
#520000
1(
0'
0!
18!
0?!
0-!
1W!
1B!
1C!
1D!
1S!
1c
1r!
1p!
1U
0s!
#530000
1!
1-!
0M!
1<!
1Y!
0E!
0N!
1Z!
1L!
0F!
09!
1#"
#540000
0!
0-!
#550000
1!
1-!
1_!
1M!
0G!
0<!
0T!
1`!
0U!
0L!
19!
0""
#560000
1'
0!
1?!
0-!
#570000
1!
1-!
0M!
1<!
0Y!
1E!
1N!
0Z!
1L!
0J!
1F!
09!
0#"
#580000
0!
0-!
#590000
1!
1-!
0_!
1M!
0K!
1G!
0<!
1T!
0`!
1U!
0L!
19!
1""
#600000
1)
0(
0'
0!
1A!
08!
0?!
0-!
1]!
0B!
0W!
0C!
0D!
0S!
0c
0r!
0p!
0U
1s!
#610000
1!
1-!
0M!
1<!
1Y!
0E!
0N!
1Z!
1L!
0F!
09!
1#"
#620000
0!
0-!
#630000
1!
1-!
1_!
1M!
0G!
0<!
0T!
1`!
0U!
0L!
19!
0""
#640000
1'
0!
1?!
0-!
1P!
1B!
1Q!
1C!
1R!
1D!
1S!
1c
1r!
1p!
1U
0s!
#650000
1!
1-!
0M!
1<!
0Y!
1E!
1N!
0Z!
1H!
1F!
09!
0#"
#660000
0!
0-!
#670000
1!
1-!
0_!
1I!
1G!
0<!
1T!
0`!
1U!
1L!
0F!
19!
1""
#680000
1(
0'
0!
18!
0?!
0-!
1W!
0P!
0Q!
0R!
#690000
1!
1-!
1M!
0G!
1<!
1Y!
0E!
0N!
1Z!
0L!
09!
1#"
#700000
0!
0-!
#710000
1!
1-!
1_!
0M!
0<!
0T!
1`!
0U!
1L!
1J!
0H!
1F!
19!
0""
#720000
1'
0!
1?!
0-!
1P!
1Q!
1R!
#730000
1!
1-!
1M!
1K!
0I!
1G!
1<!
0Y!
1E!
1N!
0Z!
0L!
09!
0#"
#740000
0!
0-!
#750000
1!
1-!
0_!
0M!
0<!
1T!
0`!
1U!
1L!
0F!
19!
1""
#760000
0)
0(
0'
0!
0A!
08!
0?!
0-!
0]!
0P!
0B!
0W!
0Q!
0C!
0R!
0D!
0S!
0c
0r!
0p!
0U
1s!
#770000
1!
1-!
1M!
0G!
1<!
1Y!
0E!
0N!
1Z!
0L!
09!
1#"
#780000
1&
0!
1.!
0-!
#790000
1!
1-!
1/!
1_!
0M!
0<!
15!
13!
0T!
1a
1b
0m!
0U!
xC!
1T
1S
1L!
0J!
1F!
19!
1o!
0h!
1^!
1X!
16!
1d
1e
0h
1v
1m
0""
1)"
1("
1x!
1q!
1p!
14
1=
0/
1W
1V
0X!
0&"
0{!
1t!
1o
0r
0y
0d
11"
0("
1z!
0x!
0q!
0V
0@
09
16
1~!
0t!
0o
1t
0/"
1,"
0y!
1;
06
1!"
1{!
0~!
0t
1r
1u
1q
18
1<
19
0;
#800000
0&
0!
0.!
0-!
0/!
#810000
1!
1-!
1M!
0K!
1G!
1<!
0Y!
1Q!
0Z!
1U!
0L!
09!
1R!
0#"
1""
0^!
1X!
1d
0e
01"
1+"
0z!
1u!
0W
1V
1S!
1c
1/"
1y!
1v!
0u!
1U
0!"
0{!
1|!
1w!
1p
1s
0r
0u
0q
0y!
08
0<
09
1:
17
0|!
0s
1q
18
0:
#820000
0!
0-!
#830000
1!
1-!
0_!
0M!
0<!
0Q!
1L!
0F!
19!
0R!
0S!
0c
0v!
1u!
0U
1y!
1|!
1s
0q
08
1:
#840000
0!
0-!
#850000
1!
1-!
1M!
0G!
1<!
1Q!
0U!
0L!
09!
1R!
0""
0X!
0d
0+"
0)"
0u!
0p!
0V
1S!
1c
0,"
1r!
1p!
1U
0|!
0w!
1t!
1o
0p
0s
0s!
0y!
0:
07
16
1!"
0t!
0o
1u
1q
18
1<
06
1{!
1w!
1t!
1o
1p
1r
19
17
16
#860000
0!
0-!
#870000
1!
1-!
0M!
0<!
0Q!
1H!
1F!
19!
0R!
0S!
0c
0r!
0p!
0U
1s!
1y!
0!"
0u
0q
08
0<
0{!
0w!
0p
0r
09
07
#880000
0!
0-!
#890000
1!
1-!
1I!
1G!
1<!
1`!
1U!
1L!
0F!
09!
1""
1e!
1X!
1d
1f
0%"
17"
16"
1X
1V
1&"
1$"
1w
1|
1y
1x
1?
1@
1C
1>
#900000
0!
0-!
#910000
1!
1-!
1M!
0G!
0<!
1Q!
0U!
0L!
19!
1R!
0""
0X!
0d
1%"
07"
06"
1."
1)"
1x!
1p!
0V
1S!
0&"
0$"
0w
0|
0y
1c
0x
1,"
0x!
0?
1U
0@
0C
0>
0t!
0o
0y!
06
1q
18
#920000
0!
0-!
#930000
1!
1-!
0M!
1<!
0Q!
1L!
1J!
0H!
1F!
09!
0R!
0S!
0c
1x!
0U
1y!
0q
08
#940000
0!
0-!
#950000
1!
1-!
1M!
1K!
0I!
1G!
0<!
1Q!
1Z!
0`!
1U!
0L!
19!
1R!
1#"
1""
1^!
0e!
1X!
1d
0f
1e
0."
1("
1q!
1W
0X
1V
1S!
1c
0,"
0s!
0x!
1U
0y!
1{!
1w!
1t!
1o
1p
1r
1q
18
19
17
16
#960000
0!
0-!
#970000
1!
1-!
0M!
1<!
0Q!
1L!
0F!
09!
0R!
0S!
0c
1x!
1s!
0U
1~!
1t
1y!
1;
0{!
0w!
0t!
0o
0p
0r
0q
08
09
07
06
#980000
0!
0-!
#990000
1!
1-!
1M!
0G!
0<!
1Q!
0U!
0L!
19!
1R!
0""
0X!
0d
11"
0("
1z!
0x!
0q!
0V
1S!
1c
0/"
1,"
0y!
1}!
0z!
1U
1!"
1{!
0~!
0t
1r
1u
1q
18
1<
19
0;
1~!
0!"
0{!
0r
0u
1t
1;
0<
09
#1000000
0!
0-!
#1010000
1!
1-!
0M!
1<!
0Q!
1L!
0J!
1F!
09!
0R!
0S!
0c
0}!
1z!
0U
0~!
1!"
1{!
1r
1u
0t
0;
1<
19
#1020000
0!
0-!
#1030000
1!
1-!
1M!
0K!
1G!
0<!
1Q!
0Z!
1U!
0L!
19!
1R!
0#"
1""
0^!
1X!
1d
0e
01"
1+"
0z!
1u!
0W
1V
1S!
1c
1/"
1y!
1v!
0u!
1U
0!"
0{!
1|!
1w!
1p
1s
0r
0u
0q
0y!
08
0<
09
1:
17
0|!
0s
1q
18
0:
#1040000
0!
0-!
#1050000
1!
1-!
0M!
1<!
0Q!
1L!
0F!
09!
0R!
0S!
0c
0v!
1u!
0U
1y!
1|!
1s
0q
08
1:
#1060000
0!
0-!
#1070000
1!
1-!
1M!
0G!
0<!
1Q!
0U!
0L!
19!
1R!
0""
0X!
0d
0+"
0)"
0u!
0p!
0V
1S!
1c
0,"
1r!
1p!
1U
0|!
0w!
1t!
1o
0p
0s
0s!
0y!
0:
07
16
1!"
0t!
0o
1u
1q
18
1<
06
1{!
1w!
1t!
1o
1p
1r
19
17
16
#1080000
0!
0-!
#1090000
1!
1-!
0M!
1<!
0Q!
1H!
1F!
09!
0R!
0S!
0c
0r!
0p!
0U
1s!
1y!
0!"
0u
0q
08
0<
0{!
0w!
0p
0r
09
07
#1100000
0!
0-!
#1110000
1!
1-!
1I!
1G!
0<!
1`!
1U!
1L!
0F!
19!
1""
1e!
1X!
1d
1f
0%"
17"
16"
1X
1V
1&"
1$"
1w
1|
1y
1x
1?
1@
1C
1>
#1120000
0!
0-!
#1130000
1!
1-!
1M!
0G!
1<!
1Q!
0U!
0L!
09!
1R!
0""
0X!
0d
1%"
07"
06"
1."
1)"
1x!
1p!
0V
1S!
0&"
0$"
0w
0|
0y
1c
0x
1,"
0x!
0?
1U
0@
0C
0>
0t!
0o
0y!
06
1q
18
#1140000
0!
0-!
#1150000
1!
1-!
0M!
0<!
0Q!
1L!
1J!
0H!
1F!
19!
0R!
0S!
0c
1x!
0U
1y!
0q
08
#1160000
0!
0-!
#1170000
1!
1-!
1M!
1K!
0I!
1G!
1<!
1Q!
1Z!
0`!
1U!
0L!
09!
1R!
1#"
1""
1^!
0e!
1X!
1d
0f
1e
0."
1("
1q!
1W
0X
1V
1S!
1c
0,"
0s!
0x!
1U
0y!
1{!
1w!
1t!
1o
1p
1r
1q
18
19
17
16
#1180000
0!
0-!
#1190000
1!
1-!
0M!
0<!
0Q!
1L!
0F!
19!
0R!
0S!
0c
1x!
1s!
0U
1~!
1t
1y!
1;
0{!
0w!
0t!
0o
0p
0r
0q
08
09
07
06
#1200000
1&
0!
1.!
0-!
#1210000
1!
1-!
1/!
1M!
0G!
1<!
17!
1`
1N!
0U!
1'"
1m!
0Z!
0C!
1=!
1R
0L!
09!
0>"
0o!
1k!
1j!
1i!
1h!
04!
01!
1h
1i
1j
1k
0v
0)!
0m
0""
0#"
04
0N
0=
12
11
10
1/
0X!
18"
14"
02"
0^!
1&"
0~!
1{!
1r
0t
1y
0e
0"!
1$!
1&!
0d
0)"
0("
0x!
0q!
0p!
0V
1K
1I
0G
0W
1@
0;
19
1*"
04"
0$!
1}
1D
0I
#1220000
0&
0!
0.!
0-!
0/!
#1230000
1!
1-!
0M!
0<!
0N!
1L!
0J!
1F!
19!
#1240000
0!
0-!
#1250000
1!
1-!
1M!
0K!
1G!
1<!
1N!
0L!
09!
#1260000
1+
1'
0!
1O!
1?!
0-!
1W!
1""
1X!
1d
1+"
1)"
1u!
1p!
1V
1,"
13"
1-"
0*"
0}
1~
1#!
1H
1E
0D
