final_project/simulation/qsim/final_project.msim.vcd
$comment
	File created using the following command:
		vcd file final_project.msim.vcd -direction
$end
$date
	Thu Jun 14 10:16:36 2018
$end
$version
	ModelSim Version 10.5b
$end
$timescale
	1ps
$end

$scope module fsm_vlg_vec_tst $end
$var reg 1 ! ck $end
$var reg 1 " ctrl $end
$var wire 1 # A $end
$var wire 1 $ B $end
$var wire 1 % C $end

$scope module i1 $end
$var wire 1 & gnd $end
$var wire 1 ' vcc $end
$var wire 1 ( unknown $end
$var tri1 1 ) devclrn $end
$var tri1 1 * devpor $end
$var tri1 1 + devoe $end
$var wire 1 , C~output_o $end
$var wire 1 - A~output_o $end
$var wire 1 . B~output_o $end
$var wire 1 / ck~input_o $end
$var wire 1 0 ctrl~input_o $end
$var wire 1 1 inst4|inst2~0_combout $end
$var wire 1 2 inst1~q $end
$var wire 1 3 inst2~0_combout $end
$var wire 1 4 inst2~q $end
$var wire 1 5 inst100|inst2~0_combout $end
$var wire 1 6 inst~q $end
$upscope $end
$upscope $end
$enddefinitions $end
#0
$dumpvars
0!
0"
0#
0$
0%
0&
1'
x(
1)
1*
1+
0,
0-
0.
0/
00
11
02
13
04
05
06
$end
#10000
1!
1/
14
12
1.
1-
1#
1$
15
#20000
0!
0/
#30000
1!
1/
16
1,
1%
03
01
#40000
0!
0/
#50000
1!
1/
04
02
0.
0-
0#
0$
13
#60000
0!
0/
#70000
1!
1/
14
1-
1#
05
03
11
#80000
0!
0/
#90000
1!
1/
06
04
12
1.
0-
0,
0%
0#
1$
15
#100000
0!
0/
#110000
1!
1/
16
1,
1%
05
13
01
#120000
0!
0/
#130000
1!
1/
06
14
02
0.
1-
0,
0%
1#
0$
03
#140000
0!
0/
#150000
1!
1/
04
0-
0#
13
11
#160000
0!
0/
#170000
1!
1/
14
12
1.
1-
1#
1$
15
#180000
0!
0/
#190000
1!
1/
16
1,
1%
03
01
#200000
0!
0/
#210000
1!
1/
04
02
0.
0-
0#
0$
13
#220000
0!
0/
#230000
1!
1/
14
1-
1#
05
03
11
#240000
0!
0/
#250000
1!
1/
06
04
12
1.
0-
0,
0%
0#
1$
15
#260000
0!
0/
#270000
1!
1/
16
1,
1%
05
13
01
#280000
0!
0/
#290000
1!
1/
06
14
02
0.
1-
0,
0%
1#
0$
03
#300000
0!
0/
#310000
1!
1/
04
0-
0#
13
11
#320000
0!
0/
#330000
1!
1/
14
12
1.
1-
1#
1$
15
#340000
0!
0/
#350000
1!
1/
16
1,
1%
03
01
#360000
0!
0/
#370000
1!
1/
04
02
0.
0-
0#
0$
13
#380000
0!
0/
#390000
1!
1/
14
1-
1#
05
03
11
#400000
0!
0/
#410000
1!
1/
06
04
12
1.
0-
0,
0%
0#
1$
15
#420000
0!
0/
#430000
1!
1/
16
1,
1%
05
13
01
#440000
0!
0/
#450000
1!
1/
06
14
02
0.
1-
0,
0%
1#
0$
03
#460000
1"
0!
10
0/
15
11
#470000
1!
1/
16
04
12
1.
0-
1,
1%
0#
1$
05
#480000
0!
0/
#490000
1!
1/
06
0,
0%
15
13
01
#500000
0!
0/
#510000
1!
1/
16
14
02
0.
1-
1,
1%
1#
0$
03
#520000
0!
0/
#530000
1!
1/
04
0-
0#
13
11
#540000
0!
0/
#550000
1!
1/
14
12
1.
1-
1#
1$
05
#560000
0!
0/
#570000
1!
1/
06
0,
0%
03
01
#580000
0!
0/
#590000
1!
1/
04
02
0.
0-
0#
0$
13
#600000
0!
0/
#610000
1!
1/
14
1-
1#
15
03
11
#620000
0!
0/
#630000
1!
1/
16
04
12
1.
0-
1,
1%
0#
1$
05
#640000
0!
0/
#650000
1!
1/
06
0,
0%
15
13
01
#660000
0!
0/
#670000
1!
1/
16
14
02
0.
1-
1,
1%
1#
0$
03
#680000
0!
0/
#690000
1!
1/
04
0-
0#
13
11
#700000
0!
0/
#710000
1!
1/
14
12
1.
1-
1#
1$
05
#720000
0!
0/
#730000
1!
1/
06
0,
0%
03
01
#740000
0!
0/
#750000
1!
1/
04
02
0.
0-
0#
0$
13
#760000
0!
0/
#770000
1!
1/
14
1-
1#
15
03
11
#780000
0!
0/
#790000
1!
1/
16
04
12
1.
0-
1,
1%
0#
1$
05
#800000
0!
0/
#810000
1!
1/
06
0,
0%
15
13
01
#820000
0!
0/
#830000
1!
1/
16
14
02
0.
1-
1,
1%
1#
0$
03
#840000
0!
0/
#850000
1!
1/
04
0-
0#
13
11
#860000
0!
0/
#870000
1!
1/
14
12
1.
1-
1#
1$
05
#880000
0!
0/
#890000
1!
1/
06
0,
0%
03
01
#900000
0!
0/
#910000
1!
1/
04
02
0.
0-
0#
0$
13
#920000
0!
0/
#930000
1!
1/
14
1-
1#
15
03
11
#940000
0!
0/
#950000
1!
1/
16
04
12
1.
0-
1,
1%
0#
1$
05
#960000
0!
0/
#970000
1!
1/
06
0,
0%
15
13
01
#980000
0!
0/
#990000
1!
1/
16
14
02
0.
1-
1,
1%
1#
0$
03
