final_project/simulation/qsim/final_project.msim.vcd
$comment
	File created using the following command:
		vcd file final_project.msim.vcd -direction
$end
$date
	Fri Jun 22 19:21:10 2018
$end
$version
	ModelSim Version 10.5b
$end
$timescale
	1ps
$end

$scope module final_project_vlg_vec_tst $end
$var reg 1 ! ck $end
$var reg 1 " clr $end
$var reg 1 # ctrl $end
$var reg 1 $ KEY1 $end
$var reg 1 % KEY2 $end
$var reg 1 & stop $end
$var reg 1 ' SW2 $end
$var reg 1 ( SW3 $end
$var reg 1 ) SW4 $end
$var reg 1 * SW5 $end
$var reg 1 + SW6 $end
$var reg 1 , SW7 $end
$var reg 1 - SW8 $end
$var reg 1 . SW9 $end
$var wire 1 / L3bit_L0 [6] $end
$var wire 1 0 L3bit_L0 [5] $end
$var wire 1 1 L3bit_L0 [4] $end
$var wire 1 2 L3bit_L0 [3] $end
$var wire 1 3 L3bit_L0 [2] $end
$var wire 1 4 L3bit_L0 [1] $end
$var wire 1 5 L3bit_L0 [0] $end
$var wire 1 6 L4bit_L0 [6] $end
$var wire 1 7 L4bit_L0 [5] $end
$var wire 1 8 L4bit_L0 [4] $end
$var wire 1 9 L4bit_L0 [3] $end
$var wire 1 : L4bit_L0 [2] $end
$var wire 1 ; L4bit_L0 [1] $end
$var wire 1 < L4bit_L0 [0] $end
$var wire 1 = L4bit_L1 [6] $end
$var wire 1 > L4bit_L1 [5] $end
$var wire 1 ? L4bit_L1 [4] $end
$var wire 1 @ L4bit_L1 [3] $end
$var wire 1 A L4bit_L1 [2] $end
$var wire 1 B L4bit_L1 [1] $end
$var wire 1 C L4bit_L1 [0] $end
$var wire 1 D L5bit_L0 [6] $end
$var wire 1 E L5bit_L0 [5] $end
$var wire 1 F L5bit_L0 [4] $end
$var wire 1 G L5bit_L0 [3] $end
$var wire 1 H L5bit_L0 [2] $end
$var wire 1 I L5bit_L0 [1] $end
$var wire 1 J L5bit_L0 [0] $end
$var wire 1 K L5bit_L1 [6] $end
$var wire 1 L L5bit_L1 [5] $end
$var wire 1 M L5bit_L1 [4] $end
$var wire 1 N L5bit_L1 [3] $end
$var wire 1 O L5bit_L1 [2] $end
$var wire 1 P L5bit_L1 [1] $end
$var wire 1 Q L5bit_L1 [0] $end
$var wire 1 R LEDG0 $end
$var wire 1 S LEDG1 $end
$var wire 1 T LEDG2 $end
$var wire 1 U LEDR0 $end
$var wire 1 V LEDR1 $end
$var wire 1 W LEDR2 $end
$var wire 1 X LEDR3 $end
$var wire 1 Y LEDR4 $end

$scope module i1 $end
$var wire 1 Z gnd $end
$var wire 1 [ vcc $end
$var wire 1 \ unknown $end
$var tri1 1 ] devclrn $end
$var tri1 1 ^ devpor $end
$var tri1 1 _ devoe $end
$var wire 1 ` LEDG0~output_o $end
$var wire 1 a LEDG1~output_o $end
$var wire 1 b LEDG2~output_o $end
$var wire 1 c LEDR0~output_o $end
$var wire 1 d LEDR1~output_o $end
$var wire 1 e LEDR2~output_o $end
$var wire 1 f LEDR3~output_o $end
$var wire 1 g LEDR4~output_o $end
$var wire 1 h L3bit_L0[6]~output_o $end
$var wire 1 i L3bit_L0[5]~output_o $end
$var wire 1 j L3bit_L0[4]~output_o $end
$var wire 1 k L3bit_L0[3]~output_o $end
$var wire 1 l L3bit_L0[2]~output_o $end
$var wire 1 m L3bit_L0[1]~output_o $end
$var wire 1 n L3bit_L0[0]~output_o $end
$var wire 1 o L4bit_L0[6]~output_o $end
$var wire 1 p L4bit_L0[5]~output_o $end
$var wire 1 q L4bit_L0[4]~output_o $end
$var wire 1 r L4bit_L0[3]~output_o $end
$var wire 1 s L4bit_L0[2]~output_o $end
$var wire 1 t L4bit_L0[1]~output_o $end
$var wire 1 u L4bit_L0[0]~output_o $end
$var wire 1 v L4bit_L1[6]~output_o $end
$var wire 1 w L4bit_L1[5]~output_o $end
$var wire 1 x L4bit_L1[4]~output_o $end
$var wire 1 y L4bit_L1[3]~output_o $end
$var wire 1 z L4bit_L1[2]~output_o $end
$var wire 1 { L4bit_L1[1]~output_o $end
$var wire 1 | L4bit_L1[0]~output_o $end
$var wire 1 } L5bit_L0[6]~output_o $end
$var wire 1 ~ L5bit_L0[5]~output_o $end
$var wire 1 !! L5bit_L0[4]~output_o $end
$var wire 1 "! L5bit_L0[3]~output_o $end
$var wire 1 #! L5bit_L0[2]~output_o $end
$var wire 1 $! L5bit_L0[1]~output_o $end
$var wire 1 %! L5bit_L0[0]~output_o $end
$var wire 1 &! L5bit_L1[6]~output_o $end
$var wire 1 '! L5bit_L1[5]~output_o $end
$var wire 1 (! L5bit_L1[4]~output_o $end
$var wire 1 )! L5bit_L1[3]~output_o $end
$var wire 1 *! L5bit_L1[2]~output_o $end
$var wire 1 +! L5bit_L1[1]~output_o $end
$var wire 1 ,! L5bit_L1[0]~output_o $end
$var wire 1 -! ck~input_o $end
$var wire 1 .! stop~input_o $end
$var wire 1 /! inst4~combout $end
$var wire 1 0! ctrl~input_o $end
$var wire 1 1! inst2|inst4|inst2~0_combout $end
$var wire 1 2! KEY2~input_o $end
$var wire 1 3! inst2|inst1~q $end
$var wire 1 4! inst2|inst5|inst2~0_combout $end
$var wire 1 5! inst2|inst2~q $end
$var wire 1 6! inst2|inst3|inst2~0_combout $end
$var wire 1 7! inst2|inst~q $end
$var wire 1 8! SW3~input_o $end
$var wire 1 9! inst34|inst11~2_combout $end
$var wire 1 :! KEY1~input_o $end
$var wire 1 ;! SW2~input_o $end
$var wire 1 <! inst3|inst~1_combout $end
$var wire 1 =! SW4~input_o $end
$var wire 1 >! inst30|inst~0_combout $end
$var wire 1 ?! inst30|inst~1_combout $end
$var wire 1 @! inst30|inst~2_combout $end
$var wire 1 A! clr~input_o $end
$var wire 1 B! inst7~0_combout $end
$var wire 1 C! inst38|inst~q $end
$var wire 1 D! inst37|inst13~0_combout $end
$var wire 1 E! inst37|inst1~q $end
$var wire 1 F! inst37|inst20~0_combout $end
$var wire 1 G! inst37|inst3~q $end
$var wire 1 H! inst37|inst16~0_combout $end
$var wire 1 I! inst37|inst2~q $end
$var wire 1 J! inst37|inst9~0_combout $end
$var wire 1 K! inst37|inst~q $end
$var wire 1 L! inst30|inst~3_combout $end
$var wire 1 M! SW6~input_o $end
$var wire 1 N! inst30|inst~4_combout $end
$var wire 1 O! inst30|inst~5_combout $end
$var wire 1 P! inst30|inst~6_combout $end
$var wire 1 Q! inst30|inst~7_combout $end
$var wire 1 R! inst38|inst1~q $end
$var wire 1 S! inst31|inst~2_combout $end
$var wire 1 T! SW7~input_o $end
$var wire 1 U! inst39|inst4~0_combout $end
$var wire 1 V! inst31|inst~3_combout $end
$var wire 1 W! inst38|inst2~q $end
$var wire 1 X! inst32|inst~2_combout $end
$var wire 1 Y! SW8~input_o $end
$var wire 1 Z! inst39|inst6~0_combout $end
$var wire 1 [! inst39|inst9~0_combout $end
$var wire 1 \! inst32|inst~3_combout $end
$var wire 1 ]! inst38|inst3~q $end
$var wire 1 ^! inst33|inst~0_combout $end
$var wire 1 _! SW9~input_o $end
$var wire 1 `! SW5~input_o $end
$var wire 1 a! inst33|inst~1_combout $end
$var wire 1 b! inst33|inst~2_combout $end
$var wire 1 c! inst33|inst~3_combout $end
$var wire 1 d! inst39|inst16~0_combout $end
$var wire 1 e! inst34|inst11~combout $end
$var wire 1 f! inst|WideOr0~0_combout $end
$var wire 1 g! inst|WideOr1~0_combout $end
$var wire 1 h! inst|WideOr2~0_combout $end
$var wire 1 i! inst|WideOr3~0_combout $end
$var wire 1 j! inst|Decoder0~0_combout $end
$var wire 1 k! inst|L0[5]~0_combout $end
$var wire 1 l! inst|L0[6]~1_combout $end
$var wire 1 m! inst2|inst13~0_combout $end
$var wire 1 n! inst27|WideOr0~0_combout $end
$var wire 1 o! inst27|Decoder0~0_combout $end
$var wire 1 p! inst27|WideOr1~0_combout $end
$var wire 1 q! inst27|WideOr16~0_combout $end
$var wire 1 r! inst27|WideOr13~0_combout $end
$var wire 1 s! inst27|WideOr2~0_combout $end
$var wire 1 t! inst27|WideOr3~0_combout $end
$var wire 1 u! inst27|WideOr14~0_combout $end
$var wire 1 v! inst27|WideOr15~0_combout $end
$var wire 1 w! inst27|WideOr15~1_combout $end
$var wire 1 x! inst27|WideOr4~0_combout $end
$var wire 1 y! inst27|WideOr16~combout $end
$var wire 1 z! inst27|data0.0010~2_combout $end
$var wire 1 {! inst27|WideOr5~0_combout $end
$var wire 1 |! inst27|L0[5]~0_combout $end
$var wire 1 }! inst27|L0[6]~1_combout $end
$var wire 1 ~! inst31|inst~4_combout $end
$var wire 1 !" inst32|inst~4_combout $end
$var wire 1 "" inst27|data1.0001~0_combout $end
$var wire 1 #" inst27|WideOr19~combout $end
$var wire 1 $" inst27|data1.0000~0_combout $end
$var wire 1 %" inst34|inst11~3_combout $end
$var wire 1 &" inst23|WideOr7~0_combout $end
$var wire 1 '" inst23|WideOr1~0_combout $end
$var wire 1 (" inst23|WideOr13~0_combout $end
$var wire 1 )" inst23|WideOr3~0_combout $end
$var wire 1 *" inst23|WideOr14~0_combout $end
$var wire 1 +" inst23|WideOr14~1_combout $end
$var wire 1 ," inst23|WideOr8~0_combout $end
$var wire 1 -" inst23|WideOr15~0_combout $end
$var wire 1 ." inst23|WideOr15~1_combout $end
$var wire 1 /" inst23|WideOr4~0_combout $end
$var wire 1 0" inst23|WideOr16~0_combout $end
$var wire 1 1" inst23|data0.0010~0_combout $end
$var wire 1 2" inst23|L0[5]~0_combout $end
$var wire 1 3" inst23|L0[6]~1_combout $end
$var wire 1 4" inst23|WideOr11~0_combout $end
$var wire 1 5" inst23|WideOr10~0_combout $end
$var wire 1 6" inst23|WideOr17~0_combout $end
$var wire 1 7" inst23|WideOr18~0_combout $end
$var wire 1 8" inst23|WideOr18~1_combout $end
$var wire 1 9" inst23|WideOr12~0_combout $end
$var wire 1 :" inst23|WideOr18~2_combout $end
$var wire 1 ;" inst23|WideOr19~combout $end
$var wire 1 <" inst23|WideOr20~combout $end
$var wire 1 =" inst23|data1.0010~2_combout $end
$var wire 1 >" inst23|data1.0001~2_combout $end
$upscope $end
$upscope $end
$enddefinitions $end
#0
$dumpvars
0!
1"
0#
0$
1%
1&
0'
0(
0)
0*
0+
0,
0-
0.
05
04
03
02
01
00
1/
0<
0;
0:
19
08
07
06
0C
0B
0A
1@
0?
0>
0=
0J
0I
0H
1G
0F
0E
0D
0Q
0P
0O
1N
0M
0L
0K
0R
0S
0T
0U
0V
0W
0X
0Y
0Z
1[
x\
1]
1^
1_
0`
0a
0b
0c
0d
0e
0f
0g
1h
0i
0j
0k
0l
0m
0n
0o
0p
0q
1r
0s
0t
0u
0v
0w
0x
1y
0z
0{
0|
0}
0~
0!!
1"!
0#!
0$!
0%!
0&!
0'!
0(!
1)!
0*!
0+!
0,!
0-!
1.!
0/!
00!
11!
12!
03!
14!
05!
06!
07!
08!
09!
0:!
0;!
0<!
0=!
0>!
0?!
0@!
1A!
0B!
0C!
1D!
0E!
1F!
0G!
0H!
0I!
0J!
0K!
0L!
0M!
0N!
0O!
0P!
0Q!
0R!
0S!
0T!
0U!
0V!
0W!
0X!
0Y!
0Z!
0[!
0\!
0]!
0^!
0_!
0`!
0a!
0b!
0c!
0d!
0e!
1f!
0g!
0h!
0i!
0j!
1k!
0l!
0m!
0n!
0o!
0p!
1q!
0r!
0s!
0t!
0u!
0v!
1w!
0x!
1y!
0z!
0{!
0|!
0}!
0~!
0!"
0""
1#"
1$"
0%"
0&"
0'"
0("
0)"
0*"
0+"
0,"
1-"
1."
0/"
10"
01"
02"
03"
04"
05"
06"
07"
08"
09"
0:"
1;"
1<"
0="
0>"
$end
#10000
1!
1-!
1/!
1G!
1E!
15!
13!
1a
1b
1^!
1S!
0k!
1?!
1T
1S
1J!
0D!
1m!
0f!
16!
0h
1v
1m
1~!
14
1=
0/
1c!
1V!
0$"
0y!
1r!
1o
0r
0y
1d
1f
0#"
15"
14"
1X
1V
0@
09
16
1$"
1""
1w
1|
1y
1x
1?
1@
1C
1>
#20000
0!
0-!
0/!
#30000
1!
1-!
1/!
1K!
0E!
17!
1`
1L!
0S!
1%"
1k!
0^!
0?!
19!
1R
0J!
1>"
0m!
1i!
1h!
1g!
1f!
04!
01!
1h
1i
1j
1k
0v
1,!
0m
0~!
0;"
1#"
04
1Q
0=
12
11
10
1/
0V!
1:"
16"
00"
1("
0c!
0""
1y!
0r!
0o
1r
0w
0|
0f
1}
0"!
1&!
1'!
0d
0x
1(!
05"
04"
1M
0?
0V
1L
1K
0G
1D
0X
0C
0>
19
06
1;"
0>"
0<"
0:"
0'!
0)!
0,!
0(!
0M
0Q
0N
0L
#40000
0!
0-!
0/!
#50000
1!
1-!
1/!
0K!
05!
03!
0a
0b
0%"
1@!
1^!
09!
0T
0S
1J!
1H!
0F!
1D!
1<"
1l!
14!
1n
1)!
0@!
1N
15
06"
10"
0("
1Q!
1c
0}
1"!
0&!
1p!
1n!
0K
1G
0D
1U
0Q!
0c
0q!
0p!
0n!
0U
1q!
#60000
0!
0-!
0L!
0/!
#70000
1!
1-!
1L!
1/!
1K!
1I!
0G!
1E!
15!
1b
1X!
0^!
1S!
0k!
1P!
1T
0J!
0l!
0i!
0g!
0f!
1c!
06!
04!
11!
1f
0h
0i
0k
0n
1m
1!"
1~!
1,"
1'"
1v!
1n!
14
05
02
00
0/
1X
1\!
0c!
1V!
1Q!
1c
1d
0f
1e
1*"
0,"
1&"
0v!
1o!
1W
0X
1V
1U
0*"
0q!
#80000
0!
0-!
0/!
#90000
1!
1-!
1/!
0K!
07!
05!
13!
1a
0b
0`
0L!
1k!
1?!
0P!
0R
0T
1S
1J!
0D!
1j!
0h!
1g!
16!
0\!
0V!
0Q!
0c
0d
0e
1i
0j
1l
0m
1@!
0'"
0&"
0o!
0n!
1q!
04
13
01
10
0W
0V
0U
1Q!
1c
1p!
1n!
1U
0q!
#100000
0!
0-!
0/!
#110000
1!
1-!
1/!
1K!
0E!
17!
1`
1L!
0S!
0X!
0?!
19!
1R
0J!
0j!
1h!
06!
14!
01!
1j
0l
0~!
0!"
03
11
#120000
0!
0-!
0@!
0/!
0Q!
0c
0p!
0n!
0U
1q!
#130000
1!
1-!
1@!
1/!
1Q!
1c
1p!
1n!
1U
0q!
0K!
07!
15!
03!
0a
1b
0`
0L!
09!
1P!
0@!
0R
1T
0S
1J!
0H!
1D!
1l!
1i!
0g!
04!
0i
1k
1n
0P!
15
12
00
0Q!
0c
0p!
0n!
0U
1q!
#140000
0!
0-!
0/!
#150000
1!
1-!
1/!
1K!
0I!
1E!
05!
0b
0T
0J!
0l!
0i!
0h!
1f!
14!
11!
1h
0j
0k
0n
05
02
01
1/
#160000
0!
0-!
0/!
#170000
1!
1-!
1/!
0K!
15!
13!
1a
1b
0k!
1S!
1?!
1T
1S
1J!
0D!
1m!
0f!
16!
0h
1v
1m
1~!
14
1=
0/
1V!
0$"
0y!
1r!
1o
0r
0y
1d
1)"
1'"
1s!
1n!
1V
0@
09
16
1*"
1z!
1u!
0r!
0o
1p
1s
1:
17
06
#180000
0!
0-!
0/!
#190000
1!
1-!
1/!
1K!
0E!
17!
1`
1L!
0S!
1%"
1k!
0?!
19!
1R
0J!
0<"
0z!
0m!
1i!
1h!
1g!
1f!
04!
01!
1h
1i
1j
1k
0v
0s
0)!
0m
0~!
04
0N
0:
0=
12
11
10
1/
0V!
16"
11"
00"
1+"
1$"
1y!
0u!
0p
1r
1y
1~
0"!
1#!
1&!
0d
0)"
0'"
0s!
0n!
0V
1K
1H
0G
1E
1@
19
07
0*"
01"
0+"
1("
1}
0~
0#!
0H
0E
1D
#200000
1#
0!
10!
0-!
06!
14!
11!
0/!
#210000
1!
1-!
1/!
0K!
07!
0`
0L!
0%"
0k!
1?!
09!
0R
1F!
1D!
1<"
1m!
0i!
0h!
0g!
0f!
04!
01!
0h
0i
0j
0k
1v
1)!
1m
14
1N
1=
02
01
00
0/
06"
10"
0("
0$"
0y!
1r!
1o
0r
0y
0}
1"!
0&!
0K
1G
0D
0@
09
16
#220000
0!
0-!
0/!
#230000
1!
1-!
1/!
1G!
1E!
05!
03!
0a
0b
1k!
1@!
0?!
0T
0S
1J!
0D!
0m!
1f!
14!
1h
0v
0m
0@!
04
0=
1/
1Q!
1$"
1y!
0r!
0o
1r
1y
1c
1p!
1n!
1U
1@
19
06
0Q!
0c
0q!
0p!
0n!
0U
1q!
#240000
0!
0-!
0/!
#250000
1!
1-!
1/!
1K!
0E!
15!
1b
1T
0J!
1l!
1i!
1h!
0f!
16!
04!
11!
0h
1j
1k
1n
15
12
11
0/
#260000
0!
0-!
0/!
#270000
1!
1-!
1/!
0K!
17!
05!
13!
1a
0b
1`
1L!
19!
1R
0T
1S
1J!
1H!
0F!
1D!
0l!
0i!
1g!
06!
1i
0k
0n
1@!
05
02
10
1Q!
1c
1p!
1n!
1U
0q!
#280000
0!
0-!
0L!
0@!
0/!
0Q!
0c
0p!
0n!
0U
1q!
#290000
1!
1-!
1L!
1@!
1/!
1Q!
1c
1p!
1n!
1U
0q!
1K!
1I!
0G!
1E!
07!
0`
1O!
0L!
1X!
1S!
1?!
09!
0R
0J!
1j!
0h!
16!
14!
01!
0j
1l
1!"
1~!
13
01
#300000
0!
0-!
0/!
#310000
1!
1-!
1/!
0K!
17!
15!
03!
0a
1b
1`
0O!
1L!
0k!
0?!
0@!
1R
1T
0S
1J!
0D!
0j!
1h!
0g!
04!
1\!
1V!
1d
1e
0i
1j
0l
1m
1P!
1'"
1&"
0p!
1o!
14
03
11
00
1W
1V
0Q!
0c
1q!
1v!
0U
1Q!
1c
0v!
0q!
1U
#320000
0!
0-!
0L!
0/!
0P!
0Q!
0c
1v!
1q!
0U
#330000
1!
1-!
1L!
1/!
1P!
1Q!
1c
0v!
0q!
1U
1K!
0E!
05!
0b
0S!
1k!
0P!
0T
0J!
1l!
1i!
1g!
1f!
0\!
0V!
0Q!
14!
11!
0c
0d
0e
1h
1i
1k
1n
0m
0~!
0'"
0&"
0o!
0n!
1q!
04
15
12
10
1/
0W
0V
0U
#340000
0!
0-!
0/!
#350000
1!
1-!
1/!
0K!
15!
13!
1a
1b
1%"
0X!
19!
1T
1S
1J!
0H!
1D!
0<"
0l!
1\!
06!
1e
0n
0)!
0!"
1/"
1'"
1x!
1n!
0N
05
1W
16"
00"
1("
0\!
0e
1}
0"!
1&!
0-"
1*"
0/"
0'"
0x!
0n!
1K
0G
1D
0W
13"
10"
0("
0}
1"!
1%!
0."
1-"
0*"
1J
1G
0D
00"
03"
1("
1}
0%!
0"!
1!!
1."
1F
0G
0J
1D
0!!
0F
#360000
0!
0-!
0L!
0/!
#370000
1!
1-!
1L!
1/!
1K!
0I!
1E!
07!
0`
1O!
0L!
1S!
0%"
0k!
1?!
09!
0R
0J!
1<"
1m!
0i!
0h!
0g!
0f!
04!
01!
0h
0i
0j
0k
1v
1)!
1m
1P!
1~!
14
1N
1=
02
01
00
0/
1V!
06"
10"
0("
0$"
0y!
1r!
1o
0r
0y
0}
1"!
0&!
1d
1)"
1'"
1s!
1n!
1V
0K
1G
0D
0@
09
16
1Q!
1c
1*"
1t!
0s!
1U
1z!
1u!
0r!
0o
1p
1s
0w!
1:
17
06
0z!
0s
1q
18
0:
#380000
0!
0-!
0/!
#390000
1!
1-!
1/!
0K!
05!
03!
0a
0b
0O!
1k!
1@!
0S!
0?!
0T
0S
1J!
0D!
0m!
1f!
0V!
0Q!
14!
0c
0d
1h
0v
0m
0P!
0~!
0@!
1w!
0)"
0'"
0t!
0n!
04
0=
1/
0V
0U
1Q!
1$"
1y!
0u!
0p
1r
1y
1c
0q
0*"
1p!
1n!
08
1U
1@
19
07
0Q!
0c
0q!
0p!
0n!
0U
1q!
#400000
0&
0#
0!
0.!
00!
0-!
0/!
11!
#410000
1!
1-!
1K!
0E!
0J!
#420000
1'
1)
0!
1=!
1;!
0-!
1[!
1N!
1>!
1<!
1O!
1?!
1P!
1@!
1Q!
1c
1p!
1n!
1U
0q!
#430000
1!
1-!
0K!
1C!
1L!
1F!
1D!
#440000
0!
0-!
#450000
1!
1-!
1G!
1E!
1R!
1S!
1J!
0D!
1~!
#460000
0'
0)
0!
0=!
0;!
0-!
0[!
0N!
0>!
0<!
0O!
0?!
0P!
0@!
0Q!
0c
0p!
0n!
0U
1q!
#470000
1!
1-!
1K!
0E!
1W!
0C!
0L!
1X!
0J!
1!"
#480000
1(
0!
18!
0-!
1U!
1>!
1?!
1@!
1Q!
1c
1p!
1n!
1U
0q!
#490000
1!
1-!
1]!
0K!
0R!
1^!
0S!
1J!
1H!
0F!
1D!
0~!
#500000
0!
0-!
#510000
1!
1-!
1K!
1I!
0G!
1E!
0W!
0X!
0J!
0!"
#520000
0(
0!
08!
0-!
0U!
0>!
0?!
0@!
0Q!
0c
0p!
0n!
0U
1q!
#530000
1!
1-!
0]!
0K!
0^!
1J!
0D!
#540000
1)
1(
0!
1=!
18!
0-!
1[!
1>!
1U!
1?!
1@!
1Q!
1c
1p!
1n!
1U
0q!
#550000
1!
1-!
1K!
0E!
0J!
#560000
0!
0-!
#570000
1!
1-!
0K!
1J!
0H!
1D!
#580000
1&
0)
0(
0!
1.!
0=!
08!
0-!
0[!
0>!
0U!
0?!
0@!
0Q!
0c
0p!
0n!
0U
1q!
#590000
1!
1-!
1/!
1K!
0I!
1E!
15!
13!
1a
1b
1O!
1S!
0k!
1?!
1T
1S
0J!
1m!
0f!
16!
0h
1v
1m
1P!
1~!
14
1=
0/
1V!
0$"
0y!
1r!
1o
0r
0y
1d
1)"
1'"
1s!
1n!
1V
0@
09
16
1Q!
1c
1*"
1t!
0s!
1U
1z!
1u!
0r!
0o
1p
1s
0w!
1:
17
06
0z!
0s
1q
18
0:
#600000
0&
0!
0.!
0-!
0/!
#610000
1!
1-!
0K!
0O!
1J!
0D!
0P!
0Q!
0c
0t!
1s!
0U
1w!
1z!
1s
0q
08
1:
#620000
0!
0-!
#630000
1!
1-!
1K!
0E!
1O!
0S!
0J!
1P!
0~!
0V!
0d
0)"
0'"
0s!
0n!
0V
1Q!
1c
0*"
1p!
1n!
1U
0z!
0u!
1r!
1o
0p
0s
0q!
0w!
0:
07
16
1}!
0r!
0o
1u
1q
18
1<
06
1y!
1u!
1r!
1o
1p
1r
19
17
16
#640000
0!
0-!
#650000
1!
1-!
0K!
0O!
1F!
1D!
0P!
0Q!
0c
0p!
0n!
0U
1q!
1w!
0}!
0u
0q
08
0<
0y!
0u!
0p
0r
09
07
#660000
0!
0-!
#670000
1!
1-!
1G!
1E!
1^!
1S!
1J!
0D!
1~!
1c!
1V!
1d
1f
0#"
15"
14"
1X
1V
1$"
1""
1w
1|
1y
1x
1?
1@
1C
1>
#680000
0!
0-!
#690000
1!
1-!
1K!
0E!
1O!
0S!
0J!
1P!
0~!
0V!
0d
1#"
05"
04"
1,"
1'"
1v!
1n!
0V
1Q!
0$"
0""
0w
0|
0y
1c
0x
1*"
0v!
0?
1U
0@
0C
0>
0r!
0o
0w!
06
1q
18
#700000
0!
0-!
#710000
1!
1-!
0K!
0O!
1J!
1H!
0F!
1D!
0P!
0Q!
0c
1v!
0U
1w!
0q
08
#720000
0!
0-!
#730000
1!
1-!
1K!
1I!
0G!
1E!
1O!
1X!
0^!
1S!
0J!
1P!
1!"
1~!
1\!
0c!
1V!
1d
0f
1e
0,"
1&"
1o!
1W
0X
1V
1Q!
1c
0*"
0q!
0v!
1U
0w!
1y!
1u!
1r!
1o
1p
1r
1q
18
19
17
16
#740000
0!
0-!
#750000
1!
1-!
0K!
0O!
1J!
0D!
0P!
0Q!
0c
1v!
1q!
0U
1|!
1t
1w!
1;
0y!
0u!
0r!
0o
0p
0r
0q
08
09
07
06
#760000
0!
0-!
#770000
1!
1-!
1K!
0E!
1O!
0S!
0J!
1P!
0~!
0V!
0d
1/"
0&"
1x!
0v!
0o!
0V
1Q!
1c
0-"
1*"
0w!
1{!
0x!
1U
1}!
1y!
0|!
0t
1r
1u
1q
18
1<
19
0;
1|!
0}!
0y!
0r
0u
1t
1;
0<
09
#780000
0!
0-!
#790000
1!
1-!
0K!
0O!
1J!
0H!
1D!
0P!
0Q!
0c
0{!
1x!
0U
0|!
1}!
1y!
1r
1u
0t
0;
1<
19
#800000
0!
0-!
#810000
1!
1-!
1K!
0I!
1E!
1O!
0X!
1S!
0J!
1P!
0!"
1~!
0\!
1V!
1d
0e
0/"
1)"
0x!
1s!
0W
1V
1Q!
1c
1-"
1w!
1t!
0s!
1U
0}!
0y!
1z!
1u!
1p
1s
0r
0u
0q
0w!
08
0<
09
1:
17
0z!
0s
1q
18
0:
#820000
0!
0-!
#830000
1!
1-!
0K!
0O!
1J!
0D!
0P!
0Q!
0c
0t!
1s!
0U
1w!
1z!
1s
0q
08
1:
#840000
0!
0-!
#850000
1!
1-!
1K!
0E!
1O!
0S!
0J!
1P!
0~!
0V!
0d
0)"
0'"
0s!
0n!
0V
1Q!
1c
0*"
1p!
1n!
1U
0z!
0u!
1r!
1o
0p
0s
0q!
0w!
0:
07
16
1}!
0r!
0o
1u
1q
18
1<
06
1y!
1u!
1r!
1o
1p
1r
19
17
16
#860000
0!
0-!
#870000
1!
1-!
0K!
0O!
1F!
1D!
0P!
0Q!
0c
0p!
0n!
0U
1q!
1w!
0}!
0u
0q
08
0<
0y!
0u!
0p
0r
09
07
#880000
0!
0-!
#890000
1!
1-!
1G!
1E!
1^!
1S!
1J!
0D!
1~!
1c!
1V!
1d
1f
0#"
15"
14"
1X
1V
1$"
1""
1w
1|
1y
1x
1?
1@
1C
1>
#900000
1&
0!
1.!
0-!
#910000
1!
1-!
1/!
1K!
0E!
17!
1`
1L!
0S!
1%"
1k!
0^!
0?!
19!
1R
0J!
1>"
0m!
1i!
1h!
1g!
1f!
04!
01!
1h
1i
1j
1k
0v
1,!
0m
0~!
0;"
1#"
04
1Q
0=
12
11
10
1/
0V!
1:"
16"
00"
1("
0c!
0""
1y!
0r!
0o
1r
0w
0|
0f
1}
0"!
1&!
1'!
0d
0x
1(!
05"
04"
1M
0?
0V
1L
1K
0G
1D
0X
0C
0>
19
06
1;"
0>"
0<"
0:"
0'!
0)!
0,!
0(!
0M
0Q
0N
0L
#920000
1+
1'
0&
0!
1M!
0.!
1;!
0-!
1U!
1<!
0/!
1~!
1V!
1d
1)"
1'"
1s!
1n!
1V
1*"
11"
1+"
0("
0}
1~
1#!
1H
1E
0D
#930000
1!
1-!
0K!
1C!
1J!
1H!
0F!
1D!
#940000
1,
1(
0+
0'
0!
1T!
18!
0M!
0;!
0-!
1Z!
0U!
1>!
0<!
1[!
0~!
0V!
0d
1!"
0)"
0'"
0s!
0n!
0V
1\!
1e
0*"
1/"
1'"
1x!
1n!
1W
01"
0+"
1("
1}
0~
0#!
0-"
1*"
0H
0E
1D
10"
13"
0("
0}
1%!
1"!
0."
1G
1J
0D
1!!
1F
#950000
1!
1-!
1K!
1I!
0G!
1E!
1R!
0C!
0J!
#960000
1-
1)
0,
0(
0!
1Y!
1=!
0T!
08!
0-!
1a!
0>!
0Z!
1b!
0[!
0!"
1c!
0\!
0e
1f
0/"
1,"
0x!
1v!
1X
0W
1-"
03"
00"
0"!
0%!
1."
0J
0G
0!!
0F
#970000
1!
1-!
0K!
1W!
0R!
1J!
0D!
#980000
1*
1.
0-
0)
0!
1`!
1_!
0Y!
0=!
0-!
1d!
0a!
0L!
17"
0b!
1e!
1g
19"
15"
1/"
0,"
1Y
0c!
0f
0-"
09"
14"
0/"
1&"
0v!
0n!
0X
1="
1:"
06"
13"
10"
1"!
1%!
0&!
1'!
1*!
0."
0;"
1-"
0*"
1O
1L
0K
1J
1G
0="
1>"
1<"
16"
03"
12"
00"
0"!
1$!
0%!
1&!
1)!
1,!
0*!
1(!
1!!
1."
1F
1M
0O
1Q
1N
1K
0J
1I
0G
0!!
0F
#990000
1!
1-!
1L!
1]!
1K!
0E!
0W!
0J!
#1000000
1+
1'
1,
1(
1-
1)
0!
1M!
1T!
18!
1Y!
1=!
1;!
0-!
1Z!
1U!
1>!
1a!
1[!
1~!
1b!
1V!
1d
1!"
1,"
0&"
1s!
1n!
1V
1\!
1c!
1f
1e
18"
1*"
04"
0,"
0'"
1x!
0s!
1W
1X
02"
0$!
0*"
0I
0>"
0<"
06"
1("
1}
0&!
0)!
0,!
0Q
0N
0K
1D
#1010000
1!
1-!
0]!
0K!
1C!
1J!
0H!
1D!
#1020000
1&
0*
0.
0+
0'
0,
0(
0-
0)
0!
1.!
0`!
0_!
0M!
0T!
08!
0Y!
0=!
0;!
0-!
0d!
0Z!
0U!
0>!
0a!
07"
0[!
0~!
0b!
0e!
0V!
0d
0g
08"
0!"
14"
1)"
1'"
0x!
1s!
0Y
0V
0\!
0c!
0f
0e
1*"
05"
04"
0)"
0'"
0s!
0n!
0W
0X
1>"
1<"
16"
11"
1+"
0("
0}
1~
1#!
1&!
1)!
1,!
1;"
0*"
1Q
1N
1K
1H
1E
0D
0+"
0>"
0<"
0:"
01"
1("
1}
0#!
0'!
0)!
0,!
0~
0(!
0M
0E
0Q
0N
0L
0H
1D
#1030000
1!
1-!
1/!
1K!
0I!
1E!
05!
03!
1R!
0C!
0a
0b
1S!
0%"
1@!
09!
0T
0S
0J!
1<"
1l!
14!
1n
1)!
1~!
0@!
1N
15
06"
10"
0("
1Q!
1c
0}
1"!
0&!
1p!
1n!
0K
1G
0D
1U
0Q!
0c
0q!
0p!
0n!
0U
1q!
#1040000
0&
0!
0.!
0-!
0/!
#1050000
1!
1-!
0K!
1W!
0R!
1X!
1J!
0D!
1!"
#1060000
0!
0-!
0L!
#1070000
1!
1-!
1L!
1]!
1K!
0E!
0W!
1^!
0S!
0X!
0J!
0~!
0!"
#1080000
0!
0-!
