final_project/simulation/qsim/final_project.msim.vcd
$comment
	File created using the following command:
		vcd file final_project.msim.vcd -direction
$end
$date
	Mon Jun 25 09:21:56 2018
$end
$version
	ModelSim Version 10.5b
$end
$timescale
	1ps
$end

$scope module final_project_vlg_vec_tst $end
$var reg 1 ! ck $end
$var reg 1 " clr $end
$var reg 1 # ctrl $end
$var reg 1 $ KEY1 $end
$var reg 1 % KEY2 $end
$var reg 1 & stop $end
$var reg 1 ' SW2 $end
$var reg 1 ( SW3 $end
$var reg 1 ) SW4 $end
$var reg 1 * SW5 $end
$var reg 1 + SW6 $end
$var reg 1 , SW7 $end
$var reg 1 - SW8 $end
$var reg 1 . SW9 $end
$var wire 1 / L3bit_L0 [0] $end
$var wire 1 0 L3bit_L0 [1] $end
$var wire 1 1 L3bit_L0 [2] $end
$var wire 1 2 L3bit_L0 [3] $end
$var wire 1 3 L3bit_L0 [4] $end
$var wire 1 4 L3bit_L0 [5] $end
$var wire 1 5 L3bit_L0 [6] $end
$var wire 1 6 L4bit_L0 [0] $end
$var wire 1 7 L4bit_L0 [1] $end
$var wire 1 8 L4bit_L0 [2] $end
$var wire 1 9 L4bit_L0 [3] $end
$var wire 1 : L4bit_L0 [4] $end
$var wire 1 ; L4bit_L0 [5] $end
$var wire 1 < L4bit_L0 [6] $end
$var wire 1 = L4bit_L1 [0] $end
$var wire 1 > L4bit_L1 [1] $end
$var wire 1 ? L4bit_L1 [2] $end
$var wire 1 @ L4bit_L1 [3] $end
$var wire 1 A L4bit_L1 [4] $end
$var wire 1 B L4bit_L1 [5] $end
$var wire 1 C L4bit_L1 [6] $end
$var wire 1 D L5bit_L0 [0] $end
$var wire 1 E L5bit_L0 [1] $end
$var wire 1 F L5bit_L0 [2] $end
$var wire 1 G L5bit_L0 [3] $end
$var wire 1 H L5bit_L0 [4] $end
$var wire 1 I L5bit_L0 [5] $end
$var wire 1 J L5bit_L0 [6] $end
$var wire 1 K L5bit_L1 [0] $end
$var wire 1 L L5bit_L1 [1] $end
$var wire 1 M L5bit_L1 [2] $end
$var wire 1 N L5bit_L1 [3] $end
$var wire 1 O L5bit_L1 [4] $end
$var wire 1 P L5bit_L1 [5] $end
$var wire 1 Q L5bit_L1 [6] $end
$var wire 1 R LEDG0 $end
$var wire 1 S LEDG1 $end
$var wire 1 T LEDG2 $end
$var wire 1 U LEDR0 $end
$var wire 1 V LEDR1 $end
$var wire 1 W LEDR2 $end
$var wire 1 X LEDR3 $end
$var wire 1 Y LEDR4 $end

$scope module i1 $end
$var wire 1 Z gnd $end
$var wire 1 [ vcc $end
$var wire 1 \ unknown $end
$var tri1 1 ] devclrn $end
$var tri1 1 ^ devpor $end
$var tri1 1 _ devoe $end
$var wire 1 ` LEDG0~output_o $end
$var wire 1 a LEDG1~output_o $end
$var wire 1 b LEDG2~output_o $end
$var wire 1 c LEDR0~output_o $end
$var wire 1 d LEDR1~output_o $end
$var wire 1 e LEDR2~output_o $end
$var wire 1 f LEDR3~output_o $end
$var wire 1 g LEDR4~output_o $end
$var wire 1 h L3bit_L0[0]~output_o $end
$var wire 1 i L3bit_L0[1]~output_o $end
$var wire 1 j L3bit_L0[2]~output_o $end
$var wire 1 k L3bit_L0[3]~output_o $end
$var wire 1 l L3bit_L0[4]~output_o $end
$var wire 1 m L3bit_L0[5]~output_o $end
$var wire 1 n L3bit_L0[6]~output_o $end
$var wire 1 o L4bit_L0[0]~output_o $end
$var wire 1 p L4bit_L0[1]~output_o $end
$var wire 1 q L4bit_L0[2]~output_o $end
$var wire 1 r L4bit_L0[3]~output_o $end
$var wire 1 s L4bit_L0[4]~output_o $end
$var wire 1 t L4bit_L0[5]~output_o $end
$var wire 1 u L4bit_L0[6]~output_o $end
$var wire 1 v L4bit_L1[0]~output_o $end
$var wire 1 w L4bit_L1[1]~output_o $end
$var wire 1 x L4bit_L1[2]~output_o $end
$var wire 1 y L4bit_L1[3]~output_o $end
$var wire 1 z L4bit_L1[4]~output_o $end
$var wire 1 { L4bit_L1[5]~output_o $end
$var wire 1 | L4bit_L1[6]~output_o $end
$var wire 1 } L5bit_L0[0]~output_o $end
$var wire 1 ~ L5bit_L0[1]~output_o $end
$var wire 1 !! L5bit_L0[2]~output_o $end
$var wire 1 "! L5bit_L0[3]~output_o $end
$var wire 1 #! L5bit_L0[4]~output_o $end
$var wire 1 $! L5bit_L0[5]~output_o $end
$var wire 1 %! L5bit_L0[6]~output_o $end
$var wire 1 &! L5bit_L1[0]~output_o $end
$var wire 1 '! L5bit_L1[1]~output_o $end
$var wire 1 (! L5bit_L1[2]~output_o $end
$var wire 1 )! L5bit_L1[3]~output_o $end
$var wire 1 *! L5bit_L1[4]~output_o $end
$var wire 1 +! L5bit_L1[5]~output_o $end
$var wire 1 ,! L5bit_L1[6]~output_o $end
$var wire 1 -! ck~input_o $end
$var wire 1 .! stop~input_o $end
$var wire 1 /! inst4~combout $end
$var wire 1 0! ctrl~input_o $end
$var wire 1 1! inst2|inst4|inst2~0_combout $end
$var wire 1 2! KEY2~input_o $end
$var wire 1 3! inst2|inst1~q $end
$var wire 1 4! inst2|inst5|inst2~0_combout $end
$var wire 1 5! inst2|inst2~q $end
$var wire 1 6! inst2|inst3|inst2~0_combout $end
$var wire 1 7! inst2|inst~q $end
$var wire 1 8! SW3~input_o $end
$var wire 1 9! SW2~input_o $end
$var wire 1 :! SW4~input_o $end
$var wire 1 ;! inst30|inst~0_combout $end
$var wire 1 <! inst30|inst~1_combout $end
$var wire 1 =! inst30|inst~2_combout $end
$var wire 1 >! inst11~0_combout $end
$var wire 1 ?! clr~input_o $end
$var wire 1 @! inst7~1_combout $end
$var wire 1 A! inst11~q $end
$var wire 1 B! KEY1~input_o $end
$var wire 1 C! inst3|inst~1_combout $end
$var wire 1 D! inst30|inst~3_combout $end
$var wire 1 E! inst30|inst~4_combout $end
$var wire 1 F! inst37|inst13~0_combout $end
$var wire 1 G! inst37|inst1~q $end
$var wire 1 H! inst37|inst20~0_combout $end
$var wire 1 I! inst37|inst3~q $end
$var wire 1 J! inst37|inst2~0_combout $end
$var wire 1 K! inst37|inst2~q $end
$var wire 1 L! inst37|inst9~0_combout $end
$var wire 1 M! inst37|inst~q $end
$var wire 1 N! SW6~input_o $end
$var wire 1 O! inst30|inst~5_combout $end
$var wire 1 P! inst30|inst~6_combout $end
$var wire 1 Q! inst38|inst~q $end
$var wire 1 R! inst30|inst~7_combout $end
$var wire 1 S! inst7~0_combout $end
$var wire 1 T! inst30|inst~8_combout $end
$var wire 1 U! inst|Decoder0~0_combout $end
$var wire 1 V! inst31|inst~0_combout $end
$var wire 1 W! inst31|inst~1_combout $end
$var wire 1 X! inst38|inst1~q $end
$var wire 1 Y! inst31|inst~2_combout $end
$var wire 1 Z! inst34|inst11~4_combout $end
$var wire 1 [! SW7~input_o $end
$var wire 1 \! inst39|inst4~0_combout $end
$var wire 1 ]! inst31|inst~3_combout $end
$var wire 1 ^! inst38|inst2~q $end
$var wire 1 _! inst32|inst~0_combout $end
$var wire 1 `! SW8~input_o $end
$var wire 1 a! inst39|inst6~0_combout $end
$var wire 1 b! inst39|inst9~0_combout $end
$var wire 1 c! inst32|inst~1_combout $end
$var wire 1 d! inst32|inst~2_combout $end
$var wire 1 e! inst38|inst3~q $end
$var wire 1 f! SW5~input_o $end
$var wire 1 g! SW9~input_o $end
$var wire 1 h! inst33|inst~0_combout $end
$var wire 1 i! inst33|inst~1_combout $end
$var wire 1 j! inst33|inst~2_combout $end
$var wire 1 k! inst33|inst~3_combout $end
$var wire 1 l! inst39|inst16~0_combout $end
$var wire 1 m! inst39|inst16~1_combout $end
$var wire 1 n! inst34|inst11~combout $end
$var wire 1 o! inst|WideOr0~0_combout $end
$var wire 1 p! inst|WideOr1~0_combout $end
$var wire 1 q! inst|WideOr2~0_combout $end
$var wire 1 r! inst|WideOr3~0_combout $end
$var wire 1 s! inst|Decoder0~1_combout $end
$var wire 1 t! inst|L0[5]~0_combout $end
$var wire 1 u! inst|L0[6]~1_combout $end
$var wire 1 v! inst2|inst13~0_combout $end
$var wire 1 w! inst27|WideOr0~0_combout $end
$var wire 1 x! inst27|Decoder0~0_combout $end
$var wire 1 y! inst27|WideOr1~0_combout $end
$var wire 1 z! inst27|WideOr16~0_combout $end
$var wire 1 {! inst27|WideOr13~0_combout $end
$var wire 1 |! inst27|WideOr2~0_combout $end
$var wire 1 }! inst27|WideOr3~0_combout $end
$var wire 1 ~! inst27|WideOr14~0_combout $end
$var wire 1 !" inst27|WideOr15~0_combout $end
$var wire 1 "" inst27|WideOr15~1_combout $end
$var wire 1 #" inst27|WideOr4~0_combout $end
$var wire 1 $" inst27|WideOr16~combout $end
$var wire 1 %" inst27|data0.0010~2_combout $end
$var wire 1 &" inst27|WideOr5~0_combout $end
$var wire 1 '" inst27|L0[5]~0_combout $end
$var wire 1 (" inst27|L0[6]~1_combout $end
$var wire 1 )" inst27|data1.0001~0_combout $end
$var wire 1 *" inst27|WideOr19~combout $end
$var wire 1 +" inst27|data1.0000~0_combout $end
$var wire 1 ," inst23|WideOr7~0_combout $end
$var wire 1 -" inst23|WideOr1~0_combout $end
$var wire 1 ." inst23|WideOr13~0_combout $end
$var wire 1 /" inst23|WideOr3~0_combout $end
$var wire 1 0" inst23|WideOr14~0_combout $end
$var wire 1 1" inst23|WideOr14~1_combout $end
$var wire 1 2" inst23|WideOr8~0_combout $end
$var wire 1 3" inst23|WideOr15~0_combout $end
$var wire 1 4" inst23|WideOr15~1_combout $end
$var wire 1 5" inst23|WideOr4~0_combout $end
$var wire 1 6" inst23|WideOr16~0_combout $end
$var wire 1 7" inst23|data0.0010~0_combout $end
$var wire 1 8" inst23|L0[5]~0_combout $end
$var wire 1 9" inst23|L0[6]~1_combout $end
$var wire 1 :" inst23|WideOr11~0_combout $end
$var wire 1 ;" inst23|WideOr10~0_combout $end
$var wire 1 <" inst23|WideOr17~0_combout $end
$var wire 1 =" inst23|WideOr18~0_combout $end
$var wire 1 >" inst23|WideOr18~1_combout $end
$var wire 1 ?" inst23|WideOr12~0_combout $end
$var wire 1 @" inst23|WideOr18~2_combout $end
$var wire 1 A" inst23|WideOr19~combout $end
$var wire 1 B" inst23|WideOr20~combout $end
$var wire 1 C" inst23|data1.0010~2_combout $end
$var wire 1 D" inst23|data1.0001~2_combout $end
$upscope $end
$upscope $end
$enddefinitions $end
#0
$dumpvars
0!
1"
0#
1$
1%
1&
0'
0(
0)
0*
0+
0,
0-
0.
05
04
03
02
01
00
1/
0<
0;
0:
19
08
07
06
0C
0B
0A
1@
0?
0>
0=
0J
0I
0H
1G
0F
0E
0D
0Q
0P
0O
1N
0M
0L
0K
0R
0S
0T
0U
0V
0W
0X
0Y
0Z
1[
x\
1]
1^
1_
0`
0a
0b
0c
0d
0e
0f
0g
1h
0i
0j
0k
0l
0m
0n
0o
0p
0q
1r
0s
0t
0u
0v
0w
0x
1y
0z
0{
0|
0}
0~
0!!
1"!
0#!
0$!
0%!
0&!
0'!
0(!
1)!
0*!
0+!
0,!
0-!
1.!
0/!
00!
11!
12!
03!
14!
05!
06!
07!
08!
09!
0:!
0;!
0<!
0=!
1>!
1?!
0@!
0A!
1B!
xC!
0D!
0E!
1F!
0G!
1H!
0I!
0J!
0K!
0L!
0M!
0N!
0O!
0P!
0Q!
0R!
0S!
0T!
0U!
0V!
0W!
0X!
0Y!
0Z!
0[!
0\!
0]!
0^!
0_!
0`!
0a!
0b!
0c!
0d!
0e!
0f!
0g!
0h!
0i!
0j!
0k!
0l!
0m!
0n!
1o!
0p!
0q!
0r!
0s!
1t!
0u!
0v!
0w!
0x!
0y!
1z!
0{!
0|!
0}!
0~!
0!"
1""
0#"
1$"
0%"
0&"
0'"
0("
0)"
1*"
1+"
0,"
0-"
0."
0/"
00"
01"
02"
13"
14"
05"
16"
07"
08"
09"
0:"
0;"
0<"
0="
0>"
0?"
0@"
1A"
1B"
0C"
0D"
$end
#10000
1!
1-!
1/!
1I!
1G!
1A!
15!
13!
1a
1b
1j!
1V!
xD!
0t!
1U!
1T
1S
1L!
0F!
0>!
1v!
0o!
16!
0h
1v
1m
1W!
14
1=
0/
1k!
0+"
0$"
1{!
1o
0r
0y
1f
12"
1-"
1!"
1w!
1X
0@
09
16
1]!
1d
10"
1;"
1:"
02"
0-"
0*"
0!"
0w!
1V
0{!
1+"
1)"
1w
1|
1y
0o
1x
00"
1?
06
1@
1C
1>
1{!
1o
16
#20000
0!
0-!
0/!
#30000
1!
1-!
1/!
1M!
0G!
0A!
17!
1`
1R!
0V!
1D!
1t!
0j!
1Z!
0U!
1R
0L!
1>!
1D"
0v!
1r!
1q!
1p!
1o!
04!
01!
1h
1i
1j
1k
0v
1,!
0m
0W!
0A"
1*"
04
1Q
0=
12
11
10
1/
0k!
1@"
1<"
06"
1."
0)"
1$"
0{!
0o
1r
0w
0|
1}
0"!
1&!
1'!
0f
0x
1(!
0;"
0:"
1/"
1-"
1|!
1w!
1M
0?
0X
1L
1K
0G
1D
0C
0>
19
06
0]!
0d
1A"
10"
0/"
0-"
0|!
0w!
0V
0D"
0B"
0@"
17"
11"
0."
0}
1~
1#!
0'!
0)!
0,!
0(!
00"
0M
0Q
0N
0L
1H
1E
0D
01"
07"
1."
1}
0#!
0~
0E
0H
1D
#40000
0!
0-!
0/!
#50000
1!
1-!
1/!
0M!
1A!
05!
03!
0a
0b
0Z!
1j!
0T
0S
1L!
1J!
0H!
1F!
0>!
1B"
1u!
14!
1n
1)!
1N
15
0<"
16"
0."
0}
1"!
0&!
0K
1G
0D
#60000
0!
0-!
0/!
#70000
1!
1-!
1/!
1M!
1K!
0I!
1G!
0A!
15!
1b
1_!
0j!
1V!
0t!
1S!
1T
0L!
1>!
0u!
0r!
0p!
0o!
1k!
06!
04!
11!
1f
0h
0i
0k
0n
1m
1c!
1Y!
12"
1-"
1!"
1w!
14
05
02
00
0/
1X
0k!
1T!
1c
0f
10"
02"
0-"
0!"
1y!
0X
1U
1d!
1]!
1d
1e
00"
0z!
1-"
1,"
0y!
1x!
1W
1V
#80000
0!
0-!
0/!
#90000
1!
1-!
1/!
0M!
1A!
07!
05!
13!
1a
0b
0`
0R!
xD!
1t!
0Y!
1U!
0x!
0V!
0S!
0R
0T
1S
1L!
0F!
0>!
1s!
0q!
1p!
16!
0d!
0e
1i
0j
1l
0m
xE!
xW!
1z!
1/"
0,"
1}!
04
13
01
10
0W
0T!
0]!
0d
0c
xP!
10"
0}!
0w!
0/"
0-"
0U
0V
x]!
xd
00"
x/"
x-"
x|!
xw!
xV
xT!
xc
x3"
x0"
x}!
xy!
xU
xz!
#100000
0!
0-!
0/!
#110000
1!
1-!
1/!
1M!
0G!
0A!
17!
1`
1R!
1D!
0_!
0U!
1R
0L!
1>!
0s!
1q!
06!
14!
01!
1j
0l
0E!
0c!
0W!
03
11
0P!
0]!
0d
0/"
0-"
0}!
0|!
0V
0T!
0c
13"
00"
0y!
0w!
0U
1z!
#120000
0!
0-!
0/!
#130000
1!
1-!
1/!
0M!
1A!
07!
15!
03!
0a
1b
0`
0R!
0D!
1S!
0R
1T
0S
1L!
0J!
1F!
0>!
1u!
1r!
0p!
04!
0i
1k
1n
15
12
00
#140000
0!
0-!
0/!
#150000
1!
1-!
1/!
1M!
0K!
1G!
0A!
05!
0b
1O!
0S!
0T
0L!
1>!
0u!
0r!
0q!
1o!
14!
11!
1h
0j
0k
0n
05
02
01
1/
#160000
0!
0-!
0/!
#170000
1!
1-!
1/!
0M!
1A!
15!
13!
1a
1b
0O!
xD!
0t!
1V!
1P!
1U!
1T
1S
1L!
0F!
0>!
1v!
0o!
16!
0h
1v
1m
0P!
1W!
14
1=
0/
1T!
0+"
0$"
1{!
1o
0r
0y
1c
1y!
1w!
1U
0@
09
16
0T!
1]!
1d
0c
0z!
0""
1|!
0y!
1/"
1-"
0U
1V
1("
0{!
0o
1u
1q
1""
1z!
10"
18
1<
06
1$"
1~!
1{!
1%"
0("
0u
1s
1o
1p
1r
0q
08
19
17
16
1:
0<
0$"
0{!
0o
0r
09
06
#180000
0!
0-!
0/!
#190000
1!
1-!
1/!
1M!
0G!
0A!
17!
1`
1R!
0V!
1D!
1t!
1Z!
0U!
1R
0L!
1>!
0B"
0%"
0v!
1r!
1q!
1p!
1o!
04!
01!
1h
1i
1j
1k
0v
0s
0)!
0m
0W!
04
0N
0:
0=
12
11
10
1/
1<"
17"
06"
11"
1+"
1$"
0~!
0p
1r
1y
1~
0"!
1#!
1&!
1K
1H
0G
1E
1@
19
07
0]!
0d
0/"
0-"
0|!
0w!
0V
00"
07"
01"
1."
1}
0~
0#!
0H
0E
1D
#200000
1#
0!
10!
0-!
06!
14!
11!
0/!
#210000
1!
1-!
1/!
0M!
1A!
07!
0`
0R!
xD!
0t!
0Z!
1U!
0R
1H!
1F!
0>!
1B"
1v!
0r!
0q!
0p!
0o!
04!
01!
0h
0i
0j
0k
1v
1)!
1m
14
1N
1=
02
01
00
0/
0<"
16"
0."
0+"
0$"
1{!
1o
0r
0y
0}
1"!
0&!
0K
1G
0D
0@
09
16
#220000
0!
0-!
0/!
#230000
1!
1-!
1/!
1I!
1G!
0A!
05!
03!
0a
0b
0D!
1t!
xW!
0U!
0T
0S
1L!
0F!
1>!
0v!
1o!
14!
1h
0v
0m
0W!
04
0=
1/
x]!
1+"
1$"
0{!
0o
1r
1y
xd
x/"
x-"
x|!
xw!
xV
1@
19
06
0]!
0d
x3"
x0"
0/"
0-"
0|!
0w!
0V
13"
00"
#240000
0!
0-!
0/!
#250000
1!
1-!
1/!
1M!
0G!
1A!
15!
1b
1O!
1S!
1T
0L!
0>!
1u!
1r!
1q!
0o!
16!
04!
11!
0h
1j
1k
1n
15
12
11
0/
#260000
0!
0-!
0/!
#270000
1!
1-!
1/!
0M!
0A!
17!
05!
13!
1a
0b
1`
0O!
1D!
0S!
1E!
1R
0T
1S
1L!
1J!
0H!
1F!
1>!
0u!
0r!
1p!
06!
1i
0k
0n
1P!
0E!
05
02
10
0P!
1T!
1c
1y!
1w!
1U
0T!
0c
0z!
0y!
0w!
0U
1z!
#280000
0!
0-!
0/!
#290000
1!
1-!
1/!
1M!
1K!
0I!
1G!
1A!
07!
0`
1O!
1_!
xD!
1U!
0R
0L!
0>!
1s!
0q!
16!
14!
01!
0j
1l
1c!
xE!
xW!
13
01
xP!
x]!
xd
x/"
x-"
x|!
xw!
xV
xT!
xc
x3"
x0"
x}!
xy!
xU
xz!
#300000
0!
0-!
0/!
#310000
1!
1-!
1/!
0M!
0A!
17!
15!
03!
0a
1b
1`
0O!
1D!
0t!
0U!
xx!
0W!
1V!
1S!
0E!
1R
1T
0S
1L!
0F!
1>!
0s!
1q!
0p!
04!
1d!
1e
0i
1j
0l
1m
0P!
1Y!
x5"
0/"
1-"
x,"
x&"
x#"
x!"
0}!
0|!
0y!
1w!
14
03
11
00
1W
0]!
0d
15"
0,"
0!"
0x!
0V
0T!
1]!
1d
0c
03"
10"
1z!
0&"
0#"
1!"
05"
1,"
1x!
0U
1V
13"
00"
#320000
0!
0-!
0/!
#330000
1!
1-!
1/!
1M!
0G!
1A!
05!
0b
1R!
0Y!
0V!
0x!
1t!
0S!
0T
0L!
0>!
1u!
1r!
1p!
1o!
0d!
14!
11!
0e
1h
1i
1k
1n
0m
1/"
0,"
0!"
1|!
04
15
12
10
1/
0W
0]!
0d
10"
0/"
0-"
0|!
0w!
0V
00"
#340000
0!
0-!
0/!
#350000
1!
1-!
1/!
0M!
0A!
15!
13!
1a
1b
0R!
1Z!
0_!
1T
1S
1L!
0J!
1F!
1>!
0B"
0u!
1d!
06!
1e
0n
0)!
0c!
15"
1-"
1#"
1w!
0N
05
1W
1<"
06"
1."
1}
0"!
1&!
03"
10"
1K
0G
1D
0d!
19"
16"
0."
0}
1"!
1%!
0e
04"
05"
0-"
0#"
0w!
0W
1J
1G
0D
1!!
13"
00"
1F
09"
06"
1."
1}
0"!
0%!
14"
0J
0G
1D
0!!
0F
#360000
0!
0-!
0/!
#370000
1!
1-!
1/!
1M!
0K!
1G!
1A!
07!
0`
1O!
1V!
xD!
0t!
0Z!
1U!
0R
0L!
0>!
1B"
1v!
0r!
0q!
0p!
0o!
04!
01!
0h
0i
0j
0k
1v
1)!
1m
1P!
1W!
14
1N
1=
02
01
00
0/
0<"
16"
0."
0+"
0$"
1{!
1o
0r
0y
0}
1"!
0&!
0K
1G
0D
0@
09
16
1T!
1]!
1d
1c
1}!
1w!
1/"
1-"
1U
1V
0""
10"
1~!
0{!
0o
1p
1q
18
17
06
#380000
0!
0-!
0/!
#390000
1!
1-!
1/!
0M!
0A!
05!
03!
0a
0b
0O!
0D!
1t!
0V!
0P!
0U!
0T
0S
1L!
0F!
1>!
0v!
1o!
14!
1h
0v
0m
0W!
1""
04
0=
1/
0T!
1+"
1$"
0~!
0p
1r
1y
0c
0q
0}!
1|!
08
0U
1@
19
07
0]!
0d
0/"
0-"
0|!
0w!
0V
00"
#400000
0&
0#
0!
0.!
00!
0-!
0/!
11!
#410000
1!
1-!
1M!
0G!
1A!
1O!
0L!
0>!
#420000
0!
0-!
#430000
1!
1-!
0M!
0A!
0O!
1H!
1F!
1>!
#440000
0!
0-!
#450000
1!
1-!
1I!
1G!
1A!
1L!
0F!
0>!
#460000
0!
0-!
#470000
1!
1-!
1M!
0G!
0A!
1O!
0L!
1>!
#480000
1'
0!
19!
0-!
#490000
1!
1-!
0M!
1A!
1Q!
1R!
0O!
1L!
1J!
0H!
1F!
0>!
#500000
0!
0-!
#510000
1!
1-!
1M!
1K!
0I!
1G!
0A!
1X!
1O!
0L!
1>!
#520000
1(
0'
0!
18!
09!
0-!
1\!
1=!
1E!
1P!
1T!
1c
1y!
1w!
1U
0z!
#530000
1!
1-!
0M!
1A!
1^!
0Q!
0R!
0O!
1_!
1L!
0F!
0>!
1c!
#540000
0!
0-!
#550000
1!
1-!
1e!
1M!
0G!
0A!
0X!
1i!
1O!
0L!
1>!
1j!
#560000
1'
0!
19!
0-!
#570000
1!
1-!
0M!
1A!
0^!
1Q!
1R!
0O!
0_!
1L!
0J!
1F!
0>!
0c!
#580000
0!
0-!
#590000
1!
1-!
0e!
1M!
0K!
1G!
0A!
1X!
0i!
1O!
0L!
1>!
0j!
#600000
1)
0(
0'
0!
1:!
08!
09!
0-!
1b!
0=!
0\!
0E!
0P!
0T!
0c
0y!
0w!
0U
1z!
#610000
1!
1-!
0M!
1A!
1^!
0Q!
0R!
0O!
1_!
1L!
0F!
0>!
1c!
#620000
0!
0-!
#630000
1!
1-!
1e!
1M!
0G!
0A!
0X!
1i!
1O!
0L!
1>!
1j!
#640000
1'
0!
19!
0-!
1=!
1;!
1E!
1P!
1T!
1c
1y!
1w!
1U
0z!
#650000
1!
1-!
0M!
1A!
0^!
1Q!
1R!
0O!
0_!
1H!
1F!
0>!
0c!
#660000
0!
0-!
#670000
1!
1-!
0e!
1I!
1G!
0A!
1X!
0i!
1L!
0F!
1>!
0j!
#680000
1(
0'
0!
18!
09!
0-!
1\!
1<!
0;!
0<!
#690000
1!
1-!
1M!
0G!
1A!
1^!
0Q!
0R!
1O!
1_!
0L!
0>!
1c!
#700000
0!
0-!
#710000
1!
1-!
1e!
0M!
0A!
0X!
1i!
0O!
1L!
1J!
0H!
1F!
1>!
1j!
#720000
1'
0!
19!
0-!
1;!
1<!
#730000
1!
1-!
1M!
1K!
0I!
1G!
1A!
0^!
1Q!
1R!
1O!
0_!
0L!
0>!
0c!
#740000
0!
0-!
#750000
1!
1-!
0e!
0M!
0A!
1X!
0i!
0O!
1L!
0F!
1>!
0j!
#760000
0)
0(
0'
0!
0:!
08!
09!
0-!
0b!
0=!
0;!
0\!
0<!
0E!
0P!
0T!
0c
0y!
0w!
0U
1z!
#770000
1!
1-!
1M!
0G!
1A!
1^!
0Q!
0R!
1O!
1_!
0L!
0>!
1c!
#780000
1&
0!
1.!
0-!
#790000
1!
1-!
1/!
1e!
0M!
0A!
15!
13!
0X!
1a
1b
0O!
xD!
0t!
1P!
1U!
1T
1S
1L!
0J!
1F!
1>!
1v!
0o!
1d!
16!
1e
0h
1v
1m
0P!
15"
1-"
1#"
1w!
14
1=
0/
1W
1T!
0+"
0$"
1{!
1o
0r
0y
1c
03"
10"
0""
1&"
0#"
1U
0@
09
16
0T!
1("
1$"
0{!
0o
1r
1u
0c
1q
0&"
1#"
18
0U
1<
19
06
1'"
0("
0$"
0r
0u
1t
1;
0<
09
0'"
1("
1$"
1r
1u
0t
0;
1<
19
#800000
0&
0!
0.!
0-!
0/!
#810000
1!
1-!
1M!
0K!
1G!
1A!
0^!
1O!
0_!
1V!
0L!
0>!
1P!
0c!
1W!
1T!
0d!
1]!
1d
0e
1c
0#"
1}!
05"
1/"
1U
0W
1V
13"
0("
0$"
1~!
1p
0r
0u
0<
09
17
#820000
0!
0-!
#830000
1!
1-!
0e!
0M!
0A!
0O!
1L!
0F!
1>!
0P!
0T!
0c
0}!
1|!
0U
1""
1%"
1s
0q
08
1:
#840000
0!
0-!
#850000
1!
1-!
1M!
0G!
1A!
1O!
0V!
0L!
0>!
1P!
0W!
1T!
0]!
0d
1c
0|!
1y!
0/"
0-"
1U
0V
0""
0z!
00"
0%"
0~!
1("
1u
0p
0s
1q
18
0:
07
1<
1$"
1~!
1{!
1o
1p
1r
19
17
16
#860000
0!
0-!
#870000
1!
1-!
0M!
0A!
0O!
1H!
1F!
1>!
0P!
0T!
0c
0y!
0w!
0U
1z!
1""
0("
0u
0q
08
0<
0$"
0~!
0p
0r
09
07
#880000
0!
0-!
#890000
1!
1-!
1I!
1G!
1A!
1j!
1V!
1L!
0F!
0>!
1W!
1k!
1f
12"
1-"
1!"
1w!
1X
1]!
1d
10"
1;"
1:"
02"
0-"
0*"
0!"
0w!
1V
0{!
1+"
1)"
1w
1|
1y
0o
1x
00"
1?
06
1@
1C
1>
1{!
1o
16
#900000
0!
0-!
#910000
1!
1-!
1M!
0G!
0A!
1O!
0V!
0L!
1>!
1P!
0W!
1T!
0]!
0d
1c
1w!
0;"
0:"
12"
1-"
1*"
1U
0V
0+"
0)"
0w
0|
0y
0x
0""
10"
0?
0@
0C
0>
0{!
0o
1q
18
06
#920000
0!
0-!
#930000
1!
1-!
0M!
1A!
0O!
1L!
1J!
0H!
1F!
0>!
0P!
0T!
0c
1!"
0U
1""
0q
08
#940000
0!
0-!
#950000
1!
1-!
1M!
1K!
0I!
1G!
0A!
1O!
1_!
0j!
1V!
0L!
1>!
1P!
1c!
1W!
0k!
0f
02"
0-"
0!"
0w!
0X
1T!
1d!
1]!
1d
1e
1c
00"
1w!
1-"
1,"
1x!
1U
1W
1V
1{!
1o
0""
0z!
16
0{!
0o
1q
18
06
1$"
1~!
1{!
1o
1p
1r
19
17
16
#960000
0!
0-!
#970000
1!
1-!
0M!
1A!
0O!
1L!
0F!
0>!
0P!
0T!
0c
1!"
1z!
0U
1'"
1t
1""
1;
0$"
0~!
0{!
0o
0p
0r
0q
08
09
07
06
#980000
0!
0-!
#990000
1!
1-!
1M!
0G!
0A!
1O!
0V!
0L!
1>!
1P!
0W!
1T!
0]!
0d
1c
1&"
0!"
0z!
15"
0,"
0x!
1U
0V
0'"
0t
0""
03"
10"
1z!
0;
1'"
1$"
1~!
1{!
1o
1p
1r
1t
1q
18
1;
19
17
16
0$"
0~!
0{!
0o
0p
0r
09
07
06
#1000000
0!
0-!
#1010000
1!
1-!
0M!
1A!
0O!
1L!
0J!
1F!
0>!
0P!
0T!
0c
0&"
1#"
0U
0'"
1("
1$"
1r
1u
0t
0;
1<
19
#1020000
0!
0-!
#1030000
1!
1-!
1M!
0K!
1G!
0A!
1O!
0_!
1V!
0L!
1>!
1P!
0c!
1W!
1T!
0d!
1]!
1d
0e
1c
0#"
1}!
05"
1/"
1U
0W
1V
13"
0("
0$"
1~!
1p
0r
0u
0<
09
17
#1040000
0!
0-!
#1050000
1!
1-!
0M!
1A!
0O!
1L!
0F!
0>!
0P!
0T!
0c
0}!
1|!
0U
1""
1%"
1s
0q
08
1:
#1060000
0!
0-!
#1070000
1!
1-!
1M!
0G!
0A!
1O!
0V!
0L!
1>!
1P!
0W!
1T!
0]!
0d
1c
0|!
1y!
0/"
0-"
1U
0V
0""
0z!
00"
0%"
0~!
1("
1u
0p
0s
1q
18
0:
07
1<
1$"
1~!
1{!
1o
1p
1r
19
17
16
#1080000
0!
0-!
#1090000
1!
1-!
0M!
1A!
0O!
1H!
1F!
0>!
0P!
0T!
0c
0y!
0w!
0U
1z!
1""
0("
0u
0q
08
0<
0$"
0~!
0p
0r
09
07
#1100000
0!
0-!
#1110000
1!
1-!
1I!
1G!
0A!
1j!
1V!
1L!
0F!
1>!
1W!
1k!
1f
12"
1-"
1!"
1w!
1X
1]!
1d
10"
1;"
1:"
02"
0-"
0*"
0!"
0w!
1V
0{!
1+"
1)"
1w
1|
1y
0o
1x
00"
1?
06
1@
1C
1>
1{!
1o
16
#1120000
0!
0-!
#1130000
1!
1-!
1M!
0G!
1A!
1O!
0V!
0L!
0>!
1P!
0W!
1T!
0]!
0d
1c
1w!
0;"
0:"
12"
1-"
1*"
1U
0V
0+"
0)"
0w
0|
0y
0x
0""
10"
0?
0@
0C
0>
0{!
0o
1q
18
06
#1140000
0!
0-!
#1150000
1!
1-!
0M!
0A!
0O!
1L!
1J!
0H!
1F!
1>!
0P!
0T!
0c
1!"
0U
1""
0q
08
#1160000
0!
0-!
