work1_1/simulation/qsim/work1_1.msim.vcd
$comment
	File created using the following command:
		vcd file work1_1.msim.vcd -direction
$end
$date
	Mon Mar 05 10:48:42 2018
$end
$version
	ModelSim Version 10.5b
$end
$timescale
	1ps
$end

$scope module top_vlg_vec_tst $end
$var reg 2 ! dp [1:0] $end
$var wire 1 " led $end

$scope module i1 $end
$var wire 1 # gnd $end
$var wire 1 $ vcc $end
$var wire 1 % unknown $end
$var tri1 1 & devclrn $end
$var tri1 1 ' devpor $end
$var tri1 1 ( devoe $end
$var wire 1 ) led~output_o $end
$var wire 1 * dp[0]~input_o $end
$var wire 1 + dp[1]~input_o $end
$var wire 1 , led~0_combout $end
$upscope $end
$upscope $end
$enddefinitions $end
#0
$dumpvars
b0 !
0"
0#
1$
x%
1&
1'
1(
0)
0*
0+
0,
$end
#10000
b10 !
1+
#20000
b0 !
0+
#30000
b10 !
1+
#40000
b0 !
0+
#50000
b10 !
1+
#60000
b0 !
0+
#70000
b10 !
1+
#80000
b0 !
0+
#90000
b10 !
1+
#100000
b0 !
0+
#110000
b10 !
1+
#120000
b0 !
0+
#130000
b1 !
b11 !
1*
1+
1,
1)
1"
#140000
b1 !
0+
0,
0)
0"
#150000
b11 !
1+
1,
1)
1"
#160000
b1 !
0+
0,
0)
0"
#170000
b11 !
1+
1,
1)
1"
#180000
b1 !
0+
0,
0)
0"
#190000
b11 !
1+
1,
1)
1"
#200000
b1 !
0+
0,
0)
0"
#210000
b11 !
1+
1,
1)
1"
#220000
b1 !
0+
0,
0)
0"
#230000
b11 !
1+
1,
1)
1"
#240000
b1 !
0+
0,
0)
0"
#250000
b11 !
1+
1,
1)
1"
#260000
b1 !
0+
0,
0)
0"
#270000
b11 !
1+
1,
1)
1"
#280000
b1 !
0+
0,
0)
0"
#290000
b11 !
1+
1,
1)
1"
#300000
b1 !
0+
0,
0)
0"
#310000
b11 !
1+
1,
1)
1"
#320000
b1 !
0+
0,
0)
0"
#330000
b0 !
b10 !
0*
1+
#340000
b0 !
0+
#350000
b10 !
1+
#360000
b0 !
0+
#370000
b10 !
1+
#380000
b0 !
0+
#390000
b10 !
1+
#400000
b0 !
0+
#410000
b10 !
1+
#420000
b0 !
0+
#430000
b10 !
1+
#440000
b0 !
0+
#450000
b10 !
1+
#460000
b0 !
0+
#470000
b10 !
1+
#480000
b0 !
0+
#490000
b10 !
1+
#500000
b0 !
0+
#510000
b10 !
1+
#520000
b0 !
0+
#530000
b10 !
1+
#540000
b0 !
0+
#550000
b10 !
1+
#560000
b0 !
0+
#570000
b10 !
1+
#580000
b0 !
0+
#590000
b10 !
1+
#600000
b0 !
0+
#610000
b10 !
1+
#620000
b0 !
0+
#630000
b10 !
1+
#640000
b0 !
0+
#650000
b10 !
1+
#660000
b0 !
0+
#670000
b10 !
1+
#680000
b0 !
0+
#690000
b10 !
1+
#700000
b0 !
0+
#710000
b10 !
1+
#720000
b0 !
0+
#730000
b10 !
1+
#740000
b0 !
0+
#750000
b10 !
1+
#760000
b0 !
0+
#770000
b10 !
1+
#780000
b0 !
0+
#790000
b10 !
1+
#800000
b0 !
0+
#810000
b10 !
1+
#820000
b0 !
0+
#830000
b10 !
1+
#840000
b0 !
0+
#850000
b10 !
1+
#860000
b0 !
0+
#870000
b10 !
1+
#880000
b0 !
0+
#890000
b10 !
1+
#900000
b0 !
0+
#910000
b10 !
1+
#920000
b0 !
0+
#930000
b10 !
1+
#940000
b0 !
0+
#950000
b10 !
1+
#960000
b0 !
0+
#970000
b10 !
1+
#980000
b0 !
0+
#990000
b10 !
1+
